76.4177 0.150002 216 2165.64 0.5 0.5
208.554 0.085155
42.9422 0.08625
37.6449 0.177494
74.6435 0.044684
30.6772 0.213177
80.197 0.11949
128.097 0.076877
19.339 0.170598
103.968 0.109429
80.6424 0.261623
12.3714 0.295252
221.11 0.140174
97.5394 0.274632
81.6033 0.115612
32.4425 0.187608
42.6082 0.178448
58.9181 0.278659
42.1819 0.032393
42.1942 0.408175
25.1011 0.039307
10.1848 0.004083
12.0365 0.056504
48.6496 0.052433
56.3426 0.362983
141.955 0.030442
81.7417 0.086321
48.3697 0.141974
14.512 0.352914
19.0049 0.209069
40.0051 0.020388
34.4839 0.430883
57.999 0.141296
14.302 0.107864
46.864 0
