129.94 0.062789 236 12539.5 0.5 0.666667
234.972 0.088741
207.093 0.059028
244.02 0.050518
318.987 0.067194
460.437 0.124799
85.9155 0.098669
114.077 0.016183
354.073 0.099561
190.375 0.117514
312.287 0.088466
575.788 0.056074
474.337 0.109664
598.576 0.102266
48.6094 0.030464
624.971 0.112145
190.393 0.045111
287.441 0.09494
198.669 0.027902
29.6874 0.034385
475.069 0.038125
29.1992 0.038585
248.518 0.063675
69.9828 0.135534
64.1385 0.126327
246.846 0.114419
525.323 0.070781
280.584 0.115143
175.484 0.02535
203.318 0.029296
271.295 0.155924
87.551 0.067005
48.2485 0.384616
36.9524 0.024016
87.3856 0.17966
158.516 0.155441
22.6292 0.062563
844.802 0.132361
167.391 0.138908
64.4013 0.277476
120.48 0.130945
378.357 0.093882
45.6821 0.090095
341.009 0.167356
309.659 0.08104
226.183 0.042856
121.489 0.060896
36.1314 0.002903
23.5129 0.048112
64.5146 0.052851
81.0612 0.070934
169.224 0.222553
22.0809 0.364019
148.706 0.066082
199.516 0.091622
50.4625 0.199943
204.684 0.04555
71.2559 0.075195
29.5789 0.457252
66.5891 0.17545
18.4712 0.129354
22.5348 0.139663
