182.184 0.256654 196 9099.86 0.5 0.5
154.808 0.095193
16.5289 0.032714
44.0547 0.040932
273.48 0.197425
205.914 0.145643
156.754 0.109372
382.078 0.114578
58.8637 0.18465
105.515 0.035542
346.706 0.124297
60.4606 0.041337
180.899 0.151331
461.263 0.12131
199.782 0.209094
123.859 0.040635
267.451 0.04682
328.035 0.116623
169.501 0.074441
226.878 0.084902
238.681 0.158594
115.522 0.10073
211.176 0.118758
225.391 0.212014
66.7421 0.210044
232.536 0.234174
11.2228 0.101712
125.216 0.149838
104.784 0.24168
138.898 0.071491
28.5548 0.076723
461.183 0.094944
20.9105 0.399952
366.198 0.163945
273.437 0.212388
78.0884 0.185545
127.373 0.197746
80.0987 0.178754
91.8799 0.124531
66.2986 0.052431
53.8779 0.047675
496.833 0.104256
68.5279 0.357592
46.0938 0.172928
46.5936 0.244112
50.71 0.054831
62.6564 0.062339
53.2627 0.174665
49.1873 0.187866
238.009 0.179163
14.8351 0.080085
100.612 0.234356
128.424 0.195113
51.6174 0.012242
37.1195 0.154329
64.727 0.057057
55.5703 0.048
147.236 0.141794
19.3195 0.224589
65.4072 0.325042
11.8869 0.046263
18.3755 0.06843
35.5793 0.268329
30.6231 0.245498
34.1234 0.017325
37.6908 0.29134
28.382 0.034948
43.3746 0.126296
