80.4816 0.225891 96 22383.2 0.5 0.5
28.5629 0
119.269 0.255593
187.269 0.195136
61.9253 0.301386
115.681 0.136356
102.983 0.165739
32.734 0.106775
36.8875 0.110892
152.926 0.140567
45.0906 0.0934
54.1072 0.085423
57.3123 0.197323
19.538 0
20.6605 0.058182
72.0141 0.299264
91.7925 0.080379
189.5 0.074532
26.9091 0.207225
92.5265 0.166417
15.0991 0.084781
41.2689 0.193617
35.764 0.071929
21.5693 0
66.0512 0.14595
90.8972 0.093451
82.9338 0.257018
50.8569 0.13568
234.468 0.12671
232.809 0.094954
72.0416 0.01494
48.772 0.111456
21.7246 0
50.7122 0.10973
85.4951 0
12.4156 0.135633
16.2448 0.175254
14.7697 0.244649
28.8119 0.210746
109.727 0.197379
127.138 0.088616
93.5991 0.049591
94.4241 0.215485
64.5483 0.142821
35.4844 0.091073
15.9792 0.04202
30.7792 0
71.2063 0.343167
35.8575 0.226184
27.7771 0.735852
20.0336 0.205927
67.1969 0.059219
58.0601 0.072289
73.3343 0.064178
204.967 0.237495
134.154 0.161162
67.3647 0.133705
148.186 0.248321
15.5497 0
32.6957 0.011868
38.7957 0.058411
14.1409 0
108.375 0.223076
26.1135 0.32145
25.9128 0.107538
45.1356 0.295281
33.2823 0
46.8179 0.10789
35.4784 0
34.2843 0.318365
43.9855 0
59.2777 0.070192
181.994 0.160983
111.004 0.189434
100.934 0.111175
15.6874 0
34.6163 0
14.666 0.802149
138.728 0.078522
77.84 0.116288
74.5546 0
141.761 0.149018
45.7388 0.295112
16.0581 0
26.4203 0.06425
33.8647 0.728398
140.594 0.213131
38.3448 0.158286
57.3675 0.157392
39.0372 0.120319
93.5608 0.287429
177.564 0.177363
87.8573 0.165911
132.277 0.126026
25.4776 0.134566
38.3299 0.015667
61.8989 0.13208
12.6084 0
19.9247 0.849202
55.8781 0.053877
44.7581 0
59.0632 0.375281
25.0751 0.119981
81.0022 0.116126
35.219 0.587975
29.72 0.058727
60.2726 0.100498
14.1027 0.421956
61.6664 0.19846
46.4291 0.042068
68.5382 0.068483
44.3934 0.105682
153.84 0.128193
144.85 0.105379
22.9337 0.073996
73.2053 0.224464
40.2416 0
64.1457 0.19309
46.9304 0.145714
40.8163 0.167282
21.3946 0.058409
290.782 0.195034
16.4737 0.077963
53.7601 0.135599
109.416 0.219931
74.6687 0.243071
54.1468 0.19602
229.19 0.282046
55.9873 0.101639
40.8554 0
80.4133 0.278177
119.366 0.246612
20.5381 0.181229
69.7301 0.206869
71.7945 0.10055
29.2504 0.28541
31.0784 0.145761
35.6323 0.045471
192.807 0.156471
28.1841 0.176091
72.5426 0.17725
101.449 0.245536
177.817 0.067956
33.8374 0.039974
31.44 0.184398
62.1156 0.344255
39.6734 0.06956
36.8372 0.293196
32.1068 0.158282
78.4466 0.049763
19.5845 0.041643
63.6628 0.093416
26.746 0.013212
37.7135 0.103539
35.7023 0.108973
29.9583 0.049253
23.3181 0
204.123 0.227126
39.8095 0.183555
33.6351 0
24.1124 0
13.8882 0.039688
57.4185 0.056438
46.3213 0.503833
17.3886 0.176381
76.9851 0.225539
30.5831 0.079499
22.9524 0.499959
17.5362 0
23.6658 0.710015
47.3598 0.124849
54.62 0.322856
97.0603 0.234904
50.0009 0.165424
21.9948 0.353109
66.6512 0.128872
28.1166 0.204576
50.4024 0.187081
70.9912 0.05537
36.224 0.218028
59.8469 0.448376
24.1603 0.991903
58.4705 0.131011
36.0301 0.037194
44.6312 0
32.6608 0.123761
20.9482 0.092182
31.7379 0.255967
150.276 0.1524
62.7384 0.279475
14.8036 0.156595
21.3624 0.413871
38.329 0.359911
100.542 0.18518
73.0479 0.269568
283.752 0.107471
28.4674 0.140321
66.9695 0.181969
224.326 0.178746
27.8469 0.023395
24.8065 0.052217
33.9573 0.17569
22.2475 0.366641
125.818 0.024688
21.2931 0.123428
16.1321 0.673465
72.4528 0.378029
32.1841 0.038134
83.2307 0
74.0891 0.173427
86.8674 0.130803
32.4803 0.06429
59.0533 0.171416
147.262 0.189928
50.3509 0.288797
28.9993 0.049572
38.4186 0.152356
120.87 0.11005
54.4401 0.137767
14.0139 0.000702
44.9519 0.086053
160.571 0.170071
10.1447 0.543225
31.877 0.190201
24.5847 0.046103
34.3575 0.135142
57.0722 0.198154
50.7532 0.239189
28.0754 0.012818
25.6969 0.058836
26.6693 0.261822
37.8835 0.257358
20.9768 0.212649
90.4171 0.216815
16.8434 0
37.5379 0.118315
72.4116 0.265761
21.8471 0.047267
14.1534 0
23.3794 0
34.9996 0.097182
173.043 0.200727
142.574 0.223828
20.7723 0
14.0442 0
127.149 0.176853
168.449 0.142199
50.3924 0.356041
62.7235 0.296793
74.5554 0.277863
34.0496 0.024424
30.7619 0.032689
77.2421 0.275668
40.0103 0.555285
26.9095 0
26.669 0.25411
63.1812 0.053634
84.2586 0.271206
127.206 0.113306
35.9301 0.082701
164.18 0.179969
57.5225 0
23.4452 0.05151
28.6115 0
39.5248 0.002602
70.2707 0.222222
37.2123 0.068974
41.4019 0.15841
67.313 0.148681
57.4615 0.06551
126.897 0.22671
27.374 0.201583
21.7028 0
45.0798 0.082782
48.9989 0.171708
86.0667 0.117302
35.2306 0.150569
10.6183 0.388075
44.2238 0.384246
34.4236 0.080345
52.5022 0.28301
73.1808 0.132736
60.4214 0.175973
179.702 0.184209
19.5123 0.503927
57.382 0.248366
40.0128 0.21772
68.7526 0.10915
18.7508 0.028525
67.2798 0.242046
23.4254 0.074542
73.6603 0.291148
83.4053 0.417183
57.6585 0.16739
63.7197 0.142031
38.8003 0.235598
77.3838 0.063855
71.5084 0.019793
10.9628 0
39.762 0
55.1001 0.052001
31.9607 0
115.182 0.248195
79.4742 0.056484
10.4985 0.386061
24.8865 0.084747
28.0273 0.083158
151.96 0.072117
47.4007 0.196979
21.1962 0.323798
55.9927 0.072435
222.98 0.199692
12.3409 0
47.5801 0.07527
54.7784 0.387788
35.2167 0.048064
69.1428 0
126.219 0.050113
52.0298 0.133137
32.3181 0.118199
83.7632 0.358319
55.349 0.115727
34.4 0.121791
19.138 0
13.782 0
33.6009 0.077771
27.9976 0.22071
27.5777 0.027766
77.6218 0.447226
11.3397 0.903254
12.917 0.062968
92.856 0.116434
48.0119 0.214981
48.9019 0.11697
37.9056 0
12.2273 0.159398
122.286 0.171276
40.4356 0.120475
99.0385 0.420974
27.4092 0.054209
51.4656 0.129308
33.0067 0.040881
34.904 0.244063
22.8304 0.014208
26.1607 0.071241
28.4883 0
35.651 0.070845
11.7766 0.138149
13.8849 0
55.5834 0.183883
34.8184 0.21082
43.3452 0.079514
55.0531 0
31.0861 0.229864
18.1167 0.225938
49.6042 0.231693
41.749 0
22.8333 0.275361
26.0425 0.079421
16.1188 0
17.2026 0
17.106 0.0535
44.5237 0.143722
21.8554 0.037771
16.7556 0
14.0286 0.084068
22.9808 0
11.6464 0.073781
16.3371 0
38.2331 0
12.2466 0
13.1265 0.101326
20.7403 0.364131
58.0459 0.191745
68.3425 0.198021
33.7575 0.278797
11.6713 0.963146
10.0033 0
15.1195 0
14.5235 0
21.7151 0
17.4591 0
21.1111 0
24.0076 0.583916
11.9439 0
34.1953 0.842615
15.3755 0.765909
17.8695 0
41.7867 0.181032
45.9876 0.329954
31.5847 0
15.1122 0
27.6164 0
32.824 0.088868
