180.78 0.168151 236 7668.52 0.5 0.5
327.039 0.189212
110.995 0.150181
96.8667 0.132108
462.761 0.125088
504.778 0.07615
1238.01 0.124314
104.946 0.314578
136.924 0.096899
155.264 0.103497
728.18 0.140423
289.169 0.158192
387.342 0.189587
132.845 0.186108
310.945 0.182511
86.0045 0.192735
229.329 0.14174
144.518 0.098192
128.292 0.081603
193.229 0.066779
286.982 0.135564
173.011 0.103914
115.438 0.160278
193.591 0.185981
216.003 0.166197
96.2058 0.083073
43.4954 0.167494
347.45 0.087547
163.48 0.147276
32.3726 0.166256
38.3875 0.371066
13.8916 0.326104
