154.323 0.201597 256 6851.11 0.5 0.5
268.905 0.241223
96.5342 0.146082
98.4344 0.134065
391.01 0.129557
799.136 0.154185
1124.41 0.124365
50.8639 0.464859
124.649 0.062349
139.468 0.105604
683.356 0.152008
276.37 0.154704
341.855 0.200645
111.866 0.191945
190.353 0.195465
35.2554 0.188853
130.604 0.094624
189.189 0.074611
219.385 0.125977
193.183 0.069607
291.006 0.113495
92.8494 0.225038
169.805 0.156593
165.35 0.239181
18.3483 0.192564
323.291 0.06844
146.696 0.130631
24.6137 0.116744
