144.43 0.20459 256 4167.71 0.5 0.666667
249.164 0.092652
52.1195 0.062686
210.866 0.14826
67.4477 0.062691
49.6226 0.059689
81.992 0.058705
52.4636 0.326783
154.034 0.173832
84.2667 0.014608
88.2432 0.043506
22.0357 0.071703
49.9251 0.026496
37.0842 0.184135
26.917 0.032956
95.847 0.253928
266.767 0.177716
44.9775 0.045929
81.9663 0.03204
318.432 0.143568
55.1011 0.17195
52.4928 0.061846
201.878 0.048471
47.7411 0.04812
82.3904 0.093785
191.537 0.128266
35.6054 0.058913
24.2386 0.293048
8.97636 0.287925
38.5229 0.014149
26.9935 0.22414
130.412 0.09872
58.1294 0.157259
54.9591 0.134431
76.7261 0.052391
28.9512 0.029501
127.833 0.074207
86.197 0.049895
22.4402 0.044056
66.4177 0.049473
132.586 0.080277
121.76 0.082142
20.1389 0.085488
38.7572 0.081727
21.0159 0.161837
46.0959 0.066073
20.8645 0.032208
80.1354 0.093525
37.4792 0.007371
28.6686 0
24.0661 0.416192
