160.232 0.075232 136 25398.1 0.5 0.666667
149.183 0.115216
42.5611 0.04303
184.953 0.137503
104.766 0.133505
199.838 0.129934
96.3928 0.120439
41.0799 0.205695
75.5222 0.050441
244.848 0.083302
26.2652 0.052488
163.046 0.166503
65.3371 0.035347
69.2707 0.048029
384.067 0.130218
255.898 0.081886
146.265 0.027003
489.962 0.044986
248.691 0.095751
92.2824 0.015029
157.145 0.085448
192.193 0.108631
183.038 0.082467
57.8362 0.087702
163.172 0.05209
354.918 0.076164
137.498 0.039073
208.178 0.160082
48.6167 0.113324
219.682 0.083072
37.4702 0.261182
34.0012 0.02344
86.8756 0.095654
139.198 0.062047
97.4226 0.069638
75.1585 0.079907
158.898 0.096197
161.703 0.079108
180.662 0.122978
26.8546 0.074799
139.133 0.09387
11.671 0.144163
99.1256 0.045032
150.434 0.093156
237.569 0.087604
246.671 0.095139
287.742 0.097939
79.9156 0.040864
19.7032 0.0544
211.417 0.093575
163.912 0.077135
182.744 0.073892
93.8133 0.091627
103.09 0.074773
84.2196 0.047321
152.136 0.121358
171.67 0.103914
25.0725 0.070408
127.929 0.081568
72.0105 0.021491
355.339 0.091783
33.6095 0.171001
155.47 0.015864
46.5977 0.047799
380.226 0.074304
17.9168 0.172517
22.7544 0.034949
78.1626 0.287787
116.042 0.0747
37.4671 0.02433
48.3546 0.079345
113.625 0.144169
21.315 0.048377
151.918 0.047608
31.7313 0.008951
71.6539 0.072891
126.502 0.061725
16.9856 0.198267
256.135 0.10088
151.173 0.112583
120.093 0.148202
110.018 0.032804
65.7697 0.086971
113.315 0.035182
126.988 0.051324
143.601 0.110362
101.92 0.123693
145.766 0.088628
165.781 0.060769
431.583 0.060994
189.501 0.072652
125.165 0.025582
62.6478 0.057731
36.5721 0.022479
116.001 0.1614
22.1241 0.081886
78.0713 0.177703
73.651 0.042573
85.3252 0.179608
185.272 0.093548
95.3348 0.025984
32.8205 0.023415
151.833 0.152271
102.665 0.057182
95.9526 0.018259
139.704 0.052904
166.247 0.106767
270.472 0.048767
21.4688 0.181899
96.5861 0.138119
48.0813 0.139188
65.0273 0.100842
166.575 0.090826
298.945 0.124078
125.376 0.062014
191.28 0.100595
355.726 0.076868
19.7917 0.134209
124.679 0.075534
76.631 0.110373
72.5528 0.033258
19.0519 0.114714
104.607 0.010065
46.6261 0.075564
33.6303 0.124912
49.3469 0.0625
19.6246 0.143668
92.1017 0.090139
143.588 0.109707
13.2751 0.11129
372.065 0.092804
41.9198 0.099466
106.757 0.127688
180.82 0.091036
22.5652 0.677704
64.6605 0.054908
395.038 0.063908
17.4734 0.081807
333.438 0.089364
79.4285 0.110266
28.584 0.058711
39.6225 0.089522
44.4591 0.044311
34.0488 0.028417
71.7982 0.056399
53.3992 0.098627
131.609 0.086356
235.334 0.069881
134.529 0.074786
198.046 0.097354
39.8561 0.087997
16.694 0.17477
157.149 0.133461
49.8842 0.172093
69.8166 0.110714
88.2682 0.060226
19.0479 0.038815
41.2987 0
25.6443 0.062153
78.8436 0.060495
144.567 0.124182
49.3157 0.125385
81.6481 0.015321
112.919 0.018051
82.5437 0.158652
40.9022 0.105049
73.3342 0.09102
184.305 0.083672
78.1906 0.185037
40.7367 0.013986
68.6471 0.183701
127.309 0.113963
108.418 0.042195
21.1037 0.16359
38.197 0.036247
17.1883 0.044908
12.0666 0.26472
54.1083 0.140831
37.3247 0.115
37.4918 0.013232
63.9895 0.096733
82.0488 0.139906
91.759 0.053322
170.374 0.075013
174.639 0.059132
234.946 0.099198
100.974 0.165215
146.165 0.080926
135.099 0.099829
17.7937 0.201529
72.7594 0.176615
25.2988 0.035308
59.2134 0.083688
39.5192 0.29048
35.9228 0.008743
34.9076 0.033693
104.39 0.034062
155.235 0.134062
29.6182 0.038045
127.042 0.118179
151.444 0.130084
21.2487 0.016734
266.238 0.061556
47.8403 0.123752
66.9998 0.048821
125.651 0.092104
49.4584 0.148526
48.9748 0.043895
56.6768 0.010555
49.8723 0.511423
32.8795 0.090319
16.2644 0.279365
31.0921 0.025069
28.2006 0.017577
53.7307 0.030447
183.493 0.076427
121.776 0.070121
55.2999 0.185482
69.6949 0.118035
123.669 0.120221
100.08 0.134596
46.3527 0.259497
54.7844 0.105235
30.0149 0.075104
42.7909 0.189262
46.8991 0.165964
24.1886 0.068549
46.648 0.41868
20.3056 0.100979
21.1256 0.053452
20.4528 0.088464
14.2733 0.021855
14.2394 0.089812
14.1247 0.023877
18.1923 0.21898
10.4287 0.054252
22.6477 0.070996
28.6863 0.050111
20.6062 0.023288
15.7677 0.038269
12.1495 0.056478
13.9218 0.039349
12.0351 0.061673
39.0487 0.050816
19.3943 0.980625
11.6312 0.127155
