80.5489 0.149135 116 21416.1 0.5 0.5
252.057 0.113515
91.4874 0.101891
94.8922 0.073522
65.2985 0.076339
53.6146 0.106296
278.181 0.080885
40.9386 0.046317
192.4 0.119692
107.956 0.136294
22.8925 0.281941
76.7167 0.125012
97.6882 0.123692
82.7557 0.112326
20.7678 0.035074
91.0715 0.191828
302.49 0.106549
69.9549 0.101763
148.931 0.192175
138.344 0.160541
44.597 0.145829
27.5161 0.024977
200.487 0.13169
51.0333 0.124915
115.619 0.191552
464.831 0.135419
372.685 0.079236
47.1568 0.290014
85.5649 0.266266
126.624 0.120343
297.989 0.139471
96.5869 0.143593
61.1614 0.150742
33.0429 0.138924
116.891 0.089665
153.342 0.120993
145.271 0.083552
38.1259 0.012602
69.2682 0.035475
79.0331 0.183958
328.719 0.094349
49.6912 0.186192
30.9178 0.047257
42.9652 0.024313
54.1952 0.222254
166.153 0.121157
96.8026 0.252329
27.6806 0.122116
29.0583 0.161635
29.2806 0.081486
30.9445 0.011262
157.901 0.254619
103.927 0.218289
34.0015 0.261521
179.139 0.098856
40.9234 0.139559
40.1644 0.088153
260.64 0.083079
33.5742 0.371547
83.6967 0.1129
72.3002 0.167926
16.168 0
48.5397 0.178721
140.801 0.104309
17.7458 0.292953
77.714 0.196232
125.458 0.037863
55.0816 0.22112
10.0624 0.05559
91.7864 0.194333
211.948 0.176449
183.591 0.106402
154.212 0.100887
276.89 0.128947
241.492 0.112389
354.868 0.097398
46.809 0.130416
51.6507 0.083366
80.1405 0.125084
250.284 0.088962
59.0507 0.17384
59.7989 0.127543
96.7614 0.060672
252.238 0.120784
84.3078 0.23694
276.934 0.084334
356.256 0.127999
33.9602 0.021981
49.3372 0.10604
129.31 0.154216
130.464 0.068374
36.3872 0.104802
74.0622 0.115655
19.3868 0.048646
112.481 0.111416
124.252 0.18107
11.6997 0.115557
35.9344 0.098702
22.2802 0.040968
13.7804 0.242129
94.5843 0.054496
493.88 0.167343
68.5497 0.346679
80.3401 0.179493
115.931 0.083765
19.108 0.031764
76.7289 0.124382
39.7219 0.135821
81.8588 0.22777
39.1862 0.15666
97.4936 0.058673
25.6108 0.09753
74.6462 0.230598
98.6344 0.136499
51.0244 0.208817
80.0328 0.083354
52.2872 0.016639
157.438 0.154931
177.379 0.083422
102.68 0.094811
93.525 0.257464
43.2341 0.214179
28.7362 0.257693
93.5119 0.131793
45.2953 0.101858
36.9479 0.049913
106.762 0.115226
145.866 0.143335
29.1187 0.042332
30.7789 0.23068
19.0053 0.284072
50.2204 0.126738
45.1691 0.053298
59.4138 0.099434
339.432 0.207415
143.122 0.084058
76.5788 0.025276
22.4319 0.209922
72.8223 0.200074
120.541 0.061521
83.8447 0.0567
124.705 0.12577
119.523 0.346955
48.9513 0.062124
61.0488 0.171516
40.3425 0.026525
32.4837 0.132869
245.851 0.201049
176.079 0.15591
381.294 0.091935
77.8436 0.176772
31.8208 0.151496
23.9943 0.171793
98.7039 0.147852
66.8389 0.166564
31.7903 0.151102
61.0684 0.14471
79.884 0.160479
59.9349 0.167094
100.11 0.091967
90.0373 0.202933
61.1482 0.04311
70.2983 0.087931
153.168 0.149865
77.1565 0.063923
24.7245 0.298387
45.1473 0.274797
84.9968 0.183216
82.3261 0.160927
54.2158 0.148711
146.279 0.099939
136.262 0.10949
93.3854 0.047873
60.4444 0.06915
320.241 0.154595
138.759 0.08487
53.7432 0.207957
24.4995 0.199158
52.2238 0.038181
65.0429 0.25969
171.552 0.19716
105.735 0.145616
40.6974 0.160181
44.2819 0.0567
81.2991 0.138801
33.4201 0.249357
79.2946 0.059855
194.139 0.107253
61.9915 0.127357
204.178 0.235677
66.0785 0.272832
30.7213 0.049535
11.8209 0.10603
104.676 0.063209
68.4647 0.094887
29.1629 0.115106
89.3123 0.187877
49.6337 0.114867
115.567 0.057445
45.446 0.154898
47.6188 0.109777
9.15363 0
88.3346 0.087308
23.4295 0.16737
37.3622 0.299149
13.6876 0.214907
23.0669 0.035636
46.9947 0.281314
25.3061 0.11381
17.9419 0.269129
58.6879 0.14402
134.061 0.058837
58.9645 0.295968
30.7153 0.030052
14.3427 0.022599
25.3745 0.042867
13.7923 0.057163
9.68396 0.589409
14.6559 0.138665
43.1953 0.106247
15.4243 0.230619
21.8126 0.404198
33.7917 0
17.9079 0.04443
19.7722 0.028645
19.808 0.126701
32.1937 0.344353
15.9828 0.431545
35.9038 0.318142
20.6084 0.135624
16.5025 0.31528
29.5129 0.034323
15.7842 0.058878
25.0032 0.028484
18.4136 0.047106
16.6536 0.207835
44.9695 0.330796
