17.7719 0.825143 96 27070.4 0.5 0.5
101.934 0.171058
49.8688 0.045354
62.8407 0.074629
187.079 0.174305
50.3892 0.320655
37.2535 0.042126
57.8549 0.124069
367.879 0.13619
63.5536 0.112037
45.2667 0.25949
120.039 0.162801
89.6034 0.133962
95.1913 0.132689
78.7037 0.093928
119.572 0.213157
14.0816 0.02322
99.1095 0.154646
164.888 0.159761
94.1263 0.153984
100.979 0.229615
268.026 0.185807
79.77 0.24104
24.4903 0
55.5294 0.297204
49.9536 0.081466
142.435 0.13786
63.0858 0.210787
396.422 0.127563
106.38 0.204682
458.349 0.17107
294.105 0.060436
16.4101 0.145852
30.4127 0.100983
187.235 0.124631
100.729 0.152248
335.983 0.163633
170.429 0.153836
218.378 0.208819
53.4407 0
88.9192 0.173337
37.3913 0.177485
92.6119 0.024151
45.4138 0.234308
25.9067 0.08265
42.9958 0
66.2523 0.098224
178.109 0.106205
47.8416 0.060658
16.0854 0
90.1967 0.073993
96.61 0.280522
91.0767 0.170416
373.998 0.105129
92.5888 0.251566
26.4135 0.045579
41.7785 0.021547
110.317 0.272908
64.9766 0.227184
27.2442 0
65.965 0
87.3495 0.105719
78.1311 0.443669
25.8999 0.117704
44.3651 0.237686
101.103 0
27.4816 0.181304
17.9987 0
115.172 0.218597
38.905 0.017058
138.831 0.312226
241.779 0.217227
62.862 0.17263
146.467 0.108718
41.9628 0.32422
46.2345 0.213513
32.9508 0.100843
25.9523 0.048571
26.5863 0
114.062 0.046951
105.439 0.203844
94.7844 0.115196
68.3006 0.040677
110.836 0.153904
40.36 0
31.5819 0.070531
63.2299 0.23501
41.1762 0.089138
39.3807 0.320893
147.742 0.062042
84.3974 0.225868
34.2914 0.13242
23.8209 0
13.2035 0.412792
69.0734 0.214136
262.299 0.213218
197.492 0.154968
163.34 0.111262
171.567 0.239088
68.3513 0.313943
43.9643 0.099533
143.063 0.229319
67.1453 0.111065
38.4566 0.053076
144.76 0.105015
67.4839 0.02164
87.4532 0.109779
14.9166 0
21.7835 0.855026
28.652 0
131.776 0.122184
84.2472 0.187934
61.7146 0.108212
52.6709 0.069823
112.051 0.065346
25.5889 0.377022
151.068 0.134404
119.678 0.290968
181.58 0.046118
32.2669 0.305845
50.28 0.036488
45.9482 0.380593
632.728 0.062281
21.096 0.047063
159.675 0.086382
47.0849 0.152449
95.347 0.155177
51.0846 0.101279
201.174 0.195672
28.6455 0.031579
73.7198 0.114283
32.6465 0
54.9752 0.275131
149.864 0.067144
29.373 0.168512
29.9072 0.020557
363.749 0.188435
22.7376 0
28.7429 0
65.7096 0.130548
31.934 0.05008
85.0056 0.192435
48.3636 0.348627
128.425 0.213202
135.448 0.093481
73.7315 0.237293
34.5838 0.061182
64.4825 0.149008
161.631 0.30497
62.8467 0.17845
47.9117 0
89.0397 0.052156
38.0416 0.111778
44.3017 0
70.9856 0.243794
85.1106 0.100032
130.202 0.247941
32.9381 0.350897
114.058 0.190597
19.041 0.024025
93.3529 0.087766
25.0861 0
27.1392 0.498956
79.8404 0.124602
52.4065 0.037915
36.7194 0.148464
215.045 0.205861
43.0645 0.213956
177.508 0.322169
68.7114 0.053903
114.209 0.062325
19.8809 0.061942
33.1431 0
53.8595 0.406377
51.2152 0.119803
69.5867 0.191834
27.8157 0
51.7721 0.073584
38.5988 0.048758
18.4881 0
49.66 0.051149
24.4509 0.06335
128.814 0.123882
220.606 0.248941
31.798 0.051833
175.695 0.175191
193.298 0.184671
34.2832 0.146616
31.6361 0.317788
72.3149 0.247687
69.3371 0.151307
60.1355 0.102042
211.364 0.18967
12.4426 0.169984
155.383 0.174974
152.865 0.079971
69.6266 0.025678
27.2411 0.226607
83.7357 0.222755
28.2333 0.033528
27.0991 0.149833
21.3625 0
88.0233 0.061553
81.836 0.156979
56.7915 0.216669
21.0932 0
103.96 0.365198
98.6651 0.214168
50.6719 0.061891
91.3366 0.114323
65.632 0.164837
52.3315 0.086576
29.6271 0
35.0142 0.127467
91.2509 0.148423
96.3365 0.042868
17.6524 0.760716
24.1106 0.279145
68.7316 0.111126
144.257 0.261796
222.077 0.10733
61.8193 0.128578
53.811 0.118014
41.871 0.276254
99.909 0.21229
104.743 0.26496
338.585 0.154051
35.7185 0.285104
97.4965 0.176324
120.105 0.291067
45.1263 0.158232
73.8181 0.113193
22.7097 0.108159
55.0187 0.01923
49.1963 0.199651
35.7554 0.15326
65.3948 0.070824
49.7983 0.22237
29.4598 0.418006
26.6467 0.177089
39.5853 0.153518
134.663 0.106533
27.6903 0
25.8507 0
87.548 0.074874
136.055 0.215136
53.9957 0.352999
61.8867 0.330353
40.1104 0
45.817 0.012572
111.004 0.160589
34.8024 0.028853
145.68 0.253372
199.375 0.169953
148.142 0.143562
165.06 0.134048
48.3202 0.042086
26.341 0.295788
87.3013 0.176071
35.9772 0.054259
157.824 0.079312
68.3678 0.192612
154.727 0.184486
13.9793 0.934255
17.8945 0
105.619 0.200697
69.6976 0.057958
80.8174 0.197913
120.498 0.186406
61.2917 0.164887
131.529 0.196575
52.918 0.007474
41.3582 0.040209
341.894 0.135339
82.0991 0.166913
52.2721 0.34098
48.9773 0.332596
27.4862 0.055864
12.8538 0.130747
149.43 0.187927
83.6773 0.108819
54.1824 0.224062
49.3626 0.160353
63.9468 0.134488
102.222 0.035254
24.1071 0.715847
66.3015 0.209139
34.0083 0.107196
14.6301 0
32.1007 0.034361
68.369 0.192043
28.1368 0
27.0996 0.216282
33.237 0.066419
45.2369 0.267879
32.8868 0.272414
19.4619 0.035153
79.2731 0.498611
34.7899 0.127212
73.8583 0.1571
35.9201 0.182773
41.0648 0.173158
109.423 0.29483
46.1285 0.314804
41.7541 0.115182
29.1949 0.262743
32.1878 0.097216
23.8468 0.051687
17.618 0.120717
135.616 0.342283
28.8767 0.023256
26.5159 0
53.8571 0
33.0964 0
25.0725 0
46.7485 0.060435
20.0242 0.993558
33.4095 0.116036
23.0566 0
33.3131 0
23.0344 0
15.3837 0.322894
14.3498 0
15.253 0.779811
18.6948 0.463999
11.9854 0
22.6681 0.030241
11.7295 0.038304
9.39809 0.099938
17.5495 0
18.2199 0
25.2246 0.496965
27.1029 0.311712
46.9183 0.070729
43.9204 0.230157
17.3918 0
50.2194 0.309697
16.1007 0.37864
9.20903 0
16.5533 0
34.0912 0
