33.0469 0.099857 116 28931.5 0.5 0.666667
126.357 0.085539
50.5281 0.10041
17.3036 0.11172
92.405 0.108289
39.2812 0.079332
31.255 0.010702
66.5517 0.097615
89.1953 0.100226
218.904 0.108137
36.9071 0.178446
30.1477 0.164826
82.8884 0.053539
57.0732 0.124593
44.3211 0.036155
40.0227 0.201204
249.028 0.061953
200.136 0.076778
285.21 0.184818
392.114 0.070072
33.4899 0.063302
16.8686 0.099859
124.949 0.180246
223.319 0.166274
231.665 0.047798
145.57 0.096817
198.493 0.064147
90.4829 0.172811
217.211 0.053615
71.01 0.098873
31.9255 0.119043
288.081 0.122893
105.051 0.052542
71.2147 0.057062
467.596 0.099568
57.7944 0.112249
108.594 0.06898
106.679 0.085556
62.829 0.031654
91.0442 0.077483
210.612 0.145114
80.1864 0.01718
20.6223 0.088889
150.386 0.103659
61.3884 0.041347
86.2239 0.054706
22.8022 0.139592
26.2556 0.015227
127.224 0.129733
122.772 0.116394
70.6046 0.126201
280.507 0.067417
27.8234 0.008176
111.549 0.091812
91.428 0.060805
68.5428 0.053273
107.352 0.14672
53.2869 0.048533
119.309 0.040791
71.6383 0.020022
56.3276 0.101928
39.6632 0.132736
212.945 0.090702
138.507 0.119043
184.181 0.084918
302.645 0.114238
48.8514 0.073859
101.886 0.261554
46.472 0.029863
30.7285 0.117949
40.4022 0.147347
23.88 0.066848
12.8604 0
136.605 0.212463
113.203 0.110395
16.7954 0.051267
27.5485 0.186418
21.2097 0.011806
35.1383 0.079703
167.649 0.100963
79.1689 0.032031
52.8612 0.05408
87.5105 0.236725
44.8647 0.036349
149.578 0.109007
145.481 0.09156
22.5105 0.221461
84.0564 0.052458
99.4091 0.04888
111.182 0.11098
51.1963 0.034813
44.0171 0.11937
71.835 0.021326
11.9196 0.004768
50.0988 0.114341
326.931 0.08408
59.7416 0.088784
137.587 0.12737
103.844 0.085193
198.858 0.086517
49.7315 0.031537
90.7999 0.107416
17.4977 0.066179
14.2691 0.267861
42.5835 0.086215
114.298 0.041301
301.418 0.100048
23.6533 0.041109
39.1729 0.31902
48.4489 0.089204
87.7165 0.161521
17.4501 0.078203
182.59 0.079389
144.21 0.180704
124.94 0.04028
46.5707 0.057177
73.6898 0.05745
157.744 0.064278
322.955 0.070448
42.8919 0.095431
30.8819 0.075084
112.569 0.137368
14.6232 0.023306
127.92 0.020658
114.183 0.082671
39.1505 0.018423
129.073 0.115741
147.126 0.069148
39.7013 0.069049
12.267 0.045075
17.9095 0.759545
28.415 0.037043
200.093 0.094132
94.9111 0.066914
99.1296 0.073196
65.2978 0.122837
143.599 0.122883
87.3774 0.116169
72.1991 0.18241
177.955 0.063906
15.076 0.043821
64.0074 0.089908
59.4411 0.219032
148.523 0.023351
162.888 0.109407
23.2858 0.030534
52.1739 0.216735
60.4408 0.138821
47.8403 0.107934
52.4221 0.043165
24.9101 0.124655
90.6214 0.300368
56.7995 0.01672
85.5697 0.04008
26.2597 0.122234
106.049 0.089239
91.0698 0.083084
55.2407 0.04093
39.9132 0.035669
85.9372 0.024086
79.5194 0.15115
30.0958 0.123233
19.2411 0.135809
10.3585 0.06504
365.847 0.079951
13.1687 0.277137
55.9765 0.044639
28.2834 0.026282
196.622 0.128052
63.1661 0.11615
22.5274 0.014341
105.398 0.098667
120.72 0.072251
41.4105 0.100227
39.84 0.056659
44.9754 0.019718
27.4427 0.005496
31.5348 0.124236
78.2036 0.096272
19.969 0.136987
52.5738 0.03959
209.906 0.090584
48.2888 0.052371
130.561 0.068786
21.1065 0.058008
210.671 0.067225
80.2866 0.135624
33.1146 0.120321
40.4853 0.120827
16.165 0.157748
83.3971 0.079669
73.0359 0.093239
83.3213 0.158741
76.9962 0.028454
83.0848 0.070538
109.787 0.119008
42.9155 0.294738
183.277 0.187171
92.4252 0.13167
31.0767 0.2563
43.4674 0.102911
64.9368 0.057159
93.0473 0.072528
49.0169 0.18043
211.502 0.097182
22.5325 0.088247
140.601 0.032293
39.0521 0.12324
158.235 0.037791
78.7677 0.051198
75.5965 0.035116
77.2937 0.068893
58.4779 0.06677
129.321 0.071907
55.1746 0.073377
76.5035 0.029227
46.3913 0.142281
82.6892 0.078603
31.8144 0.077301
120.308 0.035608
19.4494 0.064008
91.1951 0.074712
39.2493 0.00721
75.4639 0.06448
18.2162 0.146674
36.1004 0.062667
20.0134 0.049874
28.8556 0.087702
40.8687 0.062677
14.4018 0.114297
103.526 0.086229
88.6588 0.114096
47.2196 0.18567
10.6589 0.183228
46.6486 0.147927
88.2145 0.051577
38.7882 0.033289
47.755 0.078114
21.5387 0.052749
32.028 0.009367
196.884 0.086714
13.2106 0.051335
109.11 0.135035
20.2588 0.249017
14.699 0.004019
9.0037 0.112886
58.0322 0.077481
82.8617 0.067955
82.7881 0.104809
105.199 0.041176
102.574 0.137797
44.5169 0.099865
134.811 0.085245
53.9997 0.158532
40.0866 0.066925
54.7305 0.014536
46.867 0.063741
17.8955 0.108995
36.0806 0.203388
41.0787 0.093016
45.4761 0.016354
112.18 0.068556
13.1548 0.30721
58.1735 0.316559
28.215 0.042419
106.707 0.032267
35.1357 0.015812
40.6256 0.069908
441.12 0.089199
107.112 0.126743
48.5775 0.153544
370.635 0.135359
20.3052 0.721096
150.216 0.082805
72.5211 0.083595
24.2103 0.022602
35.1522 0.080063
92.8485 0.090198
219.109 0.07917
20.751 0.023025
111.05 0.096302
308.678 0.057307
49.0919 0.009784
14.7169 0.075145
79.0396 0.032478
182.964 0.118552
44.5048 0.019739
63.3315 0.093382
51.0342 0.013468
138.951 0.037926
132.461 0.063344
25.2506 0.18777
65.6809 0.212828
29.4262 0.092324
181.957 0.084101
101.08 0.114816
51.8154 0.07221
126.481 0.123094
85.3088 0.027337
24.2699 0
34.8039 0.018248
48.9273 0.030355
24.0276 0.029463
165.946 0.085226
123.456 0.067069
26.3372 0.074163
43.2568 0.177282
248.134 0.125023
28.4796 0.1515
14.8395 0
160.334 0.082103
37.3374 0.147307
122.212 0.077023
9.64758 0.085393
34.2745 0.030499
73.0573 0.183154
82.4938 0.030508
149.386 0.021193
47.9346 0.03542
33.7622 0.060533
72.8016 0.150937
24.0073 0.032757
30.5451 0.148833
56.1409 0.138916
22.1837 0.152106
14.4859 0.007576
41.4722 0.04042
15.9783 0.01325
40.7405 0.126808
19.4645 0.060657
19.2119 0.093928
13.0506 0.027337
19.1869 0
21.791 0.094893
50.7214 0.062571
10.1976 0.056325
18.29 0.108715
16.587 0.033256
25.5754 0.191917
28.4859 0.254767
18.9425 0.029939
17.8281 0.02719
20.1019 0.040617
14.6237 0.222932
51.3959 0.242493
11.065 0.209211
15.1784 0.122662
14.0779 0.168328
18.4106 0.005836
17.4957 0.115381
10.4885 0.14628
34.6456 0.254936
26.2682 0.059843
22.6728 0.070821
9.27326 0.010659
24.6623 0.178556
14.0631 0.414876
71.544 0.072101
21.4386 0.125854
20.6656 0.082997
