708.667 0.126023 236 12676.9 0.5 0.666667
240.179 0.143294
589.025 0.100633
420.627 0.084349
445.07 0.087675
243.906 0.169794
946.338 0.077376
204.614 0.025842
281.478 0.079527
955.397 0.077898
42.9043 0.291548
75.3946 0.028436
430.318 0.07009
98.0679 0.07367
722.275 0.029232
70.9761 0.222829
432.304 0.094746
255.72 0.092649
82.3855 0.285012
76.405 0.20543
233.206 0.15825
177.607 0.064357
48.6543 0.024694
8.93136 0.193281
90.3386 0.157722
142.463 0.145612
115.14 0.077471
362.543 0.068284
234.785 0.1129
109.577 0.200802
131.732 0.2011
334.364 0.103312
493.822 0.115493
153.441 0.042006
56.535 0.115053
84.1805 0.074553
21.0777 0.040219
245.876 0.077099
181.646 0.164592
125.364 0.127764
193.325 0.091529
76.5886 0.158269
254.168 0.11828
15.5047 0.091121
45.7539 0.044811
85.8465 0.019865
209.477 0.111495
220.782 0.145284
49.7719 0.01956
85.9536 0.148971
274.971 0.055505
178.161 0.047966
131.09 0.027848
82.8707 0.185133
41.2233 0.073704
39.5474 0.134
18.5131 0.027405
