38.7588 0.489798 216 2676.03 0.5 0.5
91.2127 0.123093
42.5799 0.112346
76.7524 0.142168
41.9475 0.216553
29.9358 0.009609
122.49 0.223333
65.8346 0.047817
88.1358 0.235744
24.395 0.089159
168.936 0.070982
59.6898 0.128966
106.531 0.143365
114.82 0.01853
100.102 0.174436
39.6427 0.23341
381.367 0.124882
36.3111 0.198421
43.7804 0.145716
52.3847 0.22455
53.7046 0.152369
86.5 0.055833
58.9989 0.210758
20.3059 0.413148
80.4391 0.073522
82.955 0.115607
194.046 0.189174
20.8483 0.193407
89.9538 0.072459
59.265 0.071381
40.321 0.110254
21.9278 0.010783
24.3916 0.285511
21.7787 0.120532
79.2653 0
15.7211 0.071676
