195.632 0.13983 116 18994.5 0.5 0.5
58.2263 0.162913
84.874 0.185248
255.771 0.162177
40.6161 0.665324
255.076 0.216297
129.049 0.0273
107.316 0.098674
37.1415 0.053542
67.7112 0.135511
128.013 0.16442
188.19 0.212393
45.4138 0.124462
67.7665 0.111822
129.592 0.080663
106.078 0.083867
66.6064 0.284279
135.912 0.125294
35.5376 0.108374
97.5794 0.050692
14.7883 0.057453
64.358 0.120596
131.763 0.083057
195.812 0.149988
26.3358 0.068171
228.309 0.16775
23.9759 0.097524
140.459 0.066457
24.5308 0.295314
61.6503 0.05528
81.7654 0.067961
48.1266 0.168931
169.595 0.099492
133.377 0.085431
114.578 0.223505
33.2009 0.222588
315.657 0.104347
73.7563 0.171322
82.7781 0.096007
54.5693 0.083007
103.264 0.217139
22.0521 0.052156
57.5166 0.150707
28.8476 0.152819
30.8424 0.100926
82.6687 0.181507
69.1017 0.226938
16.775 0.285734
159.646 0.185707
130.345 0.169495
38.1102 0.027451
62.5348 0.233767
87.0869 0.1249
34.0848 0.275654
51.8818 0.123735
115.641 0.166955
273.666 0.096776
56.0183 0.098499
39.4893 0.118027
40.8748 0.291521
29.6388 0.306547
236.229 0.099896
13.8563 0.072542
229.761 0.131993
28.1657 0.019716
36.8135 0.041664
63.1343 0.050007
114.887 0.063878
127.259 0.157446
60.9373 0.183164
230.845 0.138206
105.998 0.044891
39.5148 0.054231
126.3 0.151075
61.0472 0.052075
81.5685 0.16587
88.3442 0.058402
71.826 0.09815
19.0485 0.278827
69.4935 0.144443
88.6219 0.085551
199.851 0.108685
193.012 0.087384
244.819 0.145985
50.1925 0.191436
97.8382 0.136501
308.816 0.109329
68.3197 0.079597
27.7707 0.119845
52.1295 0.184475
94.8908 0.058335
46.729 0.261617
112.932 0.131088
70.271 0.082646
34.116 0.075942
23.6828 0.042649
82.9557 0.119934
194.547 0.075193
23.2392 0.18631
95.7553 0.129641
97.4543 0.116945
20.2981 0.0958
88.211 0.138545
29.8571 0.295375
19.574 0.235393
68.6184 0.254525
9.85866 0.165366
41.4197 0.026594
21.9073 0.027203
49.9994 0.18424
135.726 0.158928
81.3371 0.094862
23.6929 0.013868
72.9611 0.284201
33.214 0.174407
61.0875 0.062806
81.0215 0.193538
192.969 0.064838
94.3423 0.045311
18.1687 0.117417
239.597 0.153902
86.6162 0.070837
62.5877 0.082592
53.5015 0.199126
133.959 0.130128
22.6687 0.034173
47.0814 0.187853
19.0268 0.033856
60.6233 0.093008
75.1004 0.127253
127.257 0.126557
14.3135 0.115005
48.4987 0.148295
99.821 0.124433
226.065 0.119703
133.708 0.166254
57.3921 0.178337
48.2096 0.077971
51.6992 0.138551
62.9407 0.123715
72.4088 0.20166
73.9699 0.251866
99.4736 0.076404
102.707 0.158879
127.136 0.040186
132.762 0.12035
64.6027 0.181152
89.9537 0.188284
13.6497 0.068943
45.1263 0.269385
122.311 0.141687
17.6509 0.454538
53.6152 0.073386
71.466 0.05106
17.4446 0.215594
122.663 0.109844
95.3715 0.207885
26.8888 0.073409
34.3768 0.020982
44.9785 0.035129
71.3498 0.047565
32.6872 0.313998
112.284 0.127305
35.2025 0.015888
80.8516 0.145924
85.0542 0.118375
28.4974 0.105046
30.142 0.25798
36.1263 0.124473
12.1592 0.065408
166.419 0.116995
199.349 0.129622
20.8129 0
13.4353 0.195865
77.9681 0.179343
58.7249 0.022789
146.154 0.153056
43.1511 0.068278
22.448 0.056008
127.085 0.126539
235.71 0.121773
39.3457 0.036699
90.2974 0.101543
129.411 0.21598
24.8318 0.288632
87.1372 0.245139
42.2046 0.126017
109.108 0.139718
59.6378 0.169613
174.162 0.125447
22.8202 0.030603
60.3285 0.279501
19.315 0.143216
28.6274 0.317756
41.0831 0.078448
24.1361 0.086137
47.9232 0.153124
9.10294 0.026307
102.561 0.154866
47.74 0.151443
115.963 0.047464
16.7573 0.059469
35.3657 0.097323
41.9549 0.098789
32.1242 0.042603
55.4639 0.064628
105.054 0.234917
62.6853 0.066198
24.7031 0.171457
158.372 0.161865
35.0382 0.116799
25.049 0.264815
54.1196 0.222692
52.0508 0.097971
25.6179 0.369874
20.0661 0.027173
21.3671 0.130165
537.722 0.02008
42.0352 0.133581
11.6683 0.120836
32.4734 0.03003
32.0618 0.210959
21.3198 0.159879
9.92618 0.091685
18.0937 0.278022
16.9157 0.036507
29.0368 0.141726
28.6798 0.245624
25.4587 0.083672
51.7033 0.303289
22.7185 0.394089
29.1669 0.052024
30.321 0.058398
17.6785 0.28452
42.1126 0.569095
11.7042 0.023694
26.0993 0.128859
49.6741 0.167409
24.8437 0.254778
27.4831 0.957694
50.6678 0.352728
12.5956 0.236991
16.3185 0.303222
32.2215 0.07463
18.4648 0.214405
10.1988 0.164268
