12.0543 0 96 24010.6 0.5 0.5
16.0234 0.063105
102.028 0.174386
207 0.141549
94.9074 0.21121
131.048 0.02749
141.389 0.154101
46.1207 0
73.4908 0.149921
106.836 0.315668
28.2105 0
135.775 0.222035
42.604 0.010079
32.1038 0.276353
81.9262 0.341865
10.956 0.077552
38.9097 0.024511
128.759 0.087835
117.796 0.123774
139.095 0.361614
69.9389 0.073208
18.4416 0.090591
92.3578 0.236356
165.785 0.20942
164.2 0.183292
145.655 0.234017
54.2786 0.081722
57.6807 0.114141
42.9729 0.133534
211.206 0.208788
160.469 0.071886
57.0283 0.32814
55.2599 0.01638
17.454 0
82.9045 0.066971
94.1344 0.308214
209.388 0.118351
35.2429 0
182.805 0.163587
25.8466 0.878572
50.8147 0.454884
18.9502 0.834835
115.862 0.260366
25.0123 0.459867
60.7644 0.25131
48.8905 0.827918
35.496 0.054424
57.8437 0.067032
131.232 0.185143
153.496 0.286569
40.9735 0.0761
33.7296 0.788348
30.9094 0.148759
90.0776 0.220537
29.1373 0.105963
100.686 0.262141
142.946 0.104461
68.4395 0.176243
37.8724 0.333723
48.4189 0.110278
68.6011 0.111018
41.3739 0.049621
164.564 0.063901
100.598 0.265688
14.2848 0.078565
97.3424 0.122483
11.3548 0.195456
60.4447 0.183468
154.046 0.134
81.4709 0.093709
139.829 0.104275
75.9134 0.103643
14.3372 0
137.192 0.09647
49.6189 0.98772
35.3978 0.113909
28.7884 0.182224
13.2516 0
93.8395 0.167429
57.8271 0.086453
22.2815 0.074562
31.8865 0.057529
28.3052 0.866623
61.4541 0
91.6493 0.178191
43.0497 0.045374
28.6604 0.029213
83.4543 0.071696
83.8843 0.08427
83.1059 0.288587
55.3973 0.165892
32.667 0.083895
194.049 0.140544
201.245 0.131357
97.5021 0.04457
40.2355 0.057515
20.5467 0.976808
30.1647 0.252741
50.3847 0.36867
16.611 0.140999
66.7209 0.057596
91.8643 0.173588
136.445 0.117247
98.2082 0.069731
96.6075 0.221548
65.177 0.373408
39.1636 0.781704
21.945 0.068546
24.0667 0.172289
165.822 0.070759
37.7556 0.277724
70.0541 0.270923
187.457 0.055496
75.8167 0.05793
224.653 0.123083
90.6277 0.205987
127.611 0.145142
245.307 0.129886
49.7788 0
94.1201 0.104035
58.1574 0.195051
12.9251 0.316058
26.2605 0.029287
19.0297 0.690081
40.6333 0.200412
173.609 0.222583
32.3761 0.278132
74.6432 0.101704
52.9944 0.105446
22.458 0
79.848 0.166797
166.663 0.096152
17.1742 0.286834
27.6739 0.065873
28.6054 0.092073
227.256 0.175141
48.0886 0.256178
112.573 0.192159
31.7185 0
33.9458 0
47.989 0
85.6716 0.041939
19.8403 0
15.0654 0
109.562 0.121636
18.8176 0.106492
78.4635 0.254459
28.0258 0.028683
27.8772 0.046413
47.0887 0
35.941 0.13076
21.9619 0.193183
42.4913 0.288824
45.3335 0.418757
16.2455 0.03799
38.4368 0.168809
63.3385 0.111339
47.4927 0.149915
22.1092 0
28.7913 0.115281
23.7641 0.015374
121.689 0.171889
51.4514 0.069589
23.9059 0.105379
65.6011 0.226364
60.8657 0.279788
68.029 0.062194
22.2424 0.392726
11.142 0.052873
97.035 0.076791
192.244 0.063916
26.3307 0
34.4273 0
45.2216 0.125618
20.4488 0.078321
123.794 0.146303
54.7814 0.152783
26.529 0
171.637 0.171794
23.1308 0
79.5262 0.231961
51.8107 0.244598
115.938 0.211729
48.6303 0.125447
35.9561 0
25.6651 0.041176
75.5945 0.20897
15.7236 0.021837
21.9065 0
82.7336 0.074108
71.0443 0.114172
80.6148 0.166035
79.2935 0.156378
123.015 0.230146
23.4422 0.170028
75.3117 0.277605
32.6026 0
27.5387 0
23.3016 0
44.1546 0.163428
69.6373 0.221309
11.8371 0.703986
94.9853 0.080214
188.145 0.104601
51.5686 0.097931
73.4898 0.217757
45.9245 0.134509
77.8156 0.195261
74.9534 0.163305
111.387 0.169326
195.559 0.159949
35.0461 0.11086
113.671 0.280435
115.342 0.076655
136.97 0.055407
156.906 0.173649
89.8309 0.224875
25.5103 0.100714
62.0401 0
82.2721 0.288517
69.4461 0.128714
30.1135 0.387659
54.4068 0.060963
114.057 0.187711
25.4942 0.117547
14.2542 0
29.4234 0.379756
135.907 0.129465
39.2166 0.143238
45.4063 0.146849
127.437 0.154679
23.1737 0.539906
85.1061 0.375145
39.1454 0.054573
23.2294 0.0976
57.9531 0.085217
52.4352 0.039206
14.7199 0
66.9156 0.040103
49.8494 0.252841
16.3337 0.72831
21.5417 0.494076
55.5818 0.061632
74.0883 0.160312
46.8038 0.049679
31.9264 0
22.7959 0.094364
58.3871 0.287065
34.8537 0.173193
58.3038 0.237064
204.347 0.157044
30.5454 0.221784
59.1435 0.025392
59.0127 0.476396
22.1811 0.276699
45.2807 0.058242
27.8186 0.084397
65.1244 0.030418
115.576 0.182519
45.5107 0.07011
77.8021 0.459909
163.199 0.145968
31.935 0.028587
90.304 0.114375
26.1467 0.124454
30.8773 0.395593
32.3427 0.077333
15.8682 0
20.0985 0
20.3701 0.332001
30.5197 0.246807
85.8384 0.213448
113.455 0.068209
23.1234 0.335262
165.583 0.199859
18.1163 0.245826
55.5181 0
60.189 0.183189
49.0137 0
30.2767 0
602.071 0.129091
61.8347 0.074202
81.0092 0.094721
102.085 0.379284
11.6419 0
125.86 0.225783
50.5851 0.322369
23.9238 0
148.517 0.082939
31.5356 0.052386
133.065 0.253278
25.7271 0.08928
12.907 0
53.5429 0.232571
28.9153 0.008725
14.8252 0.264568
24.8951 0
41.0131 0
15.712 0.097327
53.5218 0.197842
164.737 0.197086
104.428 0.302013
17.4852 0.113655
64.9421 0.070918
73.4707 0.078603
25.0392 0.114043
47.3934 0.226117
34.8751 0.063059
23.9705 0
25.656 0.301537
101.736 0.23711
33.2338 0.04885
60.7796 0.097676
53.4727 0.054602
68.6189 0.081732
15.0655 0
11.7055 0
61.4948 0.312287
38.5422 0.036122
10.9409 0
82.2117 0.255041
63.3227 0.195827
21.3397 0.160834
54.6906 0.230645
28.0241 0.396168
76.6695 0.294952
20.2331 0
30.7928 0.276957
13.918 0
28.775 0
46.0602 0.125755
90.5525 0.191583
47.5556 0.28581
62.6312 0.421321
27.0448 0.052102
36.4596 0.038733
56.4587 0.125198
42.051 0.019988
51.8489 0.133028
23.6152 0.184821
60.104 0.111361
39.7066 0.051982
33.5404 0.100433
26.9506 0.051588
44.0408 0.324266
50.2487 0.371045
12.5203 0
30.6669 0
26.4939 0
24.1547 0.375352
14.1268 0
32.61 0.12737
15.8816 0
40.7597 0.269836
14.3858 0
22.0299 0.906447
38.0938 0
19.7191 0
23.5914 0.058004
21.0924 0.052757
19.6879 0
18.3741 0.100794
17.1374 0.23766
12.1766 0
12.1651 0
16.3661 0
14.2077 0.028377
22.8778 0.608444
25.6911 0
22.4201 0.638124
17.2524 0.037778
23.9794 0
17.5255 0.194617
20.5899 0
21.6372 0
19.0215 0
23.0071 0
34.9561 0
11.4077 0
41.9198 0.240489
34.1827 0.172176
19.2854 0.453643
