41.067 0.014965 96 33151.8 0.5 0.666667
222.586 0.056949
16.1246 0.049921
24.1809 0.07696
15.7641 0.375732
18.802 0
100.393 0.210666
41.8 0.12372
42.1428 0.121983
102.837 0.134704
14.3715 0.988125
13.7355 0.291521
48.5955 0.093294
28.4331 0.091893
27.2315 0.581615
181.841 0.052665
197.382 0.091863
67.1345 0.065741
60.7766 0.010383
107.144 0.037355
94.0733 0.045685
81.9961 0.104172
89.7293 0.042266
47.4292 0.152846
39.8918 0.073997
82.4784 0.162795
20.0436 0.845875
29.9127 0.124984
32.4312 0.097297
39.755 0.11242
44.0176 0.042448
10.6817 0
157.604 0.19603
52.1715 0.06157
32.9203 0.168192
32.2865 0.025965
26.1279 0
27.7637 0
59.4228 0.022212
23.2305 0.098707
36.5114 0.152844
58.786 0.035976
72.805 0.232455
15.9131 0.017363
35.3086 0
18.1596 0.090924
82.2344 0.246427
54.5859 0.109572
107.449 0.149794
29.0377 0.04095
62.8889 0.068663
32.0547 0
22.3917 0
63.9316 0.073749
72.4574 0.037869
45.6852 0.113029
57.3527 0.120065
80.7177 0.186316
41.68 0.043238
113.946 0.17731
29.3088 0.671973
115.298 0.065392
135.849 0.083288
37.8258 0.025046
20.7789 0.027469
101.965 0.056229
84.5846 0.226416
21.0185 0.169918
27.7557 0
163.456 0.197112
78.1506 0.26678
44.5157 0.092168
40.3156 0.129187
12.0253 0
68.3161 0.202524
45.8352 0
50.6621 0.024946
34.1448 0.031659
36.8795 0.153102
13.7188 0
106.279 0.085115
40.2349 0.090911
27.7705 0.194846
19.3776 0
94.5537 0.122919
28.6726 0.161395
38.4129 0.055222
50.5835 0.118491
487.495 0.245958
12.6929 0
59.0808 0.06881
88.3146 0.273741
28.3481 0.025615
81.0218 0.035206
34.376 0.031015
25.4805 0.024584
24.8746 0
108.883 0.089654
47.8694 0
49.4526 0.058606
32.7744 0.046968
65.7649 0.22355
25.8038 0.09486
68.5614 0.179353
26.0436 0.095747
29.1944 0.061045
8.53945 0.223956
12.1225 0.593799
51.4174 0.050775
55.2625 0.028725
52.5096 0.091968
19.9085 0.145678
21.5539 0.227006
32.3835 0.04988
29.1941 0.052688
76.8343 0.141415
16.0855 0
81.4507 0.212466
25.1801 0.083409
80.3084 0.127151
70.197 0.213816
27.9815 0.841395
69.8969 0.424209
20.9081 0
41.8986 0.02223
50.1973 0.030962
36.6194 0.06993
63.3633 0.06298
59.779 0.107909
23.9473 0.209852
24.319 0
21.1998 0.078845
59.812 0.114793
183.36 0.123613
20.7995 0
29.5773 0.175736
33.2336 0
86.4957 0.040384
25.3633 0.035766
35.1126 0.042183
140.905 0.17202
21.5901 0.920153
81.0075 0.033485
54.8606 0.044427
23.859 0.229827
42.4836 0.050838
95.4761 0.205231
77.0734 0.072183
21.2689 0
105.865 0.096913
45.193 0.107186
69.6758 0.159507
17.4594 0.068533
85.3608 0.053486
17.1299 0.025009
20.7433 0.288357
13.9854 0
21.1872 0.839153
10.4021 0.513465
48.7408 0.025042
27.0677 0.197076
67.601 0.165131
66.3131 0.037823
55.3489 0.077642
48.8631 0.187506
45.3222 0.057505
42.9909 0.064323
49.0687 0.068779
15.8274 0.249527
30.2226 0.108257
54.7809 0.091773
35.2967 0.058653
54.5349 0.050137
115.756 0.08311
21.3584 0.02914
96.3071 0.108753
41.8791 0.058151
22.7063 0.185508
25.0479 0
63.4313 0.043008
138.31 0.272615
57.9984 0.327673
28.0193 0
53.4471 0.033129
32.766 0.036716
16.8459 0.077697
74.7852 0.251755
43.4274 0
49.7628 0.09133
64.5807 0.01436
37.0195 0.155822
24.6386 0.051786
262.041 0.090263
45.6357 0.087146
39.9646 0.019877
11.0076 0
15.5606 0
127.677 0.121112
228.225 0.121282
25.3168 0
23.5548 0
50.8981 0.172864
23.8128 0.137082
21.9989 0.196943
33.6585 0.260478
58.9901 0.090306
52.1836 0.204132
34.1833 0.032796
54.3838 0.293221
23.0421 0.006669
36.4159 0.060732
91.9556 0.173445
18.8369 0.323218
89.6064 0.195782
58.7546 0.036454
168.425 0.079358
47.9501 0.066053
16.7444 0.035249
21.429 0.014753
68.7628 0.122299
58.6924 0.053985
22.6712 0
12.2677 0
39.5579 0.065236
63.3543 0.094227
77.1547 0.111995
21.2082 0.093752
57.5458 0.070638
92.5897 0.075811
72.1745 0.103308
20.195 0
32.8315 0.091428
36.6299 0.045207
62.237 0.223974
68.6683 0.171865
21.926 0
16.4001 0.03641
36.0736 0.058379
9.95332 0.058025
77.1449 0.055189
24.3723 0.119081
72.4795 0.116941
165.575 0.144067
13.164 0
72.2486 0.158623
55.218 0.095052
26.3635 0.153479
35.1482 0.030507
160.856 0.033203
36.1539 0
8.87351 0
43.4547 0.154532
11.8195 0
22.5142 0
17.5385 0.48854
65.3719 0.075326
74.2978 0.123135
42.7092 0.094915
176.071 0.105774
15.82 0.714407
36.5703 0.013594
42.5426 0.095282
20.1663 0.68883
51.8604 0
43.5347 0.17739
71.8827 0.086701
22.4338 0
12.763 0.952856
106.342 0.120406
39.2127 0
35.6474 0
156.628 0.061669
264.99 0.078713
53.8368 0.171847
43.5642 0.044475
32.6189 0.041085
51.6713 0.048609
66.4174 0.049143
14.878 0
99.8788 0.237523
201.37 0.085491
105.033 0.098095
19.055 0
27.2124 0.12392
69.5191 0.169262
22.8322 0.069106
132.065 0.109239
214.075 0.145297
22.9482 0.914242
151.246 0.034611
94.1568 0.193118
24.6635 0.124883
35.1504 0
19.8578 0.874225
116.365 0.09482
92.5878 0.108639
48.126 0.037578
15.0598 0.061492
62.9195 0.056651
18.5313 0.086899
42.1307 0.087433
10.4646 0
29.3795 0.097376
92.4836 0.127255
16.9261 0
122.099 0.102826
11.9103 0.028314
80.5239 0.086878
11.499 0
81.1807 0.057835
65.2739 0.044828
23.0102 0.080312
67.1647 0.180966
47.9056 0.341885
45.8051 0.064922
46.0597 0.050012
44.9498 0.164187
258.856 0.079921
108.642 0.213076
44.7276 0.080828
70.8828 0.116578
77.6446 0.035364
19.2943 0
12.752 0
24.1926 0.032907
186.983 0.115552
72.5749 0.11114
23.4198 0
53.1787 0.063219
46.8041 0.03932
38.1465 0.028289
90.8395 0.143704
31.6976 0.018034
26.9626 0.042459
75.08 0.059343
55.4094 0.148176
74.5751 0.210803
52.1586 0.057467
135.454 0.151668
13.2399 0
49.5811 0.053818
45.2937 0.056022
23.8823 0.120492
15.2156 0
32.2371 0.302731
16.7071 0.179725
23.2105 0.072652
39.908 0.059695
11.8543 0
58.491 0.149212
41.8331 0.051576
26.2297 0.310357
29.8305 0.129499
19.6968 0.012091
81.2606 0.043796
60.3739 0.128365
89.2044 0.02105
17.8301 0.026069
47.7696 0.057062
45.3963 0
9.47042 0.047733
55.4507 0.016742
19.5424 0.244919
11.4845 0.900019
18.0477 0.186274
26.3343 0
50.4121 0.030724
104.191 0.113699
38.7356 0.081432
86.3253 0.049329
52.0258 0.055449
23.21 0.031507
23.8521 0.082535
30.6665 0.028295
33.3747 0
11.9761 0.794914
13.2683 0
22.5594 0.05706
21.3675 0.027189
60.7982 0.140805
46.6708 0.084951
81.5677 0.042931
34.38 0.055257
31.3549 0.160926
65.7146 0.142757
21.8124 0.382544
27.0041 0.010475
26.9818 0.40945
36.5268 0.366868
90.5207 0.079884
59.1563 0.074992
43.3162 0.046055
48.3321 0.117332
27.0246 0.051478
47.3557 0.00774
35.4476 0.042518
73.1399 0.110863
92.9895 0.047009
20.075 0
50.1903 0.105003
22.4234 0.048997
19.7411 0
109.313 0.076091
138.91 0.093065
29.005 0
39.0765 0.003001
40.7324 0.17828
115.864 0.106208
12.8455 0.769828
52.634 0.065476
23.8531 0.049191
28.1391 0.024813
21.1479 0.391849
62.9323 0.219067
125.164 0.107182
32.4313 0.426728
23.6721 0.082045
30.9187 0.02133
29.5903 0.129716
22.0659 0.988056
21.2515 0
13.4195 0.509155
33.2853 0.06269
75.9194 0.327541
195.028 0.14332
18.9469 0.097766
46.0206 0.149614
79.5625 0.121325
37.431 0.01194
30.4838 0.102466
72.0327 0.034362
30.5597 0.025849
14.8656 0.984962
40.5826 0.060822
24.2045 0.015151
17.4922 0.00496
64.943 0.112953
22.6948 0
78.5741 0.172438
38.7916 0.039985
27.8001 0.106037
93.2557 0.275431
120.046 0.174184
30.0091 0.600357
45.2817 0.023697
18.5596 0.02895
175.662 0.127225
17.0906 0
41.049 0.07469
33.4108 0.04696
61.0638 0.130439
195.643 0.034058
19.9885 0.043342
35.306 0.064018
27.5944 0.007534
40.0166 0.086471
36.8963 0
19.5163 0
179.461 0.08514
29.7774 0
45.1914 0.026569
57.142 0.156819
74.2182 0.089527
132.151 0.100821
35.1927 0
18.9528 0
160.342 0.1287
22.2463 0.01085
46.3394 0.036321
53.9753 0.156335
38.7676 0.068355
19.8999 0.043962
95.5068 0.350838
18.8165 0
50.0784 0.035061
151.041 0.06294
67.1247 0.191914
45.3206 0.195542
144.049 0.072591
19.3485 0.025549
50.1872 0.144044
13.2818 0
76.6417 0.137006
48.9652 0.141935
14.2001 0.051576
32.9751 0.021652
45.8841 0.052655
45.4924 0.055471
44.5648 0.072425
121.067 0.228853
25.6044 0
33.6863 0.434839
42.8359 0.095489
26.282 0.029013
29.6042 0.125244
31.1157 0.978007
30.395 0.118765
21.5687 0.31757
16.6786 0.029277
157.388 0.071126
44.4257 0.040527
48.4169 0.058391
42.5426 0.0549
27.68 0.034026
37.9064 0.127483
119.873 0.106549
26.0209 0.216316
26.4626 0.080413
32.888 0.045685
15.1087 0
89.5393 0.166063
49.1976 0.096376
37.8136 0.193701
16.628 0.977415
88.2313 0.122783
40.2674 0.021283
33.2225 0.044944
42.9703 0.012143
40.3652 0.189841
10.4661 0.020913
15.5096 0
28.4583 0.922419
17.2469 0.169712
21.5728 0.013652
97.8371 0.045628
34.7908 0
58.0213 0.148413
55.8808 0.058496
94.9054 0.196961
33.4424 0
87.8403 0
20.1996 0.229576
65.2702 0.211197
28.2909 0.045469
65.4521 0.099564
34.9864 0.178567
37.0904 0.174014
32.914 0.152289
18.8413 0
46.4837 0.027877
28.6956 0.08646
36.269 0.053487
43.2093 0
22.7098 0
88.3431 0.126147
136.315 0.172506
15.8283 0
109.934 0.0695
76.8387 0.223381
23.4699 0.045043
12.377 0
23.6921 0.021497
23.1386 0
59.251 0.081517
59.9142 0.143457
22.9117 0
10.2763 0
15.1416 0.013717
24.9638 0.055105
99.4465 0.118029
17.2557 0.060385
36.7328 0.091843
76.1285 0.147125
44.2095 0.038743
24.9091 0
133.485 0.15878
35.1439 0.036668
15.9634 0.170512
18.8558 0
55.3001 0.270871
102.564 0.200752
12.2479 0.04577
34.5481 0.046399
43.4666 0.07907
35.0584 0.022146
28.7794 0.171873
22.7422 0
27.2322 0.27305
50.1612 0.037751
19.0515 0.148542
38.3542 0.260972
26.7634 0.10317
18.6158 0
56.6632 0.136311
22.9605 0.077555
22.7581 0
24.6038 0.136525
23.2406 0.011601
29.8275 0
10.9747 0
32.2645 0.087951
26.5643 0.363425
11.9657 0.820943
24.2532 0.037727
14.49 0
21.0623 0.078553
35.0786 0.186242
16.6245 0.276573
15.4827 0
21.232 0
19.7702 0.043956
29.8807 0.130551
16.4575 0
59.4524 0.117912
17.0955 0.324192
24.7598 0
23.4505 0
17.0613 0.376281
20.5933 0
20.8963 0
16.8526 0
19.7236 0.612343
13.2098 0.742216
19.0333 0.061134
41.3382 0.187464
40.5143 0.143305
17.7254 0
18.5663 0.107561
12.6694 0.455878
39.1188 0.082182
18.6007 0
25.2358 0.09177
29.4341 0.526796
11.3618 0
14.1224 0
18.8938 0
24.3789 0.019452
22.4944 0
22.6881 0
11.4963 0
17.5228 0
20.017 0
55.1722 0.98
44.8235 0.122998
30.0534 0.109336
26.2658 0.100457
26.9875 0.315252
13.6466 0
14.0557 0.212642
32.8292 0.098079
29.3436 0.08215
11.3431 0
22.3253 0
13.4033 0
19.1336 0.169779
46.5175 0
23.4404 0
24.6062 0.106531
18.0029 0
18.0625 0.093027
12.3163 0
47.2365 0.066575
21.5276 0
21.2319 0.040536
23.754 0.159789
29.0654 0.302408
30.3717 0.339375
15.8638 0
24.5048 0
15.2682 0
17.9353 0.047167
17.5815 0
32.1 0.169179
17.0214 0
70.4758 0.415517
18.5859 0
18.5192 0
26.0216 0
16.4698 0.154356
29.0554 0.058612
12.2036 0
11.9789 0
23.5513 0.008139
12.4802 0
20.5509 0
