47.5718 0.042567 196 5949.26 0.5 0.666667
109.203 0.122202
84.796 0.027651
38.1633 0.143957
55.5953 0.2167
76.3929 0.05056
91.0858 0.168014
18.8653 0.034456
164.802 0.031453
84.6331 0.017634
81.0754 0.198788
49.6624 0.158355
57.9238 0.020785
88.7937 0.117398
50.9202 0.020531
108.126 0.128795
79.1821 0.036641
104.784 0.084158
61.7167 0.084168
56.4934 0.034451
53.7291 0.13522
11.3454 0.004206
274.716 0.068114
27.7072 0.197435
36.9748 0.119857
36.3009 0.031722
52.4555 0.101845
28.0438 0.364464
154.588 0.182541
44.6248 0.013677
30.2186 0.333823
141.546 0.045877
85.0252 0.104537
22.8505 0.123047
177.618 0.175239
42.6018 0.060554
23.1501 0.093756
52.133 0.244501
67.3068 0.367318
18.4145 0.031598
73.2471 0.155976
148.573 0.154527
170.887 0.136216
69.2322 0.02881
39.5843 0.034967
68.5505 0.106811
309.211 0.085549
28.2801 0.025257
48.2326 0.082202
39.7432 0.025966
67.8112 0.037913
137.615 0.113398
32.5489 0.062681
18.2879 0.104392
41.6983 0.025896
10.1405 0.022408
181.95 0.177434
16.5877 0.495104
88.9356 0.016141
193.425 0.134241
26.9229 0.003647
53.5583 0.218757
32.8303 0.028217
17.1464 0.29023
10.0906 0.348212
166.268 0.098229
62.2385 0.218223
43.039 0.034046
31.0135 0.103448
156.27 0.063842
113.073 0.036725
42.8773 0.122678
27.4233 0.16515
46.1543 0.036794
46.7228 0.038052
46.8275 0.057366
85.2962 0.070708
32.8101 0.028687
38.1496 0.088566
16.2842 0
11.5232 0.014775
44.4233 0.225603
12.0506 0.118403
16.7749 0.155467
26.0931 0.002067
11.5177 0.098779
14.8917 0.124696
28.985 0.267115
12.3243 0.090347
