26.2488 0.02502 136 19254.2 0.5 0.666667
44.9826 0.173396
56.9341 0.092357
73.2382 0.135314
121.792 0.071071
90.2213 0.113686
60.5818 0.04876
30.849 0.07565
31.8447 0.039314
116.151 0.091469
63.5124 0.080541
137.49 0.055828
169.411 0.071039
14.3516 0.033028
157.051 0.103922
177.719 0.05831
26.46 0.037622
145.739 0.0814
71.8825 0.17096
316.949 0.141639
42.1537 0.174924
186.685 0.081259
251.885 0.032547
28.1296 0.034914
56.303 0.130411
29.6048 0.078667
40.6694 0.133345
92.5163 0.042707
178.318 0.097788
203.537 0.081823
18.556 0.236433
103.308 0.060266
75.3254 0.132312
16.3394 0.059489
105.517 0.073314
57.6366 0.040016
35.6229 0.069052
22.5906 0.172278
94.4362 0.055761
226.22 0.121149
92.9807 0.077316
120.041 0.059923
24.2282 0.153125
215.93 0.04536
36.076 0.108206
125.215 0.117387
120.274 0.079502
51.439 0.04718
51.1299 0.068777
14.9596 0.196337
136.646 0.045913
38.8981 0.207692
58.0075 0.028291
20.0186 0.11119
59.0362 0.130428
49.5394 0.274631
74.1319 0.033554
117.096 0.067078
58.2069 0.011171
21.3398 0.01813
69.7977 0.079923
20.145 0.021376
55.9217 0.037681
33.9074 0.065232
30.7554 0.135972
19.6647 0.022432
20.4756 0.062729
63.0773 0.064957
24.4425 0.051894
26.5375 0.172781
22.6076 0
12.1684 0.005893
21.3796 0.004296
51.8574 0.060552
110.71 0.079307
238.309 0.035765
128.899 0.025664
91.7384 0.135541
18.7919 0.029086
179.878 0.1613
53.0638 0.063304
33.1503 0.1318
66.8334 0.068055
97.558 0.114736
28.0264 0.018995
31.6336 0.167385
40.7295 0.00835
21.4579 0.256984
59.1243 0.154275
19.1969 0.23756
23.4277 0.016485
73.5781 0.077395
23.9967 0.104827
136.028 0.108565
46.0707 0.098736
73.3835 0.059098
24.176 0.143309
50.6508 0.058815
133.287 0.080597
63.6868 0.077384
78.0782 0.118448
29.9616 0.078683
21.7274 0.027168
46.0463 0.159402
102.203 0.077919
234.434 0.14353
63.2836 0.046364
35.3779 0.256086
38.9012 0.047648
27.6425 0.070842
10.3595 0.002552
66.4653 0.059263
59.7928 0.125308
17.5197 0.153005
126.367 0.14191
26.4428 0.091988
26.0023 0.301824
19.3498 0.051961
52.153 0.152358
60.5085 0.034003
46.4214 0.03141
16.0569 0.321456
12.256 0.108198
116.413 0.068836
26.8478 0.03637
22.1371 0.041818
39.792 0.026055
46.481 0.020527
95.2395 0.077218
44.3521 0.005649
25.4018 0.042471
110.441 0.044307
36.2746 0.065457
93.3977 0.061095
121.355 0.026309
98.3759 0.044799
17.9378 0.137492
31.2987 0.026389
47.5173 0.015641
25.193 0.097842
94.0953 0.041365
70.0085 0.140623
9.30014 0.143541
10.6159 0.132202
73.1392 0.029939
71.1593 0.085995
89.5821 0.036463
157.921 0.092943
106.254 0.051373
26.6325 0.018545
35.5862 0.031425
25.1534 0.304681
41.8366 0.060072
51.5276 0.071495
37.9573 0.028547
55.1626 0.165097
12.7613 0.151123
53.6018 0.032264
54.9602 0.121314
103.761 0.094089
24.1024 0.034789
32.9933 0.164793
51.0866 0.044819
43.4945 0.008402
63.6312 0.031437
33.0364 0.152768
46.7757 0.105977
157.942 0.046561
21.8384 0.225495
38.0522 0.029413
26.8487 0.015117
20.8422 0.015339
20.916 0.229683
81.6321 0.113723
20.7435 0.093659
107.292 0.104648
50.4734 0.213436
37.9682 0.073796
730.292 0.083764
69.9146 0.090515
26.1556 0.023855
26.5205 0.010143
57.714 0.088657
89.0169 0.05176
32.2089 0.070745
161.098 0.08093
11.6441 0.132663
98.0023 0.054953
64.0509 0.126995
17.1309 0.016165
18.7609 0.158795
36.6968 0.384936
60.3755 0.039202
24.0997 0.020139
38.5947 0.050739
19.0587 0.097557
36.4133 0.050045
101.751 0.079368
124.74 0.087537
49.2743 0.104252
95.1997 0.071139
76.4756 0.127225
110.244 0.029288
39.3068 0.043104
103.935 0.059892
173.619 0.123066
24.3149 0.050235
25.8355 0.020725
34.2537 0.252689
61.2521 0.102049
42.1331 0.058478
49.3482 0.04541
47.5754 0.055313
141.084 0.100667
98.0102 0.065349
105.258 0.074343
33.6301 0.047723
24.0773 0.032428
146.978 0.091734
36.0773 0.139509
46.5453 0.121813
32.2835 0.144781
86.1026 0.065718
90.3578 0.054664
71.7056 0.072774
98.8117 0.05584
24.8612 0.048561
19.7588 0.29489
62.4775 0.045434
25.1317 0.032306
14.5682 0.017627
209.52 0.066495
45.2884 0.243721
52.3321 0.025385
33.4836 0.237438
32.0851 0.049463
170.699 0.068241
114.479 0.065131
23.1188 0.010869
57.2246 0.108154
46.6505 0.13391
41.7374 0.049332
48.4588 0.096009
37.3137 0.025488
21.1884 0.269576
26.2175 0.075937
12.2139 0.010463
17.0564 0.073606
23.079 0.040654
325.736 0.063655
83.6983 0.100967
17.4553 0.140494
18.2134 0
16.837 0.127706
108.394 0.102335
54.175 0.17144
163.41 0.023103
28.4056 0.121522
90.8441 0.124071
28.5345 0.108225
166.562 0.073397
39.6037 0.129406
125.057 0.039352
59.5278 0.068318
34.3511 0.174867
65.3317 0.118703
31.908 0.355586
36.7855 0.088589
17.223 0.016669
16.3563 0.230114
34.2688 0.091762
36.2667 0.253864
89.5768 0.116488
40.6981 0.247296
20.4059 0.12737
14.0856 0.96125
23.9581 0.085975
48.9052 0.145514
20.7725 0.745241
13.759 0.038502
34.3002 0.053595
40.9701 0.29478
38.1639 0.057854
36.6943 0.032211
13.5195 0.3289
28.121 0.26005
10.6894 0.214373
46.6436 0.159721
33.948 0.151537
23.1587 0.168833
36.9443 0.271789
22.6238 0.019393
14.6209 0.264614
12.459 0.109898
25.5546 0.222489
21.9652 0.141143
24.7176 0.011902
41.5309 0.200479
13.5243 0.009349
15.5308 0.009084
