67.7457 0.10264 196 10104 0.5 0.666667
36.0491 0.011034
287.943 0.073495
307.802 0.093273
410.118 0.075762
265.296 0.137422
54.8179 0.208094
112.466 0.070817
185.134 0.081185
50.1405 0.275247
212.516 0.039574
256.82 0.060657
384.57 0.056895
134.58 0.101684
82.0655 0.081521
27.79 0.046704
64.8905 0.090806
68.9388 0.132495
185.97 0.03513
224.198 0.167162
46.5061 0.189917
81.7587 0.082547
119.089 0.1175
42.2643 0.094248
33.8331 0.002626
66.9218 0.057522
111.003 0.013745
156.754 0.070027
190.305 0.026061
52.6697 0.218363
20.7533 0.106798
98.1934 0.135245
34.9347 0.023058
28.2786 0.03343
100.326 0.07685
109.694 0.226135
236.78 0.053583
179.424 0.259306
140.532 0.140723
24.6536 0.017614
184.106 0.080833
138.82 0.08794
26.3891 0.10657
44.2862 0.026983
148.812 0.048134
189.223 0.058484
105.838 0.073758
94.1044 0.202588
23.0894 0.049383
80.0254 0.058198
38.8085 0.044452
64.3476 0.111308
22.5386 0.029636
83.9823 0.011624
96.0081 0.117601
32.647 0.025221
52.12 0.219181
41.2112 0.010648
171.285 0.138875
197.045 0.035483
46.7541 0.065824
20.3011 0.013373
193.553 0.041652
130.062 0.038275
22.1837 0.060624
22.6017 0.006546
58.1271 0.037201
24.9554 0
32.9428 0.121482
88.1119 0.072613
66.9548 0.008999
45.6652 0.062469
146.631 0.159899
35.9496 0.112587
345.342 0.092078
45.9029 0.035777
209.059 0.133802
38.609 0.069574
130.802 0.137448
24.679 0.059368
104.108 0.059884
43.8003 0.022672
51.8496 0.041958
70.3809 0.083489
56.562 0.102422
19.7328 0.100311
35.0148 0.177408
19.0533 0.0389
22.2039 0.091826
157.985 0.128701
51.5662 0.083314
98.3141 0.108545
117.479 0.077177
88.9124 0.03838
65.8959 0.090896
10.1878 0.193167
26.5809 0.124513
9.87626 0.135591
24.2826 0.111321
37.8143 0.105056
29.4198 0.028977
23.2656 0.174745
33.2325 0.067378
11.9699 0.065719
22.541 0.21289
13.5751 0.01821
