126.172 0.083926 136 22838.6 0.5 0.666667
54.9612 0.02639
153.116 0.054776
130.768 0.062762
36.1928 0.018116
45.7473 0.095319
125.048 0.155602
139.823 0.117495
271.289 0.058366
193.145 0.086339
142.826 0.193734
153.645 0.052609
137.051 0.148531
50.7829 0.271192
30.6325 0.119796
42.0815 0.052695
86.2512 0.11089
123.979 0.037228
23.6441 0.129653
163.28 0.055579
143.412 0.084473
34.3257 0.128316
76.6387 0.179137
151.738 0.08859
154.588 0.041316
68.0482 0.047136
12.642 0.084007
109.466 0.112574
196.552 0.098263
55.0829 0.082211
133.878 0.065992
113.307 0.061589
97.2298 0.07738
25.0466 0.024704
13.9202 0.162863
34.5947 0.211657
43.4576 0.052263
14.7705 0.13455
78.4225 0.056229
81.7371 0.098421
14.8234 0.224898
58.4691 0.056284
48.0669 0.0369
169.123 0.079959
72.3075 0.110883
22.6477 0.142297
97.2865 0.147632
94.6456 0.127867
25.7764 0.119181
48.0358 0.046688
37.1075 0.01117
137.28 0.102805
63.6245 0.017118
70.2265 0.218706
32.281 0.102306
770.3 0.111793
102.914 0.109249
18.2517 0.027604
48.977 0.05909
11.9393 0.011039
31.1194 0.159759
577.253 0.067412
122.919 0.071654
67.0788 0.033605
14.0228 0.065325
50.7508 0.006345
18.7913 0.059374
191.665 0.075699
46.4637 0.064878
109.987 0.025761
108.314 0.09828
129.891 0.044383
28.5711 0.062086
19.2974 0.053722
212.708 0.067421
35.7027 0.236111
71.3453 0.101303
44.0815 0.061647
35.9528 0.031425
77.8437 0.144737
54.782 0.051781
17.5065 0
347.731 0.065505
209.053 0.063452
136.929 0.079906
126.365 0.072622
73.8416 0.053752
82.3684 0.056805
39.0996 0.053323
185.127 0.08186
80.9285 0.033124
42.2046 0.116166
79.1808 0.082003
81.1959 0.160385
46.8866 0.03837
38.7018 0.070989
646.377 0.061529
184.586 0.082291
39.8326 0.050038
86.6195 0.041244
109.393 0.075759
18.6879 0.138797
38.2051 0.04098
37.7272 0.201316
31.6623 0.037078
77.1443 0.106386
105.281 0.113706
55.478 0.084692
83.6753 0.150102
63.1561 0.072107
103.946 0.081798
211.581 0.085303
211.605 0.024549
189.241 0.060705
52.5511 0.023956
427.916 0.085153
22.5552 0.084562
46.7253 0.088327
132.104 0.034774
35.4808 0.024519
98.7568 0.112706
42.4294 0.02199
71.2325 0.042742
100.089 0.143112
33.1104 0.042948
204.614 0.116784
78.5803 0.054599
220.356 0.093086
47.5281 0.016602
12.9307 0.03963
130.971 0.076213
131.799 0.10044
32.0389 0.049862
159.563 0.072207
230.181 0.0472
64.1781 0.13754
24.3214 0.093024
83.8463 0.109469
34.7041 0.053373
55.9779 0.058059
28.9488 0.059039
23.6742 0.023565
50.7922 0.090793
48.2994 0.131098
111.794 0.084779
51.826 0.067238
70.7563 0.025318
82.5853 0.064783
499.599 0.108331
41.402 0.052069
118.528 0.138214
132.074 0.101953
85.091 0.07356
90.5929 0.065262
41.643 0.061346
40.2527 0.102222
42.5946 0.053806
25.1488 0.131561
40.7961 0.057601
50.4477 0.094028
46.2728 0.048673
68.3438 0.034869
89.2326 0.099002
48.2493 0.039647
73.0357 0.01777
25.0206 0.010276
58.0958 0.06945
21.0864 0.04866
41.2261 0.226246
107.6 0.202373
115.808 0.11837
38.2458 0.149651
119.083 0.022595
22.8285 0.150631
92.8382 0.094424
165.236 0.058806
67.7891 0.047631
28.4832 0.078476
139.335 0.116855
85.8704 0.031634
45.7122 0.005727
30.3664 0.147444
35.548 0.049344
23.4401 0.155045
56.1754 0.264901
69.5487 0.189165
41.3268 0.150972
20.2263 0.090508
51.0796 0.21193
39.365 0.143296
69.9543 0.234344
28.3553 0.041934
51.9262 0.20165
53.2481 0.019577
16.0997 0.10735
157.692 0.075176
25.0525 0.015736
100.884 0.052292
27.4969 0.076449
42.0089 0.01777
50.8998 0.034977
220.781 0.104718
52.6241 0.237727
178.351 0.098944
47.7955 0.011681
192.897 0.02457
33.7489 0.02571
38.4225 0.013005
23.3098 0.07508
281.085 0.117995
16.3 0.036587
114.833 0.027697
24.5605 0.052554
102.725 0.097049
96.5646 0.070783
29.6746 0.072551
95.4269 0.112147
27.0049 0.136766
184.513 0.084629
144.644 0.082532
107.097 0.077749
51.7733 0.105389
90.1393 0.015953
61.9645 0.073221
135.215 0.051342
45.3945 0.105616
26.8927 0.034512
74.3556 0.045496
81.0538 0.082821
108.224 0.066724
112.442 0.135266
85.2894 0.173924
41.8812 0.053773
23.089 0.067677
14.6176 0.007175
87.2746 0.142674
21.6745 0.07916
47.5703 0.018363
22.9358 0.052837
16.337 0.060318
43.1726 0.101112
39.2988 0.206778
33.583 0.06668
76.5213 0.147247
46.7429 0.049285
35.9281 0.034263
37.046 0.064453
35.9154 0.092584
66.7397 0.038056
36.811 0.170592
82.9728 0.103178
100.026 0.07589
38.1356 0.021674
24.7112 0.024337
30.9562 0.375693
11.8264 0.033913
27.5919 0.013597
20.4572 0.133611
12.7324 0.341087
16.6326 0.147219
33.0049 0.155447
29.7603 0.033571
13.7152 0.133487
17.2773 0.05477
18.2799 0.231522
29.108 0.18521
15.7113 0
21.371 0.163363
35.5566 0.191723
13.4032 0.154641
28.9905 0.018982
24.772 0.109973
14.2244 0.190022
17.9196 0.329308
14.725 0.062766
35.7718 0.027112
12.0305 0.013489
