281.823 0.026672 216 11374.9 0.5 0.666667
133.921 0.024991
129.618 0.084356
305.172 0.086339
292.569 0.130863
117.265 0.085354
41.2955 0.01704
61.632 0.258771
50.5288 0.128467
133.279 0.062068
359.917 0.107419
43.2716 0.01851
134.359 0.077843
110.728 0.100852
291.048 0.07227
230.76 0.119915
195.896 0.032632
23.0402 0.013467
21.7162 0.379482
25.3546 0.012959
90.3556 0.053554
82.3167 0.146197
33.4913 0.091687
31.4918 0.09168
79.7575 0.073313
61.2546 0.044377
131.159 0.063549
109.364 0.124707
240.439 0.052709
82.1521 0.15016
133.47 0.048919
220.103 0.091453
100.155 0.042498
213.017 0.072443
380.848 0.064741
79.1015 0.020098
197.501 0.035689
31.3528 0.082977
148.566 0.01088
120.282 0.178352
284.282 0.07246
27.602 0.22537
73.8544 0.159397
21.6328 0.033535
45.551 0.00292
91.565 0.096384
231.94 0.086426
526.664 0.066378
121.442 0.045755
67.7655 0.037075
164.801 0.098106
16.5884 0.011447
712.78 0.057825
309.672 0.192635
171.55 0.144451
105.524 0.02158
166.299 0.051467
32.5751 0.250762
78.7138 0.141704
132.373 0.081527
235.61 0.123763
56.8985 0.159741
65.3584 0.016788
88.1371 0.017523
53.506 0.196346
39.4507 0.051034
118.93 0.146328
96.6815 0.05569
64.3635 0.009015
66.3243 0.084925
39.3333 0.012158
38.0598 0.120603
31.4848 0.155442
149.044 0.104184
52.3383 0.084299
84.3101 0.072779
95.9569 0.251592
109.26 0.069492
123.722 0.103843
48.0336 0.187127
106.474 0.101481
33.7189 0.027343
29.9052 0.243743
92.6045 0.016375
14.1493 0.401183
27.3121 0.35282
201.104 0.103288
115.298 0.113875
70.5873 0.010447
27.0541 0.01591
30.7252 0.06841
16.3211 0.005157
20.3371 0.080642
