107.771 0.044602 136 7932.25 0.5 0.5
98.9542 0.039942
104.03 0.08423
82.5779 0.060215
147.27 0.239662
32.1383 0.054684
18.3344 0.269841
22.1334 0
10.8805 0.065891
81.5496 0.149337
38.4435 0.015336
18.4721 0.085973
139.148 0.052001
69.1685 0.178899
27.0504 0.115092
77.8635 0.264256
119.12 0.110237
90.0334 0.130482
28.6276 0.140047
30.3262 0.373867
13.3443 0.334665
28.3283 0.070869
27.6117 0.101414
25.0653 0.391324
53.6034 0.279689
206.183 0.156253
148.538 0.153029
12.493 0
20.181 0.017562
72.7485 0.121691
29.8273 0.05118
91.8025 0.055804
53.2073 0.158216
88.9433 0.058801
12.0599 0.151829
26.7363 0.208077
60.8337 0.178916
40.7284 0.125146
101.372 0.1082
39.8522 0.155384
30.0134 0.256715
79.5536 0.120391
24.1317 0.021461
133.117 0.049287
16.2967 0.172084
91.5555 0.283517
31.5099 0.068669
131.408 0.156448
15.9601 0.203926
81.8338 0.049434
126.707 0.098693
52.3486 0.211978
62.7637 0.107909
17.7247 0.038594
50.7757 0.070225
182.245 0.22489
21.1648 0.010519
17.471 0.350627
65.2664 0.095944
49.7419 0.018067
109.66 0.097031
29.7574 0.033749
59.0882 0.074452
130.419 0.195695
21.6075 0.463584
59.9131 0.071683
14.986 0.215655
76.8519 0.101358
45.8514 0.089028
29.246 0.247031
21.0934 0.076784
203.939 0.098241
19.4626 0.126366
19.0501 0.154925
42.3195 0.117467
106.683 0.271628
61.6952 0.101144
111.642 0.095408
109.129 0.083196
38.0868 0.028828
10.2061 0.426872
116.776 0.11515
45.7363 0.085803
196.409 0.152841
32.2196 0.250604
34.2059 0.020657
113.47 0.160368
54.0028 0.172003
33.8023 0.063718
33.6302 0.265692
43.3223 0.25923
23.2291 0.236657
25.2933 0.067489
53.4655 0.20283
97.6389 0.14381
32.1549 0.177427
16.9054 0.372656
58.0747 0.171819
55.476 0.178784
41.7739 0.071099
16.9824 0.133063
38.6945 0.06486
68.7556 0.079109
35.1985 0.102297
50.9222 0.149656
72.9972 0.199538
59.5838 0.094901
16.1168 0.112269
170.245 0.073358
77.9857 0.377549
16.336 0.194682
20.7801 0.213478
45.6979 0.045595
58.0366 0.01602
31.3255 0.139437
57.9139 0.062312
20.311 0.055072
43.8021 0.2614
21.8136 0.2615
20.6483 0.090887
37.6663 0.017758
25.5062 0
44.1068 0.401326
23.8799 0.082837
162.369 0.157785
15.359 0.054924
44.1072 0.192893
11.0474 0.182761
49.9104 0
12.2324 0.03062
30.8259 0.096781
15.9374 0.010548
37.9945 0.277317
31.3335 0.14813
61.2182 0.263895
32.7392 0.312402
16.4567 0.094635
15.777 0.052857
23.7345 0.255004
39.8345 0.399482
26.4444 0
22.4069 0
