398.721 0.112437 216 3500.62 0.5 0.5
52.6066 0.080615
126.071 0.147322
158.389 0.106293
264.943 0.141869
55.0514 0.011703
27.1128 0.342631
90.6153 0.129092
14.8516 0.379998
121.978 0.188287
28.0207 0.075191
40.817 0.060251
90.5989 0.260563
111.311 0.338297
90.4722 0.054404
172.162 0.317471
114.42 0.303273
62.5323 0.46722
111.711 0.221632
48.1914 0.123735
79.6594 0.068745
96.7859 0.075652
42.2876 0.049217
18.1316 0.096839
139.237 0.208422
105.134 0.23469
67.7966 0.082913
117.494 0.194387
55.4473 0.204049
49.5272 0.163511
72.9787 0.251096
90.5819 0.149234
37.6817 0.044183
104.404 0.074589
40.2509 0.27687
26.8328 0.194124
36.4712 0.087217
23.3098 0.101166
13.8173 0.503216
40.4324 0.443703
44.8432 0.226116
16.9362 0.120778
