286.539 0.11587 176 7932.25 0.5 0.666667
8.71756 0.22552
16.9384 0
100.327 0.068059
102.578 0.278745
84.6476 0.136828
332.991 0.167341
219.122 0.071303
44.5996 0.165711
91.9884 0.10019
63.9926 0.038068
34.1595 0.011817
184.852 0.02884
38.0818 0.084221
95.5769 0.118397
18.8106 0.042634
26.5759 0.363927
178.782 0.09562
62.3658 0.195707
24.9969 0.167955
91.6341 0.07743
42.353 0.150472
86.6649 0.031777
101.346 0.090519
67.3879 0.072553
27.1472 0.025012
19.8246 0.230486
73.3178 0.139137
67.8359 0.163516
90.766 0.020292
101.279 0.045331
247.882 0.077532
82.8852 0.041449
97.7286 0.058267
57.6875 0.057672
16.4472 0.966875
85.6212 0.006498
55.2969 0.084568
55.9604 0.183713
62.8515 0.021078
149.866 0.084879
17.7466 0.080619
43.0084 0.385988
116.794 0.052918
33.6794 0.100173
34.5074 0.026652
57.565 0.372348
15.5832 0.06302
16.1115 0
60.5078 0.038831
26.5669 0.180846
148.835 0.035947
51.4059 0.020118
26.527 0.042628
111.994 0.069915
24.9469 0.04986
19.529 0.052134
89.987 0.057304
158.941 0.045929
49.9033 0.074892
26.9013 0.160612
52.2762 0.194172
12.1441 0
26.5039 0.008588
31.7894 0.090137
14.3556 0.009106
29.2262 0.063411
42.2405 0.056512
18.5019 0.097599
19.0004 0.278764
46.949 0.11888
25.6978 0.161514
92.5774 0.041362
128.641 0.040046
44.8905 0.025205
56.9317 0.068977
73.0028 0.058147
27.9952 0.12553
18.6959 0.249809
39.2366 0.12365
51.3371 0.030147
206.361 0.117381
83.0836 0.157075
27.6905 0.201898
52.4212 0.078971
129.861 0.084664
31.2626 0.008791
48.3922 0.037401
50.7791 0.049353
142.819 0.100468
39.3481 0.009875
59.1041 0.037046
62.1035 0.05745
215.109 0.034464
71.1628 0.028639
56.8918 0.196515
95.545 0.096205
62.3146 0.031985
49.8558 0.085542
13.2443 0.4983
98.8578 0.154898
129.77 0.079644
69.375 0.06703
39.2987 0.042001
32.1962 0.027881
17.0639 0.01534
15.8181 0
12.6117 0.129104
12.4384 0.350211
12.9698 0.006217
11.5138 0.137715
12.2247 0
46.9094 0.217393
15.45 0.034864
30.3815 0.094584
29.3951 0.026385
40.1229 0.149737
9.31449 0.039384
18.3744 0.077931
19.6757 0.126047
27.2009 0.050483
25.7574 0.022973
26.7184 0.071531
