512.586 0.12517 176 11654.3 0.5 0.5
126.093 0.109011
183.648 0.123805
22.1714 0.378798
48.9596 0.299498
118.048 0.206315
138.654 0.137379
289.838 0.138887
106.697 0.143096
518.018 0.09894
496.296 0.112829
233.866 0.11835
300.632 0.121508
391.612 0.099906
84.3645 0.111119
135.474 0.240571
148.763 0.097813
50.3171 0.236415
135.765 0.263819
13.7263 0.112818
139.869 0.108625
305.186 0.128025
91.7472 0.163443
54.0856 0.021151
236.692 0.129333
149.129 0.16041
36.6691 0.160965
469.872 0.208268
480.49 0.137673
25.7891 0.035898
70.6073 0.214356
90.7099 0.196682
107.532 0.199699
25.3281 0.03385
159.667 0.173341
52.9688 0.008198
138.963 0.15159
86.3686 0.109963
166.682 0.091254
114.305 0.192527
60.619 0.084985
57.2683 0.049008
42.6313 0.084587
82.4805 0.175677
184.857 0.120137
106.545 0.088342
57.0132 0.3721
67.6081 0.07072
62.8839 0.252295
21.1716 0.19308
300.961 0.059452
144.898 0.228474
49.7444 0.301477
43.354 0.25389
82.0674 0.232793
147.565 0.153803
20.7387 0.132579
31.2942 0.088569
168.42 0.019122
35.4476 0.007095
10.8711 0.47005
68.381 0.373703
116.805 0.05404
17.4341 0.049692
131.56 0.270949
98.1414 0.191759
68.3146 0.093544
63.2268 0.184372
39.4231 0.072013
42.8468 0.112991
39.6696 0.335141
165.482 0.124639
32.0109 0.154646
97.4973 0.240089
131.877 0.033911
101.04 0.16071
53.5665 0.140032
199.062 0.140501
85.5846 0.210241
171.639 0.065994
182.498 0.14578
91.1427 0.066671
48.6693 0.316697
35.2369 0.058526
14.3652 0.075424
26.1293 0.023482
83.0055 0.310318
40.3341 0.154523
173.973 0.097578
26.9717 0.201147
69.2289 0.070321
35.9549 0.278204
124.669 0.123505
30.41 0.108836
42.546 0.029456
27.9528 0.279239
18.2446 0.013128
22.7544 0.050954
