122.626 0.114767 136 15864.3 0.5 0.666667
27.4058 0.447037
20.9206 0.023094
23.2408 0.029828
209.603 0.060275
18.5811 0.045657
57.5081 0.018581
82.4037 0.066962
208.567 0.15592
30.7555 0.086225
13.0604 0.09393
47.2581 0.024585
20.3333 0.208135
34.1357 0.020434
39.795 0.203345
55.9183 0.047926
35.7956 0.184625
27.6559 0.021151
33.468 0.027998
81.2066 0.152985
56.8807 0.057805
52.048 0.181142
53.946 0.097201
32.1696 0.140916
45.5377 0.033257
137.798 0.067087
69.7619 0.106961
120.723 0.113548
21.0023 0.07689
23.4693 0.028259
33.7441 0.189221
33.8425 0.199093
126.2 0.208997
38.4392 0.214755
12.7824 0.133531
33.4614 0.040542
160.744 0.101947
127.762 0.079441
27.0841 0.023201
75.8906 0.115495
19.6133 0.0728
38.3713 0.021044
10.5216 0.032923
23.3597 0.01246
32.51 0.025805
33.9932 0.094416
57.7838 0.006723
564.155 0.312118
21.1206 0.02788
42.4748 0.100571
39.255 0.160381
126.323 0.109237
52.8543 0.034983
44.7436 0.107007
103.761 0.024178
132.75 0.07788
25.5765 0.020087
41.6334 0.061227
15.7014 0
47.4239 0.081912
40.0255 0.089853
22.0149 0.07113
121.23 0.139529
66.9857 0.084553
109.144 0.088639
37.6364 0.201532
33.3673 0.061898
13.0809 0.091595
69.8098 0.047912
32.2068 0.037337
84.7184 0.133659
57.1825 0.051019
54.9972 0.105412
40.1656 0.053268
12.342 0.463296
206.609 0.080672
14.6263 0.189559
24.0335 0.072824
17.9701 0.0636
11.8682 0.054602
62.8378 0.061184
20.7589 0.111718
34.4311 0.010994
33.849 0.041274
21.5816 0.075499
228.978 0.072221
75.1059 0.041418
195.436 0.142439
96.3521 0.038049
12.6145 0
105.454 0.095187
125.24 0.046514
310.284 0.102196
50.1428 0.074755
34.3708 0.041833
21.922 0.214467
51.6255 0.029171
35.889 0.143938
54.3484 0.146857
76.9619 0.11266
48.3608 0.043107
128.742 0.076864
133.715 0.119995
69.0517 0.119778
30.34 0.039081
55.1712 0.146062
16.5596 0.043957
24.3278 0.055679
19.6724 0.073442
25.1247 0.025554
14.9503 0.052449
36.0821 0.007068
95.7112 0.037162
32.863 0.048097
30.6809 0.13666
50.1426 0.137656
97.8031 0.096232
189.056 0.102581
33.9848 0.07774
46.1759 0.132967
62.5027 0.079617
85.4223 0.111543
18.0184 0.049476
39.5864 0.018362
130.114 0.064861
79.2049 0.161318
39.3179 0.023864
83.087 0.056876
78.9987 0.050543
40.003 0.046909
18.2838 0.03268
42.1926 0.027749
15.2255 0.046192
33.749 0.169777
92.9376 0.077313
110.287 0.10846
157.573 0.046783
43.4661 0.0748
32.5998 0.146948
40.8119 0.035113
129.305 0.141357
149.9 0.059705
107.256 0.126487
170.715 0.117702
93.188 0.019834
58.5021 0.029863
98.0435 0.093152
62.6874 0.122808
73.0393 0.064184
19.1597 0.10639
27.1479 0.043741
61.3806 0.071773
90.2441 0.078544
39.3425 0.096512
45.3841 0.041479
20.6379 0
20.1373 0.034628
48.0704 0.024104
30.4844 0.069071
132.366 0.090795
39.5269 0.127791
80.3255 0.024081
12.6543 0.122885
45.523 0.042375
9.16404 0.140789
197.231 0.088806
135.194 0.06188
69.6422 0.123979
45.0875 0.058538
111.619 0.095327
27.4255 0.067231
26.4515 0.024447
70.4704 0.069015
28.0074 0.003487
48.806 0.066487
28.5418 0.062222
25.7458 0.153968
136.859 0.082044
39.0695 0.009581
33.7314 0.103807
35.8937 0.071304
26.4011 0.118349
28.7338 0.139151
10.6032 0.049572
24.1066 0.042201
66.0781 0.156681
150.652 0.06547
39.4143 0.062213
25.7141 0.017914
75.6271 0.051585
65.59 0.041019
28.7017 0.060835
58.1708 0.062898
46.9279 0.143013
127.276 0.071573
97.9751 0.106481
63.7555 0.055722
23.0429 0.03358
202.627 0.074415
31.8167 0.024159
34.4989 0.026432
23.1833 0.059377
18.0233 0.169566
71.0527 0.084263
90.9777 0.038342
31.8051 0.031803
12.9166 0.005399
34.724 0.037355
109.059 0.055603
129.906 0.105361
55.1176 0.172906
21.175 0.109966
79.3323 0.083182
124.577 0.058558
33.8021 0.051849
24.4277 0.08924
52.6761 0.122859
43.5465 0.079286
97.1708 0.077294
35.2531 0.084065
15.5896 0.028651
30.3465 0.132194
104.55 0.080472
31.7055 0.028982
12.4986 0.18675
29.4092 0.061644
18.45 0.009723
45.5755 0.028604
39.9621 0.033399
34.1692 0.118246
29.2437 0.028178
28.3034 0.067845
20.8398 0.120637
13.2332 0.136228
99.378 0.09235
31.2316 0.028271
41.4551 0.108191
14.7511 0.023062
41.4864 0.129446
67.929 0.110968
21.8951 0.26378
32.975 0.025309
12.5333 0.022688
49.087 0.174689
18.5208 0.033616
43.085 0.114158
32.7073 0.05414
49.0141 0.068938
34.9988 0.099755
18.2869 0.065869
17.9282 0.050059
25.0961 0.097557
55.6516 0.110228
22.0788 0.145804
18.022 0.198643
13.477 0.263606
28.4278 0.091101
21.7946 0.2548
17.2782 0.036343
12.357 0.113355
13.4021 0
27.4101 0.010751
18.9931 0.022002
14.4293 0.057297
10.1836 0.047042
19.2738 0.039115
17.5212 0.091022
15.7606 0.012771
39.6502 0.091083
14.64 0.260117
22.7531 0.093074
33.5272 0.021964
23.173 0.044909
61.7244 0.201109
22.7676 0.045046
12.8959 0.292362
19.4633 0.60284
21.5767 0.01899
17.1391 0.02807
14.7108 0.012118
