36.479 0.011053 176 9479.76 0.5 0.666667
30.5973 0.04056
46.6332 0.010453
180.707 0.09079
13.0671 0.013131
89.0715 0.105831
15.7207 0.079715
14.5188 0.028072
106.472 0.054049
144.522 0.084534
24.2566 0.011926
65.9051 0.152245
104.893 0.087504
43.4112 0.065228
19.8421 0.068491
125.841 0.139646
24.6807 0.151163
225.186 0.059975
111.292 0.039801
41.7469 0.071645
38.1206 0.01716
97.7711 0.11506
118.034 0.170285
37.5663 0.013608
98.8362 0.167502
14.0815 0.008369
153.202 0.066003
60.3217 0.035574
36.9442 0.152065
52.7978 0.042797
19.8083 0.08592
90.7534 0.027885
312.958 0.068428
103.847 0.239597
122.354 0.05818
44.7949 0.039304
47.8822 0.16433
18.9831 0.211039
152.61 0.051097
89.7363 0.019205
59.2156 0.157552
60.0472 0.255824
35.9429 0.058338
129.644 0.070946
29.2476 0.188967
20.8567 0.085709
175.936 0.116558
101.821 0.004473
40.0599 0.030553
44.8477 0.003403
46.8769 0.031782
122.83 0.111888
296.495 0.10785
368.99 0.092039
31.0823 0.028477
34.6009 0.143772
49.9977 0.05458
25.7032 0.056867
128.193 0.121321
44.9073 0.047313
15.8097 0.015857
140.56 0.196893
214.586 0.040075
51.4783 0.128076
171.54 0.10532
25.2309 0.029057
29.3593 0.127189
40.5099 0.145796
11.3568 0.010411
14.2985 0.012995
194.531 0.087407
52.1962 0.067912
70.47 0.032322
33.634 0.019985
88.2987 0.119084
66.8519 0.062318
48.535 0.018015
60.0781 0.042097
38.8548 0.008074
93.069 0.076251
65.5243 0.113784
20.9717 0.247163
97.9977 0.053022
72.5347 0.027959
57.4542 0.016101
88.5982 0.139186
29.0406 0.002067
111.672 0.061187
34.0104 0.12588
13.0113 0
33.624 0.146771
69.3514 0.030069
121.357 0.06826
97.9467 0.127967
56.5137 0.060289
126.65 0.080794
27.0431 0.051683
48.0373 0.205733
220.794 0.078885
36.4354 0.008771
148.589 0.07364
47.8804 0.035437
21.469 0.035261
31.8326 0.168363
10.0954 0.099316
18.0137 0.057376
41.2037 0.243662
62.8987 0.130717
50.9653 0.187174
18.6651 0.206637
35.5381 0.012797
75.5984 0.062834
67.7404 0.188527
74.4232 0.094423
59.4773 0.168197
23.5509 0.008261
25.4234 0.008056
58.4331 0.02467
69.041 0.091119
41.354 0.115872
39.2658 0.105666
50.255 0.0474
9.52098 0.016151
28.2025 0.039674
69.3656 0.044613
34.7615 0.048799
16.1984 0.028704
15.8262 0
38.418 0.030822
29.4049 0.176892
29.3607 0.086706
19.4814 0.047254
84.8056 0.103535
45.7165 0.022428
25.7787 0.02885
23.5662 0.102533
12.5667 0.055142
11.7195 0.109843
