39.4803 0.027289 196 8154.46 0.5 0.666667
26.9665 0.014288
54.0046 0.01373
136.079 0.180426
18.4219 0.119518
100.988 0.011515
215.047 0.1253
25.8033 0.308107
90.9183 0.089123
20.2289 0.080354
102.657 0.164051
50.6833 0.057269
219.224 0.038982
102.551 0.095568
28.989 0.043055
20.551 0.026962
98.6432 0.105634
49.9746 0.146882
23.9478 0.020686
74.5473 0.150009
151.53 0.033544
92.7156 0.095191
75.2656 0.12378
18.963 0
59.6124 0.062623
52.7785 0.05196
70.1239 0.023245
222.437 0.179162
41.8277 0.101249
28.7894 0
106.764 0.016068
36.2841 0.07678
26.9001 0.160672
88.5222 0.024447
118.841 0.033052
57.3361 0.102299
335.167 0.089274
267.786 0.074253
141.404 0.12113
109.662 0.036216
221.686 0.098044
46.1799 0.00205
251.467 0.10265
34.0148 0.047417
45.7139 0.034757
26.2212 0.029367
171.407 0.107405
30.9214 0.056339
127.58 0.111718
299.793 0.112026
26.4436 0.125625
33.6392 0.071411
24.4354 0.235386
162.841 0.035406
42.0235 0.080505
196.79 0.108892
58.0601 0.017675
24.0729 0.028001
67.9832 0.035443
35.1232 0.026554
49.0889 0.071295
125.829 0.1837
55.9028 0.044368
74.8659 0.038079
75.0007 0.008111
52.2786 0.053164
62.5781 0.119726
75.2521 0.09647
66.856 0.186968
19.5106 0.005504
114.122 0.064087
53.4148 0.032828
90.0694 0.072308
85.7395 0.041157
202.936 0.05667
12.5443 0.054681
27.8148 0.190631
191.792 0.061927
20.5284 0.018901
9.47923 0.095067
45.2147 0.079102
68.9749 0.090212
51.1631 0.130451
79.3433 0.073889
43.6779 0.185801
73.5654 0.00459
117.669 0.111665
127.408 0.054361
50.0039 0.043623
73.738 0.093856
29.533 0.022237
140.637 0.12954
29.9204 0.157185
14.605 0.133186
26.5127 0.010301
39.0705 0.021089
29.8132 0.015195
28.0116 0.236817
44.9333 0.151317
17.157 0.076589
29.0967 0.17269
