39.2561 0.014966 96 29175.9 0.5 0.666667
15.471 0.145071
15.0045 0.039292
13.693 0.388068
15.6578 0.045187
71.0279 0.046293
20.1608 0
26.3491 0.096852
32.4447 0.077934
73.5709 0.155971
44.9781 0.084865
24.3858 0.060301
41.8546 0.251644
23.9618 0.076759
81.0956 0.019201
48.1396 0.163021
57.4743 0.014363
80.1409 0.085814
153.269 0.075885
110.434 0.055531
94.0273 0.088766
93.0005 0.169627
34.9963 0.095322
81.4721 0.162743
30.4015 0.063019
33.3615 0.101731
9.62014 0
35.1851 0.050324
39.7777 0
50.6123 0.088623
37.956 0.211132
25.1767 0.049216
24.4888 0
60.3846 0.027341
30.369 0.28918
191.468 0.190964
49.0039 0.036716
40.8975 0.188659
24.4642 0.124096
26.235 0.056747
17.4431 0.076705
76.1924 0.272419
53.7171 0.24756
16.8566 0
31.8201 0.00901
52.6984 0.066803
33.4562 0
27.2656 0.080248
83.5649 0.094781
55.1278 0.044433
20.2978 0
61.6259 0.073117
42.9562 0.167506
51.7397 0.123501
37.913 0.051432
19.2884 0.68491
109.361 0.179823
23.3582 0
105.441 0.080216
39.3865 0.721183
24.6603 0.024755
45.0448 0.075742
50.0692 0.076894
576.626 0.064993
19.6235 0.197162
35.6888 0.019936
14.3707 0.067376
82.9637 0.195141
130.685 0.129926
22.269 0.160675
41.3437 0.081111
103.974 0.131867
12.0785 0.199087
61.3095 0.093946
41.8634 0
27.8743 0.031151
36.3694 0
11.1755 0
36.9092 0.07408
107.947 0.108815
19.8767 0
19.9517 0
23.4875 0.136783
25.7473 0.12409
34.423 0.047051
31.3321 0.127932
76.2574 0.261518
58.7992 0.084878
43.1835 0.042907
39.3177 0.12519
53.9415 0.08645
42.0585 0.364783
178.41 0.123644
78.9932 0.028339
27.7374 0
13.0438 0
53.2503 0.068441
8.35317 0.022956
43.2128 0
45.3015 0.053041
31.6279 0.038369
20.3563 0.145324
65.0469 0.281116
12.5627 0
27.1207 0.091904
24.8398 0
34.753 0
20.9776 0.117468
25.4172 0.914197
11.3788 0.107198
25.422 0.267561
38.5015 0.059077
54.61 0.028892
48.2957 0.058419
17.3479 0.114115
22.9441 0.072208
62.8627 0.053477
24.8109 0.050276
26.814 0.056271
18.5595 0.078791
16.2075 0
21.3722 0
24.1818 0.025909
19.9824 0.064739
77.3524 0.133053
23.5713 0.889375
33.6534 0.122869
70.7622 0.380488
20.279 0
38.5711 0.020048
39.037 0.028552
24.8453 0.02159
57.2818 0.081264
54.3619 0.11684
19.3646 0.845582
50.1331 0.204789
151.045 0.121533
15.247 0
13.9582 0.154161
36.9339 0.055897
31.6679 0.135097
84.6646 0.033153
23.0341 0.750833
141.012 0.161939
21.4273 0.137886
57.1588 0.201529
69.5248 0.051962
46.8854 0.052213
16.7247 0
39.2998 0.061354
75.1674 0.079078
8.28766 0
21.383 0.913507
66.2893 0.107776
65.5903 0.167089
18.6309 0.226931
22.0682 0.019593
59.5473 0.015937
8.28566 0
38.9669 0.256201
27.2987 0.152979
14.7063 0.294203
16.4995 0.754942
45.2901 0.021174
36.5968 0.041718
86.7342 0.153703
65.2347 0.043181
21.2125 0.083347
41.3753 0.088624
21.087 0.006347
64.2711 0.115108
51.393 0.074662
27.1119 0.08413
41.5453 0.081155
113.593 0.079433
49.4669 0.075242
21.758 0.037333
23.9111 0
40.356 0.056403
21.7132 0.162142
39.1656 0.07766
23.7426 0
36.7435 0.066227
58.6299 0.048278
29.8154 0
52.5185 0
29.8386 0
36.0705 0.045828
23.7343 0.038966
29.3963 0.027031
11.5377 0.068326
26.0501 0.082192
46.1204 0.108138
66.6858 0.269426
37.5586 0.190456
33.068 0.258396
18.8679 0.645525
47.3498 0.092047
82.226 0.088295
51.5122 0.044256
110.658 0.114368
240.209 0.118034
30.3668 0
21.811 0.911671
23.296 0
28.3379 0
24.8254 0.076828
16.2636 0.069934
11.9024 0
23.3576 0.216416
63.9789 0.164246
45.1283 0.265952
32.6746 0.037618
50.3837 0.247576
20.6994 0.009862
109.84 0.056046
92.7928 0.180455
38.6123 0.284389
54.4976 0.033083
160.532 0.084402
25.7669 0
11.0204 0.032358
25.8992 0.283882
11.148 0.01738
14.2436 0
68.051 0.166486
83.8702 0.754256
38.3265 0.054696
52.6706 0.091269
40.6847 0.110913
50.6542 0.132713
21.4898 0.088755
175.411 0.072937
55.8693 0.067261
88.942 0.071163
27.3563 0.104322
18.0389 0
27.4252 0.063751
60.7402 0.201035
31.4466 0.064965
60.3123 0.146471
20.9618 0
33.7576 0.04933
28.9161 0
21.3941 0.121451
54.6056 0.065744
70.9471 0.103751
17.0247 0.350931
35.3737 0.057745
73.1271 0.161061
14.5316 0.520292
13.2453 0
28.0904 0.002236
88.6002 0.02953
12.8298 0
39.9871 0.199027
18.2043 0
33.3033 0.033177
28.9746 0.048671
77.2865 0.13038
27.0507 0.146102
26.9674 0
165.832 0.112887
14.3128 0
53.2285 0.050215
36.4944 0.015225
42.8052 0.106444
18.0171 0.89967
47.2658 0
41.9259 0.195873
21.0281 0.236956
21.9439 0
11.1053 0.868784
103.071 0.120405
33.4019 0
8.1259 0
35.4991 0
151.352 0.060983
40.0455 0.150081
37.4888 0.054394
129.53 0.102537
45.4537 0.035818
61.5498 0.02501
177.621 0.115224
68.1792 0.27384
102.919 0.098279
183.214 0.104153
14.8156 0
26.5036 0.119512
81.6803 0.144605
21.176 0.881414
157.328 0.05094
205.14 0.15653
23.6352 0.134879
52.5519 0.141282
35.4826 0
19.4754 0.941647
52.2535 0.015916
12.8308 0
13.9163 0
29.9334 0.172933
13.4705 0.056676
41.4041 0.026704
24.3154 0.078971
15.8014 0.082205
40.7443 0.126883
11.8104 0
91.9707 0.115921
14.5408 0.048753
62.686 0.047225
14.2178 0.041409
72.5667 0.092175
73.9365 0.051862
64.5358 0.050578
19.03 0.076297
73.648 0.154784
51.4925 0.117301
17.075 0.111888
169.517 0.03043
82.4344 0.196529
46.8651 0.080094
39.6844 0.013071
64.214 0.108087
27.7386 0.149691
72.7419 0.029058
30.6517 0.059388
13.4195 0
18.366 0.024487
182.828 0.143233
20.3169 0
61.6155 0.176036
41.3835 0.043439
41.1491 0.027024
86.4881 0.150839
12.9968 0.010836
25.8099 0.031919
61.7993 0.165323
70.849 0.066659
13.9657 0.009398
45.1173 0.092266
33.488 0
58.5055 0.267222
75.8896 0.98567
13.8437 0.046385
50.0446 0.05877
21.5652 0.124026
13.417 0
23.0297 0.265745
29.8141 0.372571
26.5245 0.073713
44.9602 0.030427
30.5893 0.048741
16.1785 0
31.1617 0.232712
17.4507 0
18.2788 0.009906
80.1309 0.049109
25.2668 0.204595
55.6694 0.067371
81.148 0.026832
42.9802 0.050029
41.6295 0
16.6462 0
49.7574 0.014956
16.8451 0.312742
9.81487 0.535585
40.0896 0
29.2515 0
44.3091 0.02874
101.412 0.18218
33.3329 0.084045
56.4801 0.053981
50.9123 0.055756
22.7503 0.105808
25.4141 0.031171
28.8363 0
51.9295 0.094931
18.037 0.077667
19.6948 0.025008
64 0.167398
61.3382 0.165881
47.1224 0.098144
30.888 0.026506
65.5286 0.039412
28.7801 0.053504
30.607 0.18314
64.2109 0.142897
102.396 0.087323
36.9545 0.044561
25.681 0.058751
59.4887 0.343864
82.3186 0.080304
43.6182 0.059012
26.1553 0
69.834 0.167699
25.0047 0.050162
40.6513 0.00583
33.9432 0.042344
21.899 0.091482
17.6484 0
75.9793 0.056312
31.7172 0.118503
22.9044 0.052865
12.6464 0
46.211 0.023172
18.2498 0
14.2912 0.338868
73.6751 0.088025
66.0358 0.02881
44.8495 0.174353
20.8816 0.11394
35.0937 0.00461
54.9445 0.106571
31.3564 0.295979
92.0325 0.095666
49.4848 0.05572
26.7289 0.048433
25.2452 0.592101
10.6689 0.170387
69.613 0.140769
32.6378 0.067497
25.2337 0.399875
24.8024 0
21.9819 0.070701
28.6503 0.019354
28.6216 0.894186
16.3456 0.018843
19.1537 0.913135
15.1016 0.176871
15.9961 0.233007
29.05 0
52.787 0.180481
29.9419 0.056178
63.2895 0
190.664 0.140858
20.7829 0.061019
42.4563 0.123561
19.5295 0
34.45 0.016155
70.8013 0.129592
79.4003 0.040703
24.609 0
27.7992 0.094222
17.8464 0.06829
37.6015 0.122006
21.3713 0.020209
16.4856 0.010155
60.5832 0.091294
12.7641 0
21.4247 0
64.3452 0.193216
37.266 0.105116
11.2758 0.43766
28.0676 0.123963
12.3801 0
22.7909 0.042627
119.475 0.175047
27.6766 0.562782
46.2454 0.019891
17.8493 0.027952
10.6557 0
116.126 0.076418
16.6425 0.104367
14.3668 0
36.615 0.064289
42.1749 0.177705
57.5615 0.083231
20.4787 0.045789
63.9172 0.137186
51.2252 0.041613
17.8843 0.041248
38.9555 0.107883
53.5638 0.269599
14.3966 0
39.4311 0.07211
87.2579 0.134992
19.4594 0
36.1579 0.021152
52.5926 0.18471
16.6763 0.028178
63.3723 0.235162
111.862 0.128037
30.4958 0
18.9619 0
163.642 0.126725
37.4157 0.030077
50.5672 0.184969
42.0852 0.067626
21.4855 0.076938
19.3205 0.019071
106.489 0.256421
16.4295 0
48.4743 0.037309
138.354 0.065196
52.2066 0.181703
32.4652 0
108.131 0.081535
16.9752 0.084395
41.3216 0.126634
12.7018 0
54.352 0.134725
40.7523 0.140699
12.4212 0.062833
31.4385 0.017613
45.3473 0.072588
37.6524 0.069422
77.2924 0.100724
14.1705 0
21.8021 0.682161
24.6992 0.024117
26.2452 0.05752
28.7132 0
30.317 0.854291
25.8769 0.064836
71.6272 0.095193
85.0153 0.055272
38.2257 0.033389
47.5568 0.059973
31.2262 0.038342
37.22 0.028488
21.3775 0
42.4732 0.095624
29.6021 0
102.911 0.10705
21.875 0.206243
29.2472 0
29.2443 0.105851
21.4506 0.059212
118.804 0.284325
14.36 0
12.3872 0
33.4728 0
56.4968 0.105474
34.8863 0.026102
17.9255 0.095863
37.0693 0.07187
20.7344 0.064923
8.60024 0
9.65962 0.009543
22.7571 0.711164
13.0832 0.312342
21.8889 0
42.5372 0.04474
33.971 0
17.4804 0.214507
52.9303 0.05885
39.1266 0.09285
22.2085 0.109813
46.4807 0.014057
19.8806 0.03512
86.5197 0.209999
164.046 0.104023
61.854 0.199795
26.6626 0.04012
16.9362 0.04421
40.0243 0.067838
38.2558 0.024151
32.358 0.130813
34.7667 0.188225
27.9264 0.190859
55.0569 0.03112
29.3764 0.039732
47.903 0.465319
14.2669 0.014251
105.008 0.177243
70.6347 0.062888
64.8652 0.167586
19.8001 0.046498
36.8053 0.064732
22.5772 0.022013
21.603 0.836168
20.8509 0.070474
55.5977 0.154586
25.8794 0
36.4316 0
20.714 0.049839
87.8263 0.131268
10.0649 0.06431
73.7554 0.147637
36.6928 0.046268
27.3745 0
87.7246 0.10615
24.2876 0.042779
46.2909 0.275851
35.0461 0
72.055 0.199554
21.015 0.036524
13.2607 0.059655
70.1641 0.144818
15.8843 0
10.1621 0.026622
38.4611 0.157265
34.0552 0.01658
25.2073 0.013351
21.0379 0.521903
26.5376 0.323622
30.3748 0.035828
29.1168 0.789109
17.9075 0
20.3834 0.22073
28.5214 0.048284
31.0353 0.062507
15.3397 0.038181
11.2721 0
14.1839 0.169392
10.2078 0.015418
20.8376 0.140528
25.7587 0.110724
19.8895 0
20.5665 0.242229
23.761 0.017056
28.856 0
16.1045 0.98875
15.1514 0.072211
18.8917 0
13.1637 0.658417
29.6686 0.132811
22.4695 0.501117
16.8023 0.134253
14.2521 0.004725
16.4268 0.304575
21.9055 0.122318
22.1743 0.031436
23.3931 0.212985
20.2067 0
9.61258 0
12.5794 0.274405
27.9493 0
18.1878 0
20.7217 0.177498
16.0363 0
14.2154 0
21.9843 0.695675
59.8822 0.122364
12.1532 0
17.8605 0.128682
21.6282 0
19.5646 0.818261
10.8513 0
15.1471 0.951552
39.5701 0.182888
37.4095 0.055168
19.2157 0
14.5809 0.060531
17.1385 0.666461
44.0093 0
30.4568 0.415855
38.6579 0.089219
20.247 0.010903
18.8408 0
31.408 0.075097
33.7715 0.219815
9.78349 0
22.9987 0.01113
17.622 0
8.65375 0
11.8263 0
20.7222 0.017346
20.4691 0
22.185 0
46.5905 0.120369
22.6621 0
16.6738 0
25.5824 0
21.0472 0
16.864 0
13.5505 0
15.5529 0.406048
29.8244 0.034927
25.5293 0.080741
19.8605 0.115589
9.32471 0.016381
15.5422 0.490747
18.9458 0
25.959 0.097498
10.9657 0.012077
38.1556 0
20.4098 0
15.8745 0
53.3581 0.154428
12.2346 0
15.428 0.042701
19.4629 0
12.2467 0.041984
23.2256 0.035612
14.9789 0
11.0913 0.028979
27.6348 0.176594
15.1826 0.791345
18.8878 0
14.0983 0
13.3261 0
18.8658 0.056037
15.5629 0
23.0721 0.766513
24.6417 0.356904
15.4384 0
22.9071 0.096898
15.9631 0.033551
