180.233 0.068539 216 14711.2 0.5 0.666667
47.0207 0.016994
158.782 0.088423
338.949 0.11909
47.5734 0.055098
363.163 0.112038
62.8158 0.153422
358.145 0.098788
208.595 0.105883
547.952 0.093522
222.446 0.041267
440.093 0.155997
466.988 0.070327
278.927 0.09037
164.136 0.136248
233.084 0.115396
38.0939 0.03677
372.434 0.12189
571.712 0.056809
213.963 0.0359
763.373 0.07167
683.987 0.100327
232.049 0.085858
106.369 0.057632
101.616 0.071902
387.84 0.105628
206.166 0.085207
48.6029 0.006507
261.883 0.019003
287.509 0.07305
113.224 0.007144
447.612 0.07856
115.623 0.113057
76.8674 0.257864
172.259 0.10754
460.787 0.140347
116.486 0.027248
211.411 0.095331
64.3096 0.240733
183.779 0.111151
44.1669 0.03755
195.627 0.096097
207.889 0.046265
135.587 0.192185
102.51 0.193878
50.1838 0.191896
39.3163 0.197848
254.862 0.053265
102.82 0.092066
25.6151 0.014661
47.3345 0.084771
139.99 0.028889
147.057 0.067765
107.632 0.074275
73.4304 0.058117
71.1739 0.353115
261.839 0.105704
172.44 0.138236
224.38 0.070448
63.6581 0.140988
97.4957 0.159071
81.401 0.031665
174.568 0.03392
308.336 0.12484
102.017 0.019205
389.327 0.081384
42.3466 0.026843
141.142 0.100069
171.271 0.125831
62.7272 0.170548
31.5939 0.11696
71.9872 0.039723
31.9927 0.009879
65.5266 0.024933
55.788 0.038098
22.1058 0.0189
37.1904 0.010697
