67.5532 0.220601 116 11502.5 0.5 0.5
205.89 0.19216
16.1314 0.529846
36.5621 0.107456
81.8632 0.100781
24.9489 0.067384
91.1433 0.106847
17.5957 0.5434
60.9339 0.30185
76.7089 0.051374
137.148 0.150439
18.0147 0.025326
98.6196 0.108457
62.4526 0.061819
22.399 0.044621
15.1712 0.133018
42.5753 0.174728
28.8582 0.378002
28.3313 0.105143
60.3853 0.109134
55.9045 0.232612
93.672 0.222923
22.1469 0.045502
90.1446 0.069118
21.262 0.13367
17.6749 0.143668
17.1192 0.38958
122.448 0.175395
61.9229 0.069205
68.849 0.210151
91.531 0.189006
25.7819 0.175296
36.3477 0.263085
49.4778 0.074248
55.1749 0.022494
32.596 0.217581
58.6957 0.365187
53.3374 0.056376
129.568 0.100997
51.2266 0.202998
11.3146 0.208212
20.1448 0.093409
30.2691 0.184275
15.511 0.046378
97.4426 0.391534
17.9101 0.028132
103.279 0.098846
30.8332 0.898578
66.1191 0.2262
14.9711 0.048985
50.2293 0.138491
30.2864 0
22.5786 0.047387
22.1395 0.085835
109.726 0.166475
27.0496 0.100918
56.1037 0.13653
33.4463 0.109616
49.6842 0.062973
16.0507 0.074078
16.1459 0.515192
53.1614 0.063279
29.3743 0.211463
105.2 0.134432
136.537 0.035654
42.7755 0.227298
157.124 0.107059
68.3166 0.065832
52.9287 0.195635
77.4839 0.12565
34.9808 0.264001
70.2517 0.183059
38.2391 0.341882
69.1702 0.11609
44.0959 0.247061
104.922 0.078933
51.3035 0.164779
34.4113 0.246529
77.6328 0.098791
25.2178 0.083486
126.384 0.189851
46.7383 0.055652
39.6528 0.226176
44.7232 0.150675
61.588 0.14504
47.4888 0.184739
14.9525 0.061107
50.2162 0.16414
63.1864 0.066914
38.9411 0.026503
18.9443 0.233836
59.0971 0.26234
13.5814 0.167498
34.4927 0.12618
33.2644 0.108361
41.6356 0.241374
31.9593 0.258637
25.5296 0.312578
38.8077 0.031389
100.957 0.07608
75.2489 0.250004
34.4234 0.086348
89.9742 0.167872
73.0723 0.26285
32.1774 0.164726
80.1173 0.029698
116.598 0.161158
18.7217 0.050168
45.5985 0.084661
144.318 0.137813
73.5987 0.121871
18.1167 0.529141
17.3476 0.066577
133.074 0.082119
15.4932 0.070991
79.5787 0.200666
14.151 0.029697
39.0444 0.053662
69.7394 0.114926
73.843 0.268325
43.3583 0.043845
29.5361 0.2313
56.4248 0.275355
67.2109 0.103425
61.9212 0.071878
28.8095 0.094245
17.7331 0.213036
241.451 0.119695
107.54 0.084443
17.1746 0.039527
33.3944 0.220777
56.8262 0.108081
37.5783 0.190129
27.3606 0.065409
67.6662 0.135587
86.4173 0.202549
51.3952 0.038721
42.8969 0.111951
25.4839 0.051458
32.2871 0.158659
70.9332 0.082779
26.4519 0
53.3793 0.211322
35.5359 0.183424
15.479 0.040092
23.5393 0.006981
134.275 0.154958
42.8436 0.090603
25.7962 0.096191
42.8645 0.064507
10.8401 0.084936
104.75 0.104979
29.0288 0.221808
26.1294 0.131825
52.5095 0.140429
25.6868 0.126728
46.9242 0.108181
15.9756 0.097384
23.7598 0.185613
50.6314 0.20446
87.3429 0.197253
47.4754 0.168831
34.3844 0.340424
31.5661 0.23451
35.5266 0.013037
22.1062 0.069904
24.9924 0
141.456 0.121628
137.565 0.140507
66.4714 0.150072
10.9288 0.26257
14.0913 0.071395
20.1756 0.784076
39.6731 0.14856
198.737 0.175813
63.5921 0.22907
70.2128 0.265271
42.0738 0.082713
14.5312 0.092739
30.3545 0.043997
49.8298 0.176358
47.8743 0.202087
37.5033 0.121409
57.4021 0.206324
13.1101 0
32.9743 0.087617
35.5016 0.065195
15.8065 0.055147
42.4784 0.151461
35.3954 0.147584
22.3432 0.075501
28.0976 0.020296
36.4954 0.158532
117.282 0.061854
12.8803 0.034484
52.8152 0.135186
12.6112 0.041499
19.6278 0.035352
31.2126 0.019282
35.4414 0.033014
52.9159 0.217984
42.8675 0.114567
31.3547 0.114083
23.7422 0.120364
26.4385 0.159867
24.2894 0.011153
13.7736 0.081521
17.2377 0.075634
40.7847 0.021944
46.9921 0.240129
21.9083 0.23572
23.6813 0.02127
20.9436 0.222443
36.8123 0.520143
28.6894 0
25.6276 0.12796
14.9279 0.109612
23.0338 0
20.3268 0.335097
61.5353 0.05995
63.684 0.220057
46.6466 0.42196
23.8206 0.242553
28.4744 0.297922
19.7387 0.253871
18.1007 0
28.0863 0.032346
14.2027 0.172392
45.4725 0.265151
23.1571 0.216885
16.2798 0.838458
19.1565 0.62218
14.2298 0
32.9572 0.126396
11.9186 0.484297
