248.483 0.071317 156 21116 0.5 0.666667
128.37 0.075674
12.3877 0.162918
280.286 0.116715
223.722 0.070822
394.252 0.047058
50.4271 0.137791
737.692 0.104432
330.41 0.10782
89.5406 0.24895
595.582 0.088464
306.447 0.096878
86.5774 0.148496
162.382 0.146988
176.367 0.093334
318.968 0.070212
132.651 0.144628
66.1256 0.146462
89.4319 0.049079
126.06 0.090752
87.1904 0.040689
631.875 0.102311
31.7379 0.019482
185.876 0.180873
103.796 0.111953
166.777 0.076407
154.883 0.08104
229.436 0.059512
106.12 0.199092
124.391 0.036149
10.6208 0.094603
57.9275 0.078447
44.7918 0.113835
137.261 0.126701
10.5518 0.005091
204.384 0.169002
182.211 0.057481
304.372 0.144145
121.144 0.167982
122.098 0.112099
164.43 0.127195
155.288 0.056914
25.4767 0.063359
34.384 0.127001
16.0443 0.056062
93.9921 0.1592
35.6218 0.060051
77.2143 0.098212
19.6023 0.058386
252.731 0.153327
78.5589 0.074712
116.039 0.048104
13.7789 0.23543
51.8576 0.086084
59.7301 0.089689
109.285 0.032661
83.5067 0.031488
52.6905 0.04576
126.266 0.078261
42.9611 0.875061
173.565 0.09705
631.688 0.076061
111.521 0.149894
230.035 0.112117
220.023 0.125581
160.01 0.041186
217.108 0.096068
351.653 0.066173
73.4385 0.03052
89.4823 0.030082
192.705 0.081579
270.009 0.068013
58.8047 0.064725
127.56 0.106075
340.47 0.108334
179.426 0.141672
227.504 0.070565
508.336 0.089956
77.2739 0.183656
190.399 0.049552
60.0981 0.038898
186.302 0.097663
119.65 0.056146
196.172 0.081973
62.936 0.170766
240.997 0.066629
352.715 0.113749
256.696 0.113353
64.0233 0.024075
360.22 0.087455
67.7604 0.218802
101.862 0.092334
10.3917 0.337483
47.4659 0.050784
95.8261 0.078997
372.302 0.054592
118.43 0.053046
74.6408 0.030648
150.353 0.146454
34.4892 0.0592
25.6773 0.093999
163.175 0.113147
26.9212 0.039706
16.6515 0.32068
22.2338 0.141895
153.797 0.061645
106.89 0.074215
124.301 0.127975
91.0147 0.019486
42.5769 0.096071
93.3982 0.123456
229.531 0.094286
85.6716 0.031426
120.005 0.128494
42.5641 0.132075
108.095 0.159616
108.368 0.081964
35.3414 0.037161
93.0744 0.109105
41.5375 0.062771
20.8819 0
29.1042 0.017461
16.7364 0.052875
51.6983 0.03361
76.42 0.231569
31.2531 0.129782
56.081 0.18187
79.9445 0.106667
122.684 0.067564
14.7128 0.010417
239.254 0.086482
68.4165 0.065165
93.2924 0.122306
47.8305 0.138429
129.157 0.110266
87.0696 0.106662
128.441 0.067924
145.087 0.058301
94.8076 0.051919
51.8221 0.082108
49.9852 0.173066
56.7166 0.097737
35.8859 0.076241
83.7523 0.087478
160.368 0.056812
427.637 0.062719
52.9571 0.233726
57.5784 0.205544
54.8567 0.113133
41.5945 0.330996
10.5093 0.123606
18.2089 0.023657
44.724 0.231401
29.7377 0.035912
21.6962 0.06369
25.2804 0.146105
41.5422 0.067358
