21.0072 0.308526 196 4358.96 0.5 0.666667
55.1803 0.040174
22.129 0.031225
15.5821 0
64.1916 0.256935
38.5587 0.02438
69.5527 0.174257
21.5864 0
51.9804 0.15405
26.6198 0.079273
87.4212 0.129406
113.828 0.184715
101.431 0.057206
23.1078 0.13648
57.5083 0.039723
57.7404 0.181328
34.8123 0.013243
47.6007 0.032185
29.4811 0.077626
157.796 0.055312
81.8237 0.030388
14.8289 0.046002
75.6628 0.112122
14.8589 0.104733
21.8411 0.159632
70.1247 0.105204
45.5953 0.022603
59.577 0.038485
57.1786 0.096997
31.155 0.16915
120.318 0.065803
25.6306 0.013631
29.7934 0
155.109 0.078725
48.676 0.092452
115.924 0.08104
16.1826 0.18047
29.021 0.082615
27.9135 0.049671
16.1902 0.027578
56.2041 0.112897
65.6689 0.044573
52.4552 0.080191
22.8726 0.036934
52.0412 0.013568
30.1698 0.029241
86.812 0.076499
13.3132 0.283614
59.4729 0.072281
101.128 0.171011
39.4769 0.054575
9.64592 0.270903
36.863 0.167964
96.5456 0.028837
53.048 0.072025
114.995 0.077364
50.2887 0.0115
103.78 0.098523
118.6 0.196989
35.6204 0.071698
60.9128 0.082313
66.6478 0.114172
56.0837 0.006829
37.8995 0.065368
86.2 0.298625
18.8114 0.042126
105.02 0.049479
12.1933 0.057807
163.599 0.067507
35.3042 0.094455
71.6085 0.144687
59.4823 0.051488
20.8951 0
51.0765 0.194467
36.4551 0.10192
13.623 0
23.2632 0.138299
56.8665 0.248105
16.2658 0.204712
13.2263 0.135834
