102.926 0.15059 196 10366.9 0.5 0.666667
123.581 0.086302
65.2577 0.026259
314.164 0.043393
37.5095 0.064238
40.4496 0.099998
273.595 0.107992
36.9013 0.045518
79.3041 0.027697
92.8377 0.146595
63.2098 0.188793
178.379 0.142056
159.074 0.085021
73.8907 0.033246
33.1023 0.113988
100.632 0.115554
79.8174 0.149339
250.594 0.06735
145.927 0.070557
80.1478 0.09456
188.721 0.076236
72.7866 0.057833
124.77 0.087506
186.109 0.187364
48.2581 0.109235
34.4466 0.121067
87.7298 0.051262
118.776 0.028002
70.3583 0.090497
58.321 0.101908
62.4038 0.07982
146.872 0.048612
312.721 0.075963
69.0712 0.023973
146.576 0.155286
50.4692 0.263836
60.6988 0.006737
84.0355 0.130561
20.9775 0.049134
96.832 0.03072
81.5528 0.053467
348.11 0.126326
29.9255 0.057133
164.915 0.14556
115.789 0.295301
32.484 0.132018
89.0901 0.155387
140.092 0.109764
276.696 0.105543
88.4139 0.054745
30.8227 0.107097
23.0143 0.07078
19.3329 0.001116
104.978 0.079666
104.036 0.024342
32.3374 0.059444
113.51 0.074229
55.9896 0.029283
61.4968 0.03681
49.3913 0.054433
50.8719 0.038763
48.5369 0.091638
173.151 0.112399
69.4711 0.14488
188.398 0.108486
59.5755 0.174809
200.718 0.059209
43.7851 0.309706
10.5601 0.40867
58.7623 0.285228
232.955 0.081914
43.1218 0.049399
27.0949 0.011002
20.5109 0.13884
13.9785 0.027453
31.4244 0.00705
150.509 0.112179
16.9029 0.013031
174.582 0.082507
232.853 0.086243
168.133 0.069159
241.72 0.115963
61.7699 0.224982
65.4405 0.056728
153.132 0.018457
97.0252 0.052193
26.0693 0.165036
23.5795 0.060784
54.1664 0.096018
64.855 0.12045
103.183 0.012726
107.912 0.035881
107.328 0.025025
189.521 0.065842
59.2262 0.153543
129.288 0.038811
41.5427 0.03956
29.0378 0.209235
31.825 0.016098
67.1171 0.118251
39.9731 0.09242
25.2152 0.210232
149.634 0.101843
48.7575 0.262607
12.8916 0.437782
50.5794 0.011719
16.6521 0.511972
19.3407 0.036618
