191.792 0.153045 236 7757.88 0.5 0.666667
250.491 0.094822
274.088 0.031696
114.416 0.021931
370.129 0.09209
63.5734 0.019263
63.0179 0.080894
144.809 0.082905
26.0714 0.275314
109.949 0.063507
337.909 0.127062
333.474 0.046763
136.947 0.01049
182.28 0.096809
188.439 0.211686
85.4242 0.12798
50.7543 0.03751
86.9044 0.113582
62.9321 0.097374
311.46 0.060362
112.535 0.070903
30.6311 0.048506
169.384 0.196851
124.705 0.077987
87.1967 0.100114
69.7925 0.049087
185.111 0.211171
32.0262 0.182973
43.2781 0.256581
76.7225 0.250929
64.5724 0.03529
245.781 0.110539
162.549 0.107022
144.974 0.098577
59.185 0.031861
73.031 0.020984
26.8191 0.007833
75.1891 0.030379
54.2757 0.058723
143.427 0.065964
94.7355 0.197277
258.512 0.077603
12.0263 0.014463
99.9388 0.127859
11.1515 0.211534
39.9579 0.012754
142.371 0.141387
193.949 0.112675
136.723 0.177721
121.181 0.025342
164.951 0.106179
141.021 0.012785
86.8192 0.027943
47.6509 0.045568
106.296 0.111394
100.063 0.173056
75.8349 0.051761
215.216 0.084919
162.937 0.103388
117.202 0.124394
63.2953 0.128211
