241.089 0.206791 256 6708.77 0.5 0.666667
268.096 0.026247
99.2703 0.020141
325.296 0.093437
147.29 0.072669
59.564 0.061171
133.902 0.073107
282.492 0.140771
311.973 0.035423
135.848 0.020522
178.795 0.092873
48.8681 0.033767
72.564 0.154111
110.751 0.093804
79.8673 0.143538
286.567 0.108599
95.3879 0.084053
93.4232 0.323591
120.771 0.071128
72.2719 0.128403
57.385 0.095766
58.4603 0.031377
201.057 0.157105
139.159 0.12785
131.364 0.166348
127.373 0.086439
160.799 0.135032
149.691 0.061031
15.8217 0.258205
38.2066 0.349795
89.1176 0.047069
56.5297 0.108945
126.407 0.046766
65.128 0.131572
207.489 0.076944
48.2507 0.018857
239.938 0.078594
105.999 0.121935
101.278 0.230048
111.237 0.044977
131.148 0.147066
139.05 0.014359
339.472 0.115073
74.3999 0.021561
103.082 0.104006
83.3825 0.111755
77.6315 0.05987
133.649 0.148359
71.1178 0.209954
56.8466 0.118304
11.4908 0.025839
17.7308 0.365405
21.8104 0.187191
31.2734 0.217352
21.9128 0.436737
