68.102 0.085032 96 33372.4 0.5 0.666667
96.7676 0.105226
10.3842 0.051484
38.8484 0.202579
16.7086 0.035884
93.4739 0.083394
114.057 0.03199
43.8361 0.174365
34.4477 0.094492
94.4811 0.132493
116.926 0.103292
39.8561 0.07626
29.5812 0.021405
116.989 0.042402
97.5209 0.034606
25.5318 0
32.3468 0.105183
47.9397 0.09483
12.8638 0.317354
58.6544 0.083415
21.6822 0
113.079 0.024225
37.0461 0
56.9313 0.058576
66.2885 0.072638
54.1515 0.133614
41.357 0.066191
122.886 0.207536
22.1758 0
75.6799 0.159158
12.0532 0.308944
79.3329 0.128314
62.3441 0.017484
9.73898 0.839936
21.5405 0.088953
188.558 0.050801
55.6852 0.065522
78.4773 0.081277
156.682 0.049959
41.2807 0.05164
82.716 0.053741
226.772 0.100967
21.9226 0
50.6849 0.232021
38.073 0.047702
221.489 0.1016
42.0435 0.16964
47.4901 0.154951
51.7752 0.106679
24.478 0.132666
27.5867 0
16.6787 0.899538
59.3624 0.122609
22.5622 0.778114
26.4518 0.011994
69.236 0.157043
31.4288 0.104098
19.9594 0.021553
19.9296 0.03428
15.7511 0.310129
21.6751 0.292236
51.2976 0.211974
23.0507 0
43.9568 0.094948
74.2325 0.076598
178.968 0.060831
81.9998 0.138709
42.0144 0.142033
56.7124 0.131725
59.8607 0.178827
24.7179 0.944635
105.273 0.030838
29.83 0.081639
51.3549 0.205301
57.7652 0.089597
13.7507 0.054361
77.7734 0.18278
64.5737 0.196943
72.8545 0.056319
65.0852 0.055971
100.314 0.1168
97.0804 0.097045
21.1326 0
25.5547 0.029295
39.0644 0.049637
22.8457 0.136931
43.4448 0.183471
211.914 0.094171
45.0285 0.04387
123.477 0.07654
49.3565 0.169626
104.793 0.075851
40.0115 0.015038
24.8431 0.032639
30.8785 0.007767
35.2264 0.00426
84.648 0.0768
30.4578 0
31.5332 0
88.5389 0.109869
29.7562 0
22.2995 0
22.9772 0
61.6625 0.247013
17.1067 0.044589
36.8576 0.086022
147.033 0.136336
44.6705 0.043288
71.2414 0.0684
15.1689 0.034997
41.8613 0.051475
51.5309 0.016886
44.5132 0.034678
82.1693 0.158351
92.5123 0.04159
20.6841 0
58.1203 0.053024
29.382 0.017133
17.476 0.579118
43.7447 0.046037
33.7221 0.107751
19.8319 0.674657
55.0091 0.295649
79.9485 0.048172
13.1869 0
26.1886 0
117.537 0.065377
11.7999 0.092481
50.632 0.128581
33.4821 0
56.939 0.054795
39.2772 0.134822
20.2251 0.021097
21.7597 0.060167
17.9088 0.027016
22.8154 0.203697
54.1983 0.248384
21.9403 0
25.9893 0.032975
90.5218 0.077885
53.154 0.199309
53.8268 0.324855
33.4604 0
38.1553 0
46.1414 0.073923
104.898 0.082242
96.2465 0.060062
28.7218 0.147463
81.978 0.193751
107.958 0.034522
27.0387 0.033744
19.8737 0.034205
19.0688 0.055233
44.1047 0.08005
93.0105 0.182535
55.5144 0.048943
119.676 0.20026
14.2253 0.865221
46.6235 0.065931
13.2065 0.059587
56.7325 0
41.8616 0.015453
57.1951 0.034667
37.715 0.133654
68.6198 0.104582
18.3341 0
17.817 0.679106
26.1695 0.414725
65.9885 0.128705
15.5082 0.067319
27.3032 0.071323
156.906 0.192698
91.9206 0.194504
20.4907 0
69.3054 0.024428
34.1962 0
113.562 0.137657
14.6844 0
34.7197 0.067517
16.3865 0.082253
126.742 0.146633
105.367 0.235319
54.7305 0.024952
22.3237 0.82166
39.915 0.117826
64.7712 0.136427
46.0464 0.102546
83.2837 0.164014
45.6966 0.057538
28.1132 0
110.164 0.059677
62.7058 0.084958
35.94 0.091293
32.975 0.047105
166.983 0.222901
29.9233 0.006656
102.664 0.084543
100.791 0.253138
100.088 0.052619
19.6391 0.068598
33.7173 0.080829
94.3175 0.185325
91.6898 0.26155
44.4378 0.076097
38.3163 0.064891
17.1405 0
17.9494 0
61.7844 0.195232
19.102 0
27.9251 0.022712
16.6909 0
38.4438 0
43.0808 0.154171
62.2608 0.036811
17.1939 0
32.1378 0
17.5504 0
17.5743 0
33.2532 0.123865
40.7388 0.090276
93.0171 0.240364
48.3768 0.115501
43.0336 0
174.011 0.048608
73.9051 0.068041
51.6956 0.146865
35.0905 0.045171
33.9211 0.104621
130.363 0.097679
54.8484 0.154979
78.1162 0.116672
45.4387 0.87348
22.5611 0
21.3728 0
38.5091 0.040347
17.0226 0
56.3174 0.018117
36.676 0
50.2065 0.182904
55.4416 0.075051
12.5981 0.582364
13.8425 0.04605
65.2169 0.09192
15.2981 0.065967
141.917 0.038167
47.6192 0.115029
50.2922 0.202852
33.1556 0
58.9545 0.090808
32.2461 0.118001
74.9503 0.197728
88.5534 0.176085
40.3946 0.032882
13.5257 0
49.0134 0.163657
23.8457 0.161622
65.679 0.100467
86.7111 0.09976
84.669 0.039439
30.3284 0.020825
55.2963 0.116543
36.6046 0.108455
108.049 0.086251
40.895 0.470199
97.2449 0.065625
21.1687 0.018816
13.0953 0
168.38 0.068192
24.4276 0.021688
32.0271 0.165338
17.4812 0.034459
41.8807 0
29.8849 0.098978
54.6925 0.104843
19.9056 0.085
19.2865 0.289869
55.7924 0.178401
19.2736 0
107.689 0.05892
66.616 0.047538
18.9395 0.039807
151.617 0.132647
93.5889 0.093604
58.4356 0.150135
80.669 0.336462
93.9151 0.1639
82.6788 0.227944
88.2796 0.116491
44.7787 0.06721
45.3531 0
11.9824 0
19.0372 0
42.6781 0.082849
20.1894 0.070422
46.424 0.024748
42.5861 0.234553
52.502 0.187825
44.6825 0.036427
43.3846 0.018433
22.5789 0.327085
41.4247 0.166872
18.3116 0.009877
100.795 0.061966
11.9088 0.433062
59.1846 0.066761
58.8613 0.207911
55.7419 0.246056
55.8936 0.166903
126.917 0.189057
33.118 0
23.4483 0
9.64539 0
11.0249 0
30.7844 0.137902
24.2026 0.041512
51.7963 0.096844
114.58 0.161414
92.6224 0.186127
20.3113 0
134.565 0.101203
20.0656 0.14446
34.2104 0.114566
39.1283 0.155953
37.9364 0.075248
34.8349 0
12.9639 0
27.5299 0
12.3271 0.200531
66.0329 0.134375
95.7518 0.035299
14.1023 0.074617
27.9109 0
94.8705 0.020905
17.367 0
120.549 0.065769
42.9227 0.067165
39.04 0.054125
111.042 0.09129
48.6343 0.20462
40.2706 0.209271
102.177 0.054047
41.476 0.742127
19.1992 0.084075
40.8146 0.080859
29.5391 0.071028
20.1878 0.121616
15.8394 0.842262
91.0398 0.214983
33.3005 0.272905
66.5581 0.117589
19.6978 0.028502
45.2873 0.096337
17.0216 0
14.4228 0
38.1548 0.087177
34.474 0.067691
99.5641 0.133862
49.7352 0.056056
60.2646 0.059027
43.9397 0.035849
21.9613 0.029514
45.9927 0.342848
89.7127 0.100736
18.9752 0.82052
37.5481 0.240032
17.4615 0.020282
33.0603 0.289691
22.7343 0.013964
19.2684 0.037307
34.288 0.027264
122.508 0.092652
78.7784 0.109698
114.887 0.163291
36.4929 0.206512
20.5324 0.106643
60.5014 0.05098
13.7627 0
109.235 0.091222
15.019 0
54.5583 0.122086
109.215 0.08131
47.297 0.100016
39.2669 0.042019
40.1135 0.132864
40.5586 0
76.0603 0.135844
19.416 0.88613
37.7544 0.083999
33.6269 0
66.4835 0.069121
37.5629 0
11.6679 0.848767
11.2663 0.839371
42.709 0
59.8833 0.039118
14.2073 0
27.3807 0
33.9169 0.041262
15.5552 0.062193
50.0511 0.016528
100.55 0.097661
49.9095 0.10486
34.317 0.064984
10.5292 0
31.3554 0.157106
76.5317 0.30682
21.9203 0.401863
23.0029 0.097591
40.1133 0.06506
32.5029 0.032364
23.8944 0.95954
21.8271 0.004112
48.4684 0.042319
14.5031 0.732094
35.447 0.085856
127.051 0.122965
18.1713 0
18.453 0
48.2021 0.037931
13.4974 0
49.6849 0.102311
38.7313 0.028501
79.1991 0.183962
56.9369 0.027675
86.3092 0.135106
17.8666 0
47.4712 0.043587
24.5476 0.10411
73.1741 0.1575
37.0976 0.053694
22.4132 0.04093
38.1276 0
28.5299 0.126869
12.5304 0.161459
41.1189 0.075984
56.3551 0.019113
72.0301 0.05594
40.1512 0.064319
14.5406 0
28.0856 0.029894
43.3323 0.0221
71.8494 0.10611
26.4195 0.072335
63.965 0.079222
38.4962 0.056209
8.78259 0
42.6098 0.085784
16.1496 0.071334
14.8412 0.01873
22.583 0.117661
26.3286 0.147398
55.0808 0.256044
14.1107 0.971946
18.9601 0
45.372 0.028879
19.1562 0.089845
142.915 0.239185
22.3509 0
19.2092 0.042274
20.9672 0.065751
31.0063 0.072472
166.71 0.055688
113.661 0.104029
14.9055 0.887916
131.819 0.11358
14.516 0
65.7353 0.020753
60.5683 0.198319
14.3711 0
174.651 0.06654
29.7948 0.984684
10.8213 0.501037
23.96 0
17.0419 0
91.6852 0.065456
42.126 0.149209
14.478 0
50.4524 0.045701
72.0497 0.039685
13.4181 0
118.339 0.022552
28.8764 0.127196
114.629 0.190497
102.45 0.067232
192.538 0.106686
40.4216 0
182.073 0.114886
34.9504 0
57.4514 0.12203
11.7362 0.792725
69.6767 0.02598
52.1239 0.057242
223.145 0.13089
71.0802 0.054508
28.5997 0.09314
47.1489 0.176883
19.124 0.020948
49.214 0
27.1574 0.416149
57.7663 0.109909
75.9662 0.029642
76.3432 0.054686
17.437 0.311779
28.6527 0.108646
26.184 0.050805
40.9292 0.012769
42.5404 0.191032
11.8799 0
27.2264 0.864763
46.9872 0.068289
81.4703 0.06143
10.3478 0
66.481 0.055243
34.1873 0.11526
72.0653 0.018738
69.2317 0.036596
38.2459 0.449701
27.2398 0.04609
96.9291 0.142911
40.3546 0.048062
49.2293 0.082626
30.4526 0.113596
25.9615 0
46.52 0
36.9847 0.120633
58.0715 0.013037
18.6037 0.948316
11.2782 0
61.1054 0.309211
39.053 0.173086
18.9053 0.108271
21.5768 0.043959
30.3385 0.042743
128.197 0.101779
33.5091 0.026135
23.6736 0.024959
115.818 0.087216
46.9298 0.048431
27.1218 0.075602
42.026 0.040591
114.217 0.09727
105.944 0.102958
14.9637 0.634972
171.906 0.098481
81.2731 0.038691
11.65 0
14.5445 0.096895
33.5044 0
47.8072 0.114991
32.4535 0
86.8311 0.13923
126.876 0.071276
48.5735 0.030094
21.1129 0.152077
51.2591 0.051924
49.3221 0.212818
93.4437 0.228436
111.118 0.220578
77.2877 0.046162
16.2758 0.094879
8.70744 0.012999
82.2166 0.033409
29.2573 0.019749
16.1628 0.63729
43.5862 0
18.9769 0
108.152 0.118878
61.0467 0.099509
32.5974 0.020496
77.2521 0.251069
13.6073 0.097449
60.2611 0.084717
47.7996 0.02041
40.4392 0.09855
49.1438 0.063427
48.2027 0.093604
42.56 0.053708
19.3654 0.095083
45.1195 0.212935
32.1887 0
47.7529 0.262631
25.2723 0.772743
12.5771 0.169772
23.823 0
21.3381 0.089729
21.4458 0.032451
32.3173 0.126449
22.4803 0
81.6707 0.071751
34.8502 0.015359
20.2458 0.977401
66.0986 0.106866
20.7841 0
69.4082 0.032114
11.9017 0.138556
31.8808 0.117699
68.5715 0.068646
36.6797 0.085262
35.5022 0.190963
25.8359 0.048496
35.0316 0.057987
54.0519 0
23.9231 0.214116
13.1866 0
27.0345 0.195933
78.9656 0.151745
29.5015 0
42.3209 0.137765
55.1588 0.007934
122.203 0.174705
24.7887 0.093734
20.3763 0.683338
21.5699 0.176375
32.7346 0.086668
54.5494 0.174326
29.405 0.096178
39.9708 0.041081
31.7839 0.131557
16.0071 0.929983
65.8608 0.088462
14.4618 0.371609
17.3464 0.742022
19.7747 0
12.9012 0.028658
21.7952 0.444369
38.2998 0.118333
22.4322 0.033773
9.50858 0.175547
44.8507 0.114272
45.7256 0.177805
13.7473 0.723443
44.2599 0
14.4295 0.14061
19.2239 0.727575
20.1948 0
17.8134 0
15.3583 0.899602
28.7672 0
13.9347 0
15.2022 0
11.039 0.893301
37.7811 0
10.9407 0
17.8001 0
71.3207 0.13741
13.0273 0
18.2998 0
24.6326 0
16.1405 0
18.6433 0
14.7011 0.116381
27.1821 0.026418
12.7573 0.71544
20.4994 0
30.8041 0.144451
11.3413 0.0932
17.1052 0
37.9303 0.148725
33.5388 0.226977
24.0005 0.185835
12.3721 0.173062
12.4754 0
15.7932 0.196483
16.6974 0.690023
25.3365 0.434493
20.0103 0
51.6605 0.572265
31.908 0
21.4704 0.091355
18.9071 0
43.3754 0
24.9875 0.131407
23.0937 0
18.2683 0.358486
15.5519 0.178038
17.8036 0.835449
20.2825 0.885105
12.8548 0
20.3299 0
30.3703 0
26.1607 0
18.6132 0
15.6368 0
15.4647 0
20.2008 0.009293
26.2591 0
17.7052 0.96375
13.4732 0
26.6235 0.272431
15.5894 0
25.9349 0.19918
17.0185 0
22.2503 0.392872
18.114 0.200144
24.1424 0.483836
13.2545 0.552625
16.4362 0.099403
24.5657 0.090292
