1993.13 0.159505 216 8661.15 0.5 0.5
243.39 0.154262
383.809 0.151849
150.273 0.189186
168.204 0.167024
119.52 0.096117
198.856 0.129235
865.193 0.173468
477.411 0.138627
233.149 0.133449
316.897 0.154174
425.388 0.209823
222.916 0.164218
175.513 0.045366
32.0256 0.196374
140.796 0.17516
193.373 0.123767
73.0979 0.123265
177.623 0.321325
500.038 0.094518
160.107 0.24241
149.999 0.067694
94.1587 0.220334
66.0917 0.043131
101.417 0.208298
48.3987 0.225305
44.1024 0.051016
439.197 0.208961
173.523 0.175157
122.831 0.170165
42.998 0.055264
43.5693 0.050105
38.318 0.108967
45.8298 0.319425
