57.0295 0.153207 136 15505 0.5 0.5
224.65 0.060313
205.642 0.114728
64.6719 0.110946
79.2637 0.039252
89.6926 0.078843
245.797 0.176306
161.58 0.183244
42.2662 0.045219
122.073 0.205398
82.2481 0.207305
54.0447 0.04224
174.876 0.151172
103.498 0.131646
24.5752 0.116737
41.6554 0.169901
148.161 0.215831
1156.17 0.087131
70.5491 0.148421
130.702 0.147383
238.036 0.10463
54.7319 0.198642
66.0537 0.151631
317.343 0.115109
89.2461 0.252812
105.983 0.122349
29.6393 0.029531
60.2123 0.218467
30.7031 0.097354
100.998 0.105932
34.8233 0.016989
78.0389 0.009846
209.767 0.145548
20.1196 0.150398
41.4607 0.206242
116.361 0.094255
215.705 0.130575
225.295 0.084411
19.5664 0.264143
79.5141 0.062921
47.7077 0.210257
46.1352 0.15398
17.5584 0.13344
509.142 0.146138
126.542 0.153848
131.197 0.195655
33.8712 0.221654
18.0462 0.128787
140.227 0.154003
221.847 0.093286
48.6751 0.06596
111.765 0.111921
42.3751 0.113383
50.1951 0.102691
119.436 0.134494
170.953 0.105337
17.6724 0.04481
38.0772 0.239204
101.581 0.09906
28.6473 0.076738
49.6726 0.071027
40.0373 0.226056
55.2296 0.073851
217.652 0.162245
39.4372 0.042392
35.552 0.044583
14.3752 0.548928
77.446 0.197944
72.7603 0.147474
126.118 0.045826
103.13 0.108873
227.854 0.103984
135.135 0.06187
44.4579 0.02991
9.57197 0.269115
29.6728 0.167966
75.587 0.021256
27.8638 0.365064
186.278 0.095964
41.6015 0.178864
116.377 0.160179
230.493 0.118663
167.992 0.067157
72.8889 0.082971
54.2747 0.241819
135.476 0.171895
10.3429 0.164541
148.95 0.125325
122.115 0.0575
11.3246 0.011806
51.7183 0.043451
22.4739 0.246344
262.379 0.153072
67.2836 0.078668
29.9413 0.034705
91.3402 0.264468
361.809 0.12103
48.9348 0.267561
66.3613 0.089306
23.5115 0.064797
76.8845 0.091417
65.2713 0.033769
33.8998 0.043641
225.563 0.076599
65.6362 0.124848
89.9443 0.282343
24.0164 0.236005
105.464 0.102647
20.7539 0.122336
104.512 0.026352
103.601 0.290978
36.1054 0.153547
238.676 0.133562
46.5768 0.106749
59.3216 0.140823
39.1779 0
86.3296 0.088808
19.0548 0.298552
37.8398 0.023847
44.9532 0.013919
45.8886 0.167562
93.6907 0.265953
39.162 0.121264
150.648 0.092543
28.3675 0.141277
195.304 0.118957
78.1648 0.170288
72.7677 0.146397
258.835 0.158251
99.9006 0.110585
196.307 0.123846
55.2465 0.174567
70.3857 0.215724
162.885 0.187075
211.291 0.168929
18.0483 0.287228
46.8453 0.06887
103.47 0.188566
46.0134 0.252893
88.3271 0.079199
55.8805 0.168284
21.6486 0.122343
178.163 0.226559
22.7205 0.273873
29.0677 0.044995
35.9401 0.039278
35.3956 0.026531
65.7122 0.03989
35.605 0.301891
24.4635 0.128175
22.6475 0.020647
38.6561 0.421142
23.3857 0.063268
26.301 0.172163
16.1779 0.167745
64.5954 0.153583
26.6391 0.28371
21.0719 0.116823
16.0258 0.277613
19.9856 0.195891
