78.1234 0.148309 156 12690.9 0.5 0.5
287.474 0.068338
43.2378 0.112308
312.891 0.14706
73.2904 0.010142
389.403 0.142835
14.741 0.033548
100.412 0.186165
42.1243 0.356484
52.26 0.036464
138.882 0.176075
75.8477 0.103234
20.1663 0.259001
799.35 0.108643
105.621 0.198908
58.0585 0.239137
115.356 0.144274
73.2041 0.119549
217.848 0.034481
60.4551 0.058573
205.992 0.150711
54.6926 0.099175
536.978 0.157095
49.2993 0.18719
173.732 0.1287
83.9091 0.135293
38.0896 0.346365
77.3173 0.007491
23.1858 0.212029
27.8885 0.26232
110.059 0.146261
33.6409 0.418161
127.799 0.210939
32.6683 0.295362
74.4522 0.048097
108.886 0.08346
102.855 0.139631
34.2016 0.01998
47.1492 0.093385
68.1135 0.259166
71.0758 0.084055
158.202 0.080272
128.734 0.197659
93.3788 0.105739
67.5561 0.177182
195.046 0.1307
109.809 0.179157
173.687 0.127004
14.894 0.111592
169.345 0.127662
465.413 0.117479
116.306 0.048582
49.6509 0.108373
183.384 0.099062
177.722 0.080754
76.0692 0.026338
180.73 0.098257
187.428 0.12009
151.183 0.072612
29.0519 0.056861
21.6971 0.392217
105.598 0.209016
104.531 0.121777
46.8985 0.049255
238.591 0.148465
35.9933 0.027772
10.7528 0.184793
79.3757 0.143829
46.7653 0.325749
98.1945 0.084492
16.9039 0.392986
430.663 0.14237
59.9734 0.086929
41.9883 0.18659
76.499 0.094153
161.484 0.177207
11.4137 0.019147
214.095 0.102804
73.2212 0.065157
67.4752 0.259118
92.0228 0.15763
17.4069 0.021744
103.434 0.024703
95.8337 0.145723
37.6443 0.066298
155.839 0.104027
62.5912 0.161852
40.5384 0.126337
15.3592 0.054411
211.234 0.047674
363.738 0.19964
12.5745 0.016896
177.89 0.114378
17.802 0.077163
178.993 0.105323
43.9253 0.255242
123.776 0.276272
58.6562 0.24133
37.9125 0.236792
187.683 0.096699
67.6032 0.308255
9.70285 0.262095
70.622 0.136621
168.942 0.179624
45.7262 0.042028
47.5687 0.273744
10.339 0.056046
11.0058 0.146791
48.021 0.041366
13.9093 0.172397
27.2673 0.270314
13.7783 0.263041
34.7038 0.039662
24.7869 0.37404
9.34716 0.117899
32.0287 0.436722
44.4419 0.088051
11.0896 0.365155
76.6332 0.233606
20.6077 0.057025
41.9961 0.278107
15.4989 0.011869
