100.403 0.095136 176 11917.6 0.5 0.666667
21.4634 0
84.7635 0.017138
153.124 0.107124
204.867 0.115562
67.3104 0.322362
123.715 0.053698
107.315 0.098618
141.925 0.05493
31.155 0.197964
43.9096 0.082947
43.7037 0.09207
54.1238 0.04295
20.3482 0.024943
158.639 0.038229
243.267 0.073159
72.0373 0.098773
229.408 0.057543
46.4129 0.144865
171.459 0.050502
89.4645 0.052536
36.4661 0.026458
50.8763 0.15168
56.4681 0.090536
218.43 0.132281
52.4783 0.075081
58.3566 0.246838
79.4829 0.047824
69.2673 0.141953
112.629 0.181917
68.2214 0.087281
24.7193 0.04068
228.526 0.100079
122.994 0.075463
78.3485 0.282135
93.2655 0.17509
15.9288 0.043799
40.1411 0.008034
34.2701 0.040295
39.1802 0.078921
23.7386 0.015042
241.788 0.058491
56.3974 0.037874
225.593 0.009276
13.4051 0.045017
134.29 0.017915
23.0229 0.035381
30.2238 0.118436
28.6883 0.051548
41.2382 0.061209
43.108 0.039545
115.31 0.069752
82.5671 0.125687
64.3449 0.013482
41.9123 0.056676
43.583 0.045165
63.1355 0.018397
70.3524 0.18158
15.7849 0.049084
176.193 0.062036
48.2288 0.084993
97.1003 0.077604
74.2431 0.150518
68.8452 0.030779
79.6911 0.356578
115.073 0.093429
41.4471 0.158273
29.8876 0.017466
27.4451 0.024133
100.502 0.022095
58.3637 0.150182
103.868 0.024028
102.432 0.141076
59.3156 0.070772
60.0618 0.093269
13.5843 0.157773
53.8667 0.069994
63.0269 0.170739
57.2771 0.018075
120.199 0.164387
19.4421 0.192167
15.2619 0.078358
79.5622 0.139754
126.457 0.131678
119.342 0.118264
53.8217 0.200193
74.3345 0.019162
92.1684 0.098398
39.5744 0.205957
58.8684 0.102755
8.50123 0.00786
48.0946 0.0889
144.431 0.093558
93.0265 0.117091
146.661 0.143299
31.5608 0.227203
19.56 0.027957
175.443 0.052155
29.4903 0.047424
179.77 0.183504
242.161 0.092179
86.9472 0.107544
30.704 0.154914
49.0263 0.011624
69.8999 0.032804
55.5015 0.08719
132.042 0.155869
62.0118 0.033143
53.0831 0.202826
232.411 0.139889
140.36 0.112543
64.8627 0.039032
28.5604 0.031773
20.896 0.05313
166.307 0.062961
18.0689 0.064033
68.1628 0.012073
14.4918 0.398944
22.8822 0.122253
33.7542 0.08254
102.159 0.054148
31.4864 0.029316
39.3708 0.137581
161.93 0.123541
21.5114 0.12601
44.7757 0.025251
37.0348 0.015097
131.265 0.110241
21.4704 0.00845
26.0222 0.231224
55.4052 0.031645
35.3365 0.189082
72.8644 0.160501
45.3571 0.030054
33.3779 0.145447
51.3413 0.14767
29.7558 0.02613
26.1747 0.045975
24.4389 0.035857
14.7909 0
115.547 0.029576
22.6504 0.027197
14.6108 0.046992
111.506 0.10711
124.479 0.037849
299.306 0.048487
15.9084 0.014972
67.4103 0.028454
19.7278 0.109755
42.1945 0.106334
13.2786 0.023326
12.5487 0.204057
81.1262 0.08568
30.8341 0.115478
50.3683 0.226989
14.0939 0.045515
31.4007 0.228278
11.8602 0.079157
17.965 0.010301
19.4614 0.028254
37.1667 0.057163
12.8032 0.010945
