94.7166 0.094727 196 10100.1 0.5 0.666667
22.6121 0.023726
216.608 0.074109
173.33 0.128564
135.518 0.117424
15.1113 0.470144
113.241 0.071124
123.155 0.065528
26.7251 0.063582
29.7924 0.139363
34.8995 0.015155
261.894 0.128473
138.621 0.074011
56.5015 0.141972
196.698 0.047493
37.8321 0.020407
149.3 0.052013
80.9012 0.038667
75.5258 0.160206
18.8309 0.036072
330.608 0.062713
164.109 0.137303
56.6398 0.053263
71.814 0.087423
137.586 0.08617
64.4332 0.276518
337.58 0.080868
57.1407 0.030088
100.036 0.024892
168.354 0.061293
42.7613 0.064365
30.8195 0.031807
224.3 0.067464
19.428 0.045311
207.71 0.008653
112.071 0.17222
145.951 0.01988
25.1977 0.163689
21.4052 0.161962
15.2446 0.124596
47.2373 0.028163
69.9162 0.305332
45.1321 0.021308
37.1409 0.106789
40.6407 0.033542
61.2444 0.007101
43.644 0.090475
13.3766 0.019195
181.949 0.076681
42.003 0.082525
222.839 0.08295
68.0068 0.221887
90.0465 0.079351
57.424 0.182789
199.127 0.16839
33.2671 0.00337
146.512 0.110105
57.9556 0.117684
144.13 0.067992
115.533 0.131664
9.16298 0.424454
18.9477 0.311667
77.865 0.07117
169.497 0.118124
135.276 0.190421
71.194 0.120809
63.0883 0.007585
95.7913 0.116912
67.5459 0.026339
78.0808 0.145409
30.5113 0.098163
45.7989 0.061243
60.1164 0.236027
56.4779 0.260225
134.269 0.057635
27.1353 0.082057
127.152 0.06313
18.1679 0.043728
188.665 0.109685
44.9187 0.026082
33.7958 0.136447
71.4853 0.158047
139.978 0.029193
127.616 0.148152
229.385 0.157641
103.658 0.039602
57.4675 0.047732
30.2351 0.028873
130.237 0.178306
59.6998 0.03276
34.8196 0.08321
22.7923 0.202772
40.6958 0.075014
129.919 0.14112
22.7866 0.108658
34.6794 0.037156
26.8658 0.028168
40.6689 0.054241
107.739 0.130062
33.6906 0.087093
64.6598 0.192129
15.0182 0.020609
133.116 0.113738
47.4749 0.228765
32.5558 0.073458
9.54503 0.109713
28.6216 0.060198
12.8223 0.251824
102.954 0.031535
72.9023 0.106069
115.304 0.056151
72.0141 0.015019
34.8219 0.061739
23.1463 0.071772
37.0669 0.252968
23.8776 0.239063
36.4262 0.026147
22.2875 0.039134
46.4546 0.062705
16.6971 0.076988
41.3465 0.124601
22.9767 0.288951
37.9757 0.321603
