217.858 0.162672 176 9065.69 0.5 0.5
152.503 0.113407
110.851 0.159623
63.5109 0.076075
217.902 0.101647
379.22 0.203956
66.0151 0.172194
125.775 0.10535
306.747 0.060445
91.934 0.142403
111.977 0.118708
239.439 0.171644
277.556 0.132205
88.7393 0.13161
127.673 0.135681
188.815 0.055981
124.265 0.088432
198.363 0.038025
34.4204 0.008502
439.167 0.1224
103.086 0.149145
38.526 0.230312
46.7474 0.152111
271.8 0.258304
93.23 0.155228
106.418 0.164405
199.946 0.114372
29.0574 0.031673
80.4247 0.175345
210.479 0.115861
46.2026 0.091205
138.688 0.140173
60.2412 0.186365
87.4379 0.286609
65.1302 0.1126
94.4202 0.243717
18.2496 0.155789
33.3914 0.058351
18.6109 0.371326
99.1124 0.126868
84.8867 0.199753
58.8892 0.040899
20.9926 0.225964
151.71 0.130308
65.0879 0.166679
257.654 0.198735
62.2394 0.125418
104.09 0.183831
33.3197 0.095721
112.591 0.134089
171.041 0.187097
136.663 0.041812
72.4071 0.067437
96.8307 0.023666
31.464 0.453479
30.1728 0.127598
54.7496 0.258399
38.037 0.010913
73.8536 0.237935
50.2792 0.018298
209.879 0.0783
67.6417 0.045813
116.315 0.114386
32.9284 0.015983
23.9193 0.056358
26.5155 0.010881
34.0509 0.140234
137.572 0.192351
169.557 0.057193
43.589 0.152136
59.5203 0.125019
44.0568 0.063718
12.7087 0.353249
162.984 0.048934
130.39 0.172353
49.8874 0.081747
95.4711 0.245528
43.6725 0.310061
44.8392 0.169667
67.4405 0.089275
106.72 0.058562
91.8996 0.193115
44.8629 0.266089
32.6121 0.15551
14.3687 0.08799
26.7739 0.266475
9.20914 0.034465
55.4145 0.075485
