40.7444 0.189766 116 11074.8 0.5 0.5
66.8345 0.253197
227.507 0.161069
72.0748 0.069598
120.274 0.054797
63.6196 0.165732
178.506 0.196285
123.311 0.233905
60.316 0.109467
44.5696 0.20077
105.379 0.135862
88.4597 0.073622
105.018 0.149671
35.3528 0.032426
12.3546 0.068716
45.9676 0.289115
46.7645 0.155768
34.0674 0
43.9895 0.084396
80.0002 0.034173
35.1943 0.039201
112.583 0.150398
52.1111 0.081789
15.6614 0.139066
114.472 0.236605
94.2898 0.130473
59.452 0.073766
53.8148 0.101109
21.7587 0.242474
95.2708 0.243543
151.585 0.061587
106.1 0.048919
16.1916 0.049306
22.5577 0.234486
40.1707 0.044496
47.4042 0.18049
83.1198 0.064595
68.4981 0.165272
34.9561 0.112224
93.8121 0.204026
62.7365 0.119324
91.8634 0.077106
23.8069 0.028526
13.3013 0.17105
47.2406 0.127287
56.8317 0.220479
51.6786 0.137372
42.5717 0.079266
34.6924 0.273234
38.4046 0.227185
26.9828 0
19.2946 0.045192
24.548 0.094786
23.1966 0.142605
46.9294 0.240155
55.111 0.089791
27.0069 0.065163
25.2108 0.132777
18.1554 0
20.8086 0.144467
52.2399 0.133421
27.7232 0.13117
61.2026 0.198626
45.5157 0.123941
13.0011 0.133607
8.68471 0.271659
13.9772 0.117685
30.6543 0.174613
81.7134 0.157543
41.2436 0.148693
37.7351 0.266648
78.2261 0.111544
88.8752 0.077835
36.5285 0.063423
13.2263 0.340234
37.0239 0.055859
21.9275 0.165465
82.4845 0.257063
16.8026 0.186966
20.8701 0.158608
64.643 0.0743
53.6753 0.103414
14.8927 0.342447
23.1914 0.453963
39.5112 0.182969
17.8376 0.023164
18.2308 0.197292
35.364 0.031307
132.862 0.115248
30.1185 0.048404
60.393 0.074702
12.9608 0.015002
20.4136 0.297985
134.75 0.188122
31.0337 0.116374
39.9371 0.081035
42.5426 0.138013
52.4493 0.048207
89.4275 0.181772
572.134 0.07039
18.8223 0.170767
82.3775 0.042487
10.2068 0.006023
39.2639 0.244195
56.0253 0.117005
46.0431 0.09634
23.2155 0.14128
51.0407 0.0294
26.447 0.038943
27.4511 0.202192
65.3973 0.082161
70.2215 0.293755
9.56729 0.131811
18.2727 0.124842
52.5349 0.215361
12.8271 0.025781
16.3566 0.09441
33.4278 0.045863
33.1178 0.057356
21.6402 0.040555
49.0949 0.125402
108.57 0.266346
25.7977 0.193644
42.6293 0.14098
12.5477 0.091166
37.9659 0.032444
24.8871 0.055937
14.0398 0.025799
31.2326 0.172733
136.213 0.145005
30.6454 0.116284
98.5932 0.147653
22.0279 0.24975
18.7784 0.139786
45.336 0.242028
21.8208 0.174365
37.2396 0.088677
18.9649 0.18496
12.1711 0.002318
11.7287 0.206277
25.9062 0.128035
54.1408 0.078732
29.4584 0.043495
21.5217 0.375442
18.7517 0.021582
73.94 0.120508
87.5973 0.062777
15.3416 0.175891
74.0176 0.132527
12.4748 0.064339
36.9139 0.126141
72.7088 0.106218
21.72 0.22067
14.6367 0.063283
22.6561 0.1353
9.80109 0.366807
25.6184 0
34.8332 0.062092
83.6301 0.138333
42.7706 0.357837
38.2952 0.1221
40.0813 0.109666
25.8473 0.078728
93.5607 0.091008
18.9017 0.147543
53.8982 0.136439
65.5688 0.089158
55.8584 0.038131
36.9416 0.058916
14.3633 0
43.8218 0.135956
18.7141 0.040984
33.5072 0.207456
43.4468 0.06949
27.1927 0
47.7059 0.266632
83.6429 0.040191
19.5832 0.220474
40.3135 0.316196
148.19 0.072443
78.8833 0.199189
31.5207 0.049951
39.3283 0.167324
38.7056 0.045589
63.8894 0.110631
64.7888 0.189514
12.7034 0.231547
142.898 0.119081
48.1077 0.061135
66.9882 0.317028
44.6084 0.150766
46.2761 0.079892
21.2822 0.0401
18.4747 0.167057
23.4771 0.148952
45.4939 0.088425
36.7407 0.10056
34.1754 0.210929
104.161 0.125391
17.5036 0.230028
35.4856 0.070759
53.5415 0.19811
33.9538 0.030612
12.8886 0.183069
13.6417 0
23.058 0.298924
14.4307 0.062017
12.5269 0.233369
39.7052 0.530933
19.1154 0.135826
12.8919 0.127193
20.8372 0.104436
14.3482 0.436631
33.4577 0.284153
25.947 0.201089
25.9895 0.131079
14.8814 0.234287
19.2652 0.078985
14.5245 0.199646
41.4301 0.043389
27.5043 0.093216
10.3913 0.279499
29.5111 0.075835
22.9412 0.056619
24.4797 0.792834
20.5944 0.321322
33.334 0.11457
28.5275 0.111708
27.149 0.396701
31.5584 0.080585
19.7995 0.195132
17.4284 0
27.4349 0.123949
43.8688 0.118242
32.519 0.488995
12.9427 0.099799
