162.009 0.152707 216 3972.81 0.5 0.5
118.188 0.050179
34.8616 0.098703
151.842 0.100112
11.1213 0.363987
195.189 0.122312
215.31 0.141703
52.7242 0.152605
111.265 0.173048
38.2029 0.351668
15.4662 0.140665
46.0131 0.006816
338.912 0.116372
133.153 0.161008
364.01 0.061077
48.4532 0.236234
30.6244 0.207163
23.1512 0.269628
35.2054 0.25415
167.477 0.05126
31.5138 0.033651
14.3292 0.049519
51.7875 0.093485
111.253 0.150762
108.393 0.13126
17.0263 0.035855
74.2981 0.076318
15.7162 0.016332
52.1298 0.057001
277.698 0.218527
65.8521 0.021656
14.1994 0
15.8447 0.014659
74.6965 0.05433
66.635 0.061537
117.936 0.156806
46.109 0.090523
181.836 0.087782
38.8325 0.226764
36.9697 0.063204
73.188 0.035926
42.2288 0.160117
59.48 0.330921
56.4684 0.082731
14.9212 0.013598
20.2916 0
