154.251 0.05128 256 2095.5 0.5 0.5
148.688 0.111065
66.2073 0.111564
82.4593 0.068325
32.1375 0.008395
178.347 0.110618
47.6265 0.010502
51.2255 0.2737
121.801 0.224939
235.297 0.025526
47.4832 0.088722
72.7276 0.03454
145.598 0.173505
43.1348 0.068902
67.5219 0.038361
49.8494 0.227659
223.259 0.20684
71.4457 0.059285
61.8861 0.121334
33.4639 0.517182
22.2839 0.191613
20.6912 0.649925
13.6733 0.117057
43.5924 0.269978
16.262 0.378029
44.584 0.312355
