64.5059 0.161082 236 5981.91 0.5 0.5
172.872 0.064248
78.7954 0.161822
291.546 0.180236
326.3 0.119101
228.039 0.195923
406.529 0.121848
98.9572 0.026764
187.066 0.190274
155.8 0.311505
121.762 0.056334
50.0338 0.021908
36.0232 0.062072
199.856 0.193161
303.339 0.098907
134.553 0.193388
98.1343 0.068028
82.9823 0.170036
20.9332 0.063278
104.66 0.125583
82.9964 0.25891
235.21 0.099922
22.5924 0.016967
49.532 0.131501
104.204 0.142667
34.3035 0.104786
173.797 0.137897
110.846 0.090481
12.3006 0.094025
128.888 0.132127
735.88 0.132714
127.67 0.269899
141.079 0.292532
27.6793 0.243721
45.3846 0.086606
34.7541 0.535219
66.5111 0.314226
62.1888 0.076896
25.7767 0.137588
307.563 0.178058
45.933 0.19296
21.0788 0.747137
23.1908 0.551746
60.2812 0.332037
20.8189 0.032815
60.6518 0.07841
39.0352 0.533735
19.0719 0.221856
