584.773 0.094691 136 22857.3 0.5 0.666667
373.635 0.064325
113.034 0.092204
39.4009 0.079367
277.791 0.083771
195.507 0.069909
151.186 0.144718
54.7828 0.054877
129.882 0.173871
41.6714 0.08755
50.7944 0.081091
279.755 0.134917
112.98 0.102737
103.965 0.120138
158.264 0.118734
90.6799 0.116407
108.925 0.087678
96.1377 0.11248
378.79 0.100268
32.8954 0.11166
49.139 0.098242
268.903 0.040118
76.8848 0.039716
97.5903 0.117298
196.847 0.113159
112.89 0.0618
153.724 0.087832
131.404 0.144575
168.965 0.102281
69.1966 0.072636
540.004 0.084887
137.78 0.057072
95.5939 0.180119
135.253 0.123606
156.792 0.228825
42.875 0.170234
77.7811 0.087702
233.169 0.096043
64.1978 0.136512
197.663 0.116392
36.7887 0.078061
20.0304 0.170812
39.5695 0.089467
64.4274 0.1485
98.0535 0.06508
97.1316 0.088556
89.7499 0.070053
33.6107 0.046141
329.994 0.129591
125.257 0.076256
115.918 0.069803
259.124 0.147271
27.0371 0.028811
28.989 0.069902
72.5354 0.035563
100.646 0.115576
26.5235 0.156612
67.8843 0.158716
45.6082 0.120817
100.045 0.034345
53.6132 0.272828
286.676 0.08909
104.501 0.110128
11.9902 0
30.4893 0.009796
101.798 0.058639
115.361 0.118738
20.669 0.146886
59.7015 0.173055
38.9288 0.035675
73.1354 0.044193
235.109 0.098913
58.547 0.076914
82.0834 0.054529
61.8999 0.190302
36.4424 0.117881
238.268 0.108799
35.2951 0.029079
319.602 0.100767
240.148 0.063315
155.746 0.05932
26.7923 0.019183
78.7032 0.090377
111.678 0.044649
38.1519 0.113424
96.0121 0.099789
16.4142 0.147248
129.404 0.099536
59.3767 0.115591
240.359 0.047626
112.11 0.205101
18.1298 0.269178
72.903 0.060484
55.1074 0.134461
86.3294 0.162286
396.316 0.129333
51.2649 0.036495
23.7894 0.039003
195.21 0.067887
261.329 0.102371
93.7049 0.080221
22.5156 0.134613
64.8997 0.304766
13.8713 0.346817
68.7551 0.116706
147.629 0.04486
112.671 0.133041
78.1244 0.037319
82.9778 0.093514
273.975 0.084907
73.5586 0.115794
48.0498 0.058153
86.6471 0.193996
219.32 0.072278
61.0896 0.058536
136.823 0.132598
55.4615 0.093001
75.0483 0.068184
21.4708 0.057384
15.3635 0.341952
156.578 0.1167
129.98 0.068198
222.137 0.082684
137.335 0.108748
224.658 0.145524
94.7981 0.10898
158.868 0.057572
111.462 0.068549
54.4164 0.167909
265.726 0.051958
46.51 0.066325
43.0654 0.097549
32.7493 0.040079
221.607 0.11847
247.7 0.054587
105.884 0.078862
42.3593 0.063185
15.3072 0.028957
21.0179 0.011813
200.079 0.082262
84.7912 0.088105
193.419 0.094653
169.237 0.029998
39.9576 0.024881
98.8007 0.071432
126.844 0.167732
41.982 0.065964
105.11 0.140119
66.7624 0.198711
109.894 0.061047
26.3579 0.066129
70.5081 0.056396
82.4696 0.060903
18.1099 0.020543
47.8436 0.064498
84.9249 0.149534
116.341 0.066782
106.047 0.069554
41.768 0.046704
99.7857 0.101819
51.2535 0.129003
26.3361 0.051572
150.52 0.161771
134.891 0.069799
34.9215 0.01543
81.2933 0.077037
22.3845 0.045845
78.9305 0.009214
56.2403 0.015214
99.6333 0.15509
46.3108 0.071
119.188 0.063594
35.497 0.04931
83.4442 0.054533
13.9545 0.151842
19.1668 0.196657
17.2623 0.00676
29.0288 0.098862
27.4087 0.016814
74.7975 0.061368
150.411 0.090055
205.056 0.100042
299.06 0.111121
31.731 0.105935
41.6326 0.128081
19.0517 0.079584
41.1672 0.093515
87.4449 0.088254
41.9446 0.219618
142.464 0.088213
77.3322 0.118068
224.21 0.08607
116.597 0.083845
86.5941 0.123927
30.2761 0.039464
15.8804 0.094688
42.2834 0.020554
53.0039 0.048997
58.0805 0.112381
48.0512 0.008776
27.8676 0.147708
59.026 0.06698
26.3749 0.062214
77.4616 0.076779
92.5544 0.089668
57.2685 0.109469
38.9029 0.22249
9.54903 0.039418
98.744 0.174488
70.4306 0.16702
25.8105 0.050597
21.9533 0.115192
20.3756 0.034335
15.7477 0
15.7046 0.06643
13.8349 0.104158
23.9098 0.171902
16.0756 0.212497
30.8322 0.032873
40.2276 0.025823
10.4314 0.224967
29.0808 0.180707
35.132 0.233713
43.4645 0.083443
31.7469 0.286688
36.4705 0.226365
38.3704 0.031033
18.132 0.067428
31.4482 0.099379
44.9239 0.033249
26.5424 0.099514
56.1818 0.118572
37.373 0.247795
15.6328 0.031591
