452.364 0.09419 156 19348.9 0.5 0.666667
373.907 0.067587
98.4575 0.070319
234.145 0.090323
156.735 0.071079
170.135 0.096013
82.5261 0.092724
183.923 0.086126
30.7596 0.181101
584.014 0.116098
346.38 0.099266
96.2436 0.112375
49.8475 0.30607
81.1563 0.092286
60.3428 0.154732
176.269 0.111904
257.756 0.039352
32.4296 0.040698
307.891 0.065606
69.8981 0.169471
126.276 0.145405
106.327 0.057839
184.38 0.123353
288.52 0.120257
146.563 0.074564
444.479 0.092666
86.3675 0.072698
111.67 0.053798
90.4485 0.197181
193.275 0.118474
72.6674 0.086638
176.653 0.094965
185.821 0.093374
30.3278 0.108921
92.4747 0.066281
196.373 0.071001
135.118 0.087954
413.628 0.08168
91.7314 0.07774
84.098 0.118112
30.6263 0.107088
24.5525 0.026471
87.3698 0.044565
169.708 0.080319
45.2629 0.152145
269.95 0.086752
83.6458 0.11471
82.3453 0.113606
25.7532 0.055329
198.726 0.093603
43.3916 0.038708
35.1906 0.172195
34.3483 0.008156
65.7716 0.048717
215.021 0.122652
36.6372 0.236896
238.031 0.078349
30.5908 0.068509
287.931 0.056243
104.548 0.089038
218.572 0.092515
422.108 0.095815
99.6494 0.025082
38.8548 0.113255
84.5117 0.083282
93.18 0.112628
237.932 0.040697
70.9221 0.049695
58.2924 0.147836
11.2146 0.034132
137.591 0.057207
26.1511 0.028934
335.81 0.101437
72.3959 0.053167
66.9434 0.059107
73.1132 0.161978
46.7158 0.135498
70.975 0.09326
127.979 0.091365
152.935 0.154361
154.072 0.134941
225.073 0.077266
23.425 0.033954
259.244 0.101388
71.8306 0.127078
36.2853 0.035063
14.4972 0.406695
167.344 0.091553
70.4523 0.25423
39.012 0.169742
60.9783 0.110265
144.76 0.103005
132.239 0.050215
96.5717 0.122646
196.001 0.091875
162.952 0.111104
81.5088 0.045471
307.78 0.061678
54.4705 0.015852
24.8077 0.074336
30.4072 0.094005
194.366 0.085702
226.773 0.042939
168.771 0.097799
71.5036 0.034003
35.5293 0.121487
405.249 0.102627
63.5903 0.134383
171.498 0.130647
168.667 0.02153
12.3503 0.101451
115.55 0.148762
57.1457 0.111134
30.903 0.219482
21.6568 0.055396
67.3149 0.046053
132.7 0.037664
102.159 0.153295
37.7406 0.052947
99.5607 0.110628
10.5545 0.496958
214.153 0.110898
80.1173 0.114844
23.3348 0.072054
18.655 0.243801
214.785 0.122075
184.366 0.167688
95.0866 0.111531
174.472 0.05807
144.432 0.088521
16.3283 0.06565
73.9602 0.005488
41.0275 0.020051
80.9374 0.101117
214.174 0.093508
30.5632 0.09737
35.0316 0.090807
31.0298 0.03064
43.5653 0.156022
17.3589 0.016355
102.047 0.152405
89.7046 0.212663
25.8493 0.050592
38.0742 0.056044
39.4361 0.048296
30.6694 0.237197
184.989 0.061091
106.064 0.050248
110.279 0.04247
17.4632 0.010669
49.6712 0.006771
130.491 0.110159
180.385 0.128276
29.2708 0.125854
27.7407 0.269687
14.4232 0.258367
20.1818 0.078073
37.1159 0.074533
16.2648 0.021454
24.2909 0.06764
16.4544 0.051287
23.2208 0.057027
33.0182 0.066232
38.4787 0.083063
24.9922 0.32761
