158.142 0.101473 116 29478 0.5 0.666667
46.7983 0.126787
30.4824 0.063695
48.7089 0.121836
330.124 0.065772
81.268 0.08138
47.8376 0.053176
48.084 0.011879
11.702 0.034185
66.8957 0.135267
237.408 0.060106
208.929 0.089674
141.863 0.049773
41.8463 0.027712
133.405 0.128429
95.2249 0.097627
29.1669 0.012358
52.7748 0.16559
44.7109 0.003258
170.215 0.078075
143.313 0.087826
154.677 0.067481
233.321 0.052788
40.9027 0.037629
49.6888 0.118928
36.5556 0.095302
171.927 0.079609
62.4646 0.129863
65.0015 0.134205
109.811 0.041095
42.822 0.102661
45.1399 0.049098
67.3867 0.058443
351.729 0.087065
46.6475 0.062202
114.631 0.089843
530.557 0.095486
80.6587 0.148149
65.8702 0.098176
20.2767 0.409278
75.8259 0.085075
212.839 0.051608
125.029 0.030215
26.2452 0.005357
108.44 0.052633
171.56 0.104156
35.5456 0.239161
47.8026 0.02934
44.2634 0.111813
116.37 0.150935
51.831 0.031698
199.04 0.091094
372.853 0.081182
141.874 0.054913
80.1669 0.111716
72.2855 0.034302
108.636 0.100995
95.9582 0.091483
146.384 0.098426
44.3229 0.076629
142.026 0.042381
7.75713 0.001918
146.989 0.051215
58.3389 0.11841
43.0857 0.063382
65.7804 0.112594
49.4163 0.042201
76.9798 0.06611
15.8395 0.026594
74.1084 0.032401
155.473 0.072708
47.9331 0.111018
138.85 0.224996
125.096 0.060325
111.097 0.067538
87.6165 0.06743
64.2043 0.210765
83.3495 0.113385
84.8744 0.065551
57.1966 0.062152
73.6961 0.172225
32.6177 0.158294
332.99 0.086028
43.3241 0.041083
52.5172 0.025627
104.961 0.074154
26.7801 0.177584
24.3754 0.046432
27.2416 0.169724
122.977 0.126146
98.3691 0.077565
89.3945 0.11926
128.409 0.04501
61.8603 0.078093
297.387 0.08866
27.7333 0.098147
147.812 0.081193
24.7328 0.011547
76.1128 0.160794
116.473 0.082959
11.7221 0.05704
93.3253 0.085265
113.429 0.104765
58.9058 0.061969
72.4641 0.076686
30.9765 0.014797
17.9714 0.057593
17.4937 0.249275
55.397 0.047664
36.9458 0.017514
66.8082 0.142657
135.338 0.126432
116.442 0.074419
99.9048 0.073967
55.3163 0.127984
28.7215 0.005734
51.8488 0.092103
251.117 0.069484
126.038 0.072483
66.1804 0.054719
37.595 0.192259
30.837 0.023603
89.5232 0.168723
23.7234 0.10719
56.5027 0.174268
108.923 0.089433
34.5008 0.204059
12.0257 0.144622
16.233 0.056075
118.134 0.09715
37.9984 0.107625
33.2922 0.097335
81.4161 0.085753
33.614 0.017329
17.5762 0.108988
269.516 0.076591
125.538 0.19062
69.2592 0.06168
42.602 0.04576
19.754 0.061455
26.9086 0.046574
36.4017 0.04403
115.325 0.089992
77.6945 0.14017
259.527 0.126983
54.5213 0.03844
148.519 0.046018
56.723 0.030158
146.806 0.097213
76.0009 0.078572
87.7418 0.038477
15.6408 0.208507
56.6844 0.08623
26.0801 0.233978
16.4339 0.07725
60.4252 0.029839
44.984 0.098404
16.7182 0.060354
39.8428 0.254335
15.427 0
20.8779 0.051716
17.9137 0.210582
76.6753 0.036995
14.2767 0.236501
65.1644 0.080589
80.3208 0.105423
134.012 0.032365
17.1254 0.172974
151.007 0.106375
45.7008 0.09143
130.854 0.071916
136.871 0.06573
94.0529 0.07207
13.9304 0.065157
90.2866 0.050561
124.247 0.05603
88.5674 0.0741
145.597 0.026127
77.5741 0.088621
73.9737 0.065464
34.1536 0.107932
130.971 0.06404
185.566 0.040634
275.171 0.082398
142.32 0.106193
55.24 0.216067
118.462 0.056541
70.9179 0.114406
19.8468 0.154912
56.9417 0.032993
71.6232 0.121437
286.054 0.113649
13.9187 0.147951
58.7707 0.037831
31.1553 0.071206
108.929 0.115866
16.5757 0.020266
91.5409 0.135647
103.672 0.054941
42.5723 0.015541
90.6231 0.087769
147.515 0.092241
86.517 0.088392
109.047 0.12712
82.0076 0.170304
38.5372 0.080713
64.401 0.208616
186.725 0.070697
79.7924 0.045289
134.272 0.128054
110.477 0.085992
270.308 0.063621
104.704 0.088983
37.97 0.219983
82.9607 0.059243
29.0857 0.026181
183.447 0.076511
38.6445 0.010875
109.075 0.060679
62.6968 0.119805
111.729 0.173852
122.309 0.085591
112.5 0.042829
24.6656 0.049611
84.9424 0.062369
76.0685 0.060077
30.0521 0.09379
16.3971 0.016444
26.2902 0.010652
16.0066 0
84.9869 0.099212
36.0127 0.101211
69.2132 0.031541
18.7971 0.004566
65.0141 0.089682
68.1823 0.071665
186.844 0.107728
48.0767 0.176722
187.635 0.066113
17.921 0.204912
105.066 0.111071
44.5767 0.061871
34.0817 0.182138
103.815 0.064772
25.2485 0.137546
222.972 0.082173
25.9291 0.108119
54.127 0.039271
81.2155 0.065147
90.3354 0.093468
57.7115 0.052429
114.469 0.05202
204.574 0.113301
41.5886 0.178453
48.6327 0.165585
15.9953 0.320472
38.7518 0.064733
151.931 0.04431
33.173 0.018768
60.9645 0.006765
93.2196 0.077497
82.2665 0.084429
36.3898 0.145948
51.6808 0.08272
15.0922 0.109129
70.4285 0.094051
99.8741 0.037058
57.1322 0.1313
61.3874 0.054771
114.778 0.131593
14.9829 0.045587
49.229 0.107634
51.3422 0.086429
91.8125 0.079633
22.2103 0.170634
56.3742 0.10611
23.8908 0.082657
141.778 0.111324
31.7356 0.06066
89.3012 0.044253
85.439 0.145572
86.7881 0.099392
55.6567 0.039577
195.796 0.06208
16.893 0.049017
79.2639 0.07995
128.247 0.071695
48.5019 0.094729
90.016 0.057905
55.8068 0.19466
167.597 0.112938
56.9844 0.064406
31.5013 0.075406
81.9768 0.040137
93.4514 0.158719
75.8813 0.078439
17.6832 0.210989
12.963 0.14832
45.0773 0.079123
70.5068 0.051418
210.991 0.081902
100.518 0.081666
113.069 0.055049
14.8746 0.011815
105.653 0.040556
96.1804 0.04707
41.7792 0.034661
32.4252 0.018098
24.9034 0.021841
94.0916 0.128893
88.219 0.063127
23.1089 0.026651
18.4078 0.034647
107.698 0.121284
119.546 0.069361
154.544 0.072225
22.7633 0
67.7229 0.07636
22.9543 0.225909
147.319 0.133419
34.0797 0.016153
81.6271 0.062135
76.1073 0.115848
67.8819 0.115328
102.607 0.015989
32.9277 0.10345
47.4194 0.023972
24.9739 0.067747
36.4111 0.057488
13.3989 0.031321
139.085 0.046322
201.724 0.084003
16.3585 0.395476
53.9393 0.149236
130.15 0.068215
48.1595 0.225439
56.7094 0.093321
47.8816 0.07985
85.3497 0.147985
45.3722 0.141903
23.7012 0.091659
23.6901 0.060284
48.5498 0.070918
37.7269 0.013094
30.8685 0.12504
19.0342 0.228374
16.2358 0.217638
13.0249 0.347239
18.0687 0.053819
56.174 0.257686
18.4013 0.358732
12.4295 0.022988
19.6333 0.146403
43.4472 0.187999
32.1105 0.05752
18.3504 0.054492
15.1752 0.120942
23.0946 0.071314
32.9158 0.159105
17.4713 0.347746
22.431 0.017996
10.3642 0.040702
17.1075 0.277782
10.2985 0.02202
17.8109 0.019374
26.5035 0.118941
23.9946 0.074354
19.9076 0.142842
40.3741 0.087901
19.502 0.156359
32.3425 0.098126
17.0515 0.410674
15.8149 0.012306
14.9864 0.035313
23.155 0.321888
