143.802 0.075257 196 8741.19 0.5 0.5
152.423 0.061244
44.1837 0.132822
94.4801 0.177772
102.638 0.264883
176.334 0.036467
154.441 0.119759
45.2567 0.225393
209.77 0.085179
246.418 0.034297
338.886 0.09324
313.475 0.067638
203.751 0.096145
36.335 0.293365
28.9854 0.251748
50.406 0.092753
39.3518 0.216602
105.682 0.232831
227.836 0.088917
17.0883 0.098801
335.875 0.152698
471.655 0.202411
419.438 0.135013
73.3385 0.126429
198.172 0.057087
61.9063 0.121994
49.6723 0.08025
636.529 0.122361
19.1133 0.024194
47.3719 0.115074
51.6344 0.202751
64.0393 0.141863
18.0098 0.294873
69.3021 0.267438
97.0828 0.160377
76.628 0.101894
226.925 0.208439
235.392 0.132249
143.554 0.219441
64.122 0.047004
110.364 0.10961
134.902 0.217191
18.0754 0.182551
197.942 0.127982
28.043 0.106179
28.1058 0.152515
86.9516 0.057084
96.7563 0.09042
16.607 0.073186
52.7411 0.143279
98.3981 0.238688
29.8696 0.190884
76.6917 0.116598
172.272 0.168864
32.7587 0.024643
78.7364 0.214601
95.3371 0.062393
119.536 0.029687
125.206 0.195746
38.0073 0.264134
57.5351 0.123171
45.8579 0.184473
63.9494 0.065669
140.388 0.138893
139.519 0.060428
293.315 0.161617
70.9452 0.085527
65.0486 0.204704
17.1269 0.133446
13.74 0.077757
68.8402 0.294424
13.308 0.29967
23.0112 0.076529
