223.506 0.093357 216 6411.56 0.5 0.666667
16.174 0.112899
66.2024 0.108717
205.199 0.117747
41.6261 0.026173
127.537 0.182728
39.2365 0.050152
142.753 0.127406
120.104 0.124601
296.409 0.047335
36.8038 0.149387
122.66 0.093662
207.024 0.099952
137.853 0.085771
56.6441 0.028731
80.9842 0.204217
65.9933 0.018701
78.4467 0.037743
55.4889 0.009688
36.5165 0.067661
58.6178 0.137269
19.8954 0.180111
40.8908 0.100783
61.2143 0.080135
27.2061 0.160423
183.436 0.067877
15.3484 0.049751
165.129 0.052532
218.36 0.071443
57.4403 0.059316
40.8684 0.264344
54.0022 0.05501
75.8421 0.086097
22.6625 0.006777
81.1766 0.023322
21.4015 0.057657
74.4092 0.053694
370.849 0.056975
109.446 0.124274
364.185 0.114651
68.7662 0.092576
22.9427 0.007221
83.3143 0.099579
40.1806 0.052235
24.8993 0.046072
74.0986 0.159245
153.85 0.069083
51.5463 0.023389
158.766 0.067063
52.3049 0.017624
191.301 0.0656
26.936 0.019621
62.3744 0.029438
17.7878 0.06264
14.3533 0.485344
59.9991 0.034713
53.8501 0.04996
20.7622 0.118542
82.8491 0.105759
52.5156 0.072835
171.175 0.154488
134.481 0.026735
99.4915 0.118837
76.3948 0.066609
62.4929 0.156223
51.5263 0.015354
30.8735 0.033148
21.3746 0.194144
60.2992 0.069758
84.9009 0.106172
44.7234 0.057836
24.1509 0.508191
16.7377 0.064169
