184.089 0.117442 236 5653.68 0.5 0.666667
137.14 0.225694
44.259 0.203316
178.589 0.070495
37.059 0.006086
101.334 0.195138
115.014 0.148066
94.9828 0.112734
286.772 0.03654
73.4762 0.098447
91.0654 0.108109
44.8445 0.09549
191.589 0.108381
109.018 0.086563
54.8258 0.036621
74.6756 0.215905
59.8806 0.031438
78.2409 0.038186
49.1523 0.004871
25.0444 0.051777
68.5339 0.126699
39.1922 0.122685
11.4858 0.219765
160.169 0.071932
166.421 0.033111
169.624 0.089033
40.305 0.043293
42.0442 0.145064
74.8135 0.174508
143.739 0.07757
70.4644 0.023789
20.8522 0.166522
79.2924 0.091128
47.5654 0.081566
324.696 0.078661
476.66 0.11834
43.3027 0
12.3244 0.01418
66.2935 0.07671
49.0412 0.014873
58.3927 0.058755
57.4582 0.126889
122.718 0.052463
56.2816 0.017491
176.751 0.092785
50.8611 0.089487
55.9613 0.027081
148.283 0.02917
50.6203 0.065315
37.5722 0.075032
146.473 0.12042
76.4902 0.084299
48.6043 0.065194
98.5733 0.12068
22.358 0.190965
52.0667 0.099351
30.1533 0.004082
37.8508 0.279931
66.4749 0.307501
32.3422 0.484958
47.7615 0.145256
41.7576 0.091178
