49.5762 0.135824 156 5567.29 0.5 0.5
42.4445 0.288703
64.5453 0.161066
66.7326 0.060439
59.9144 0.068169
173.982 0.105363
136.326 0.209304
102.79 0.148466
53.8462 0.056283
33.0597 0.189834
26.103 0.243565
87.6589 0.020864
39.2609 0.163107
28.8117 0.023814
95.9753 0.307302
70.6604 0.13637
109.919 0.046339
66.9074 0.136727
62.9143 0.064441
186.764 0.162295
102.039 0.137343
79.79 0.132365
42.007 0.081861
48.2772 0.048071
56.9178 0.13523
145.129 0.104727
10.009 0.049626
39.7242 0.062311
122.975 0.072021
30.8567 0.019579
46.5785 0.170309
12.5675 0.330675
73.8425 0.103308
131.724 0.191656
30.202 0.093429
34.5423 0.266763
27.8573 0.076837
25.714 0.234155
45.6609 0.266363
43.9194 0.200143
95.9481 0.151818
184.172 0.124623
50.5048 0.130256
64.8169 0.117101
66.0112 0.180022
79.9398 0.100468
33.2737 0.060813
41.7177 0.027296
16.2213 0
20.2434 0.418016
18.9435 0.121952
55.8315 0.211963
32.5418 0.335272
28.5551 0.003131
28.839 0.013572
32.3983 0.106299
35.6452 0.188675
15.7613 0
18.9817 0.031685
15.157 0.067762
117.92 0.176848
28.5814 0.312718
35.4983 0.111927
152.316 0.1505
33.125 0.043406
22.6563 0.041478
35.7296 0.299689
15.9167 0.667115
26.0419 0.397945
55.6232 0.096477
24.1171 0.478742
17.5685 0.07142
11.8955 0.549372
74.5508 0.097952
20.86 0.11489
49.4195 0.208164
31.5628 0.119105
27.574 0.117203
34.0455 0
171.887 0.116015
192.875 0.133654
125.515 0.198502
205.606 0.093563
45.395 0.191758
45.5888 0.393428
20.3838 0.111774
17.1682 0.544049
19.4229 0.399678
14.8067 0.072035
59.6275 0.055588
17.3836 0
20.6775 0.393089
20.6257 0.081959
30.5675 0.053915
37.4195 0.28798
33.732 0.185744
29.5763 0
