14.4401 0.222502 256 1841.19 0.5 0.5
84.4529 0.141197
62.6248 0.031824
169.801 0.054087
65.8731 0.186562
96.5592 0.324013
51.5473 0.268791
70.4654 0.057889
51.523 0.134059
70.716 0.035808
156.441 0.202425
122.25 0.114785
56.8141 0.149459
103.867 0.140067
27.8274 0.028442
33.9412 0.469723
57.8271 0.105537
13.6017 0.260998
206.39 0.044024
141.435 0.15597
52.4732 0.041638
61.6556 0.398896
41.9979 0.321103
26.6623 0.181719
