77.6864 0.015632 156 20590.5 0.5 0.666667
42.3557 0.053302
421.413 0.100413
21.8749 0.009806
309.86 0.125104
61.3009 0.085086
90.5398 0.054428
84.2587 0.142195
298.512 0.058292
104.645 0.036897
121.782 0.118336
97.9852 0.100871
43.4823 0.1564
137.409 0.069926
79.134 0.121346
98.1108 0.144709
363.987 0.10048
188.701 0.056046
12.965 0.243591
148.144 0.118917
47.9437 0.072259
233.094 0.116253
309.847 0.0531
59.8181 0.069422
251.668 0.077843
125.297 0.082178
53.0073 0.158844
36.6842 0.111258
23.3263 0.047945
263.682 0.090549
426.449 0.089163
122.002 0.056483
168.271 0.144959
144.823 0.018698
301.19 0.089394
117.596 0.069138
462.926 0.069507
16.8519 0.056888
106.645 0.127992
109.094 0.093678
144.161 0.243193
123.524 0.109656
76.4374 0.084444
372.357 0.097341
103.843 0.084687
18.5187 0.203249
171.191 0.02104
39.158 0.073227
134.504 0.105014
358.527 0.085865
158.611 0.071237
46.9914 0.061391
166.304 0.066379
199.982 0.095133
48.3894 0.01641
149.003 0.049809
63.7462 0.036684
224.893 0.109967
98.4707 0.146015
21.9812 0.451862
133.1 0.081444
312.166 0.117785
88.6392 0.024656
47.1865 0.213728
81.5632 0.040082
235.765 0.069035
161.04 0.082645
342.244 0.085349
139.365 0.097432
355.826 0.076267
34.9016 0.07762
23.4429 0.140095
59.6751 0.025444
237.78 0.064774
102.941 0.072767
176.995 0.034023
40.7111 0.030976
21.4991 0.204796
336.683 0.090119
102.07 0.126029
205.951 0.081892
83.9928 0.039067
76.8194 0.094363
221.944 0.102561
119.846 0.075228
41.5507 0.07307
160.954 0.028969
54.8848 0.07437
146.39 0.064637
90.2183 0.115577
119.11 0.094676
202.749 0.090336
52.4785 0.161297
46.328 0.18813
191.469 0.071896
29.4806 0.052256
120.202 0.049025
168.343 0.136372
193.223 0.090946
293.753 0.04966
125.737 0.049452
48.5848 0.050069
101.09 0.065977
277.511 0.047508
119.866 0.163424
27.4213 0.249453
13.883 0.043421
99.8739 0.043746
84.1691 0.009051
110.298 0.153519
195.523 0.06714
25.524 0.033098
143.298 0.090543
161.218 0.014396
83.1496 0.144676
43.4876 0.044373
136.349 0.080358
23.3793 0.054322
64.8347 0.026993
65.3204 0.062183
88.4285 0.07726
44.8643 0.066511
67.2344 0.078004
63.1527 0.045477
302.325 0.074934
18.8562 0.225988
47.8467 0.161096
151.673 0.068493
119.596 0.097683
12.7874 0.054775
40.648 0.113678
48.4895 0.098342
33.2464 0.12435
24.9477 0.390762
11.0849 0.058852
59.2436 0.086179
30.3106 0.067498
27.9819 0.020185
22.0043 0.179667
71.0426 0.021775
107.054 0.178051
64.2458 0.068661
58.4469 0.073827
254.999 0.090188
132.229 0.150501
35.0465 0.082295
53.7864 0.031268
159.944 0.093173
126.245 0.09575
274.328 0.060235
63.6855 0.069674
74.0235 0.057144
218.221 0.05896
83.9304 0.09118
113.704 0.147678
114.614 0.072327
71.315 0.073451
85.7519 0.096243
64.4669 0.14763
46.0529 0.076724
26.7961 0.007273
57.547 0.114246
18.8565 0.030381
74.7963 0.169644
55.4489 0.091793
20.0681 0.104066
37.9703 0.125643
54.6543 0.103706
72.8643 0.092868
38.2746 0.017766
14.2362 0.088098
50.6027 0.00605
15.1365 0.100395
36.222 0.0879
20.3842 0.022228
