16.1023 0.101004 136 14563.8 0.5 0.666667
40.7333 0.075175
129.118 0.076985
73.2883 0.072576
57.8766 0.033581
53.131 0.054907
139.817 0.047715
17.6066 0.014537
30.4822 0.024928
19.335 0.01817
28.8484 0.024639
40.8076 0.107103
101.503 0.061948
56.3789 0.030777
20.5715 0.090197
54.0013 0.03462
162.443 0.158803
22.6212 0.007759
93.5352 0.050171
23.1483 0.066893
226.758 0.075609
135.453 0.110024
60.4877 0.053314
18.5993 0.006682
42.5652 0.042735
43.2303 0.293348
64.5652 0.012466
25.5467 0.047216
51.7062 0.029536
48.9947 0.016847
44.9281 0.02072
43.0943 0.078392
33.8136 0.037834
73.2313 0.181193
39.3627 0.01672
127.531 0.097363
13.2765 0.03248
27.9886 0.007831
29.4639 0.028375
19.2822 0.012503
29.4661 0.141518
46.7419 0.142158
104.215 0.053419
10.7603 0.111529
86.3402 0.119877
54.2837 0.1879
24.371 0.115282
57.4801 0.053011
56.2075 0.008686
14.0284 0.118913
109.601 0.090126
34.342 0.167813
11.1432 0.004366
99.6756 0.16352
45.5584 0.075617
57.092 0.142697
51.1437 0.039604
9.40989 0.04788
68.0258 0.080322
23.7042 0.097373
35.8759 0.205858
46.9844 0.064802
15.0283 0.020959
94.4385 0.022098
298.426 0.049328
59.1467 0.087981
118.45 0.056071
34.7953 0.159969
92.5988 0.083622
30.8258 0.169635
112.999 0.171549
55.5408 0.0225
25.784 0.034908
48.5304 0.031228
58.4807 0.139706
24.0691 0.046879
26.6009 0.812645
15.3005 0.018939
15.8563 0.105419
151.487 0.03926
103.669 0.154739
68.8547 0.053253
58.1735 0.021136
22.0641 0
47.3804 0.022863
54.2759 0.064734
35.1123 0.013167
61.4801 0.037708
91.9573 0.021802
103.153 0.022385
116.129 0.158279
140.722 0.059584
16.1892 0.070107
74.9389 0.095645
20.5302 0.277129
41.823 0.034179
162.127 0.157939
28.704 0.08844
52.0134 0.154736
11.4296 0.02978
14.8571 0.253685
38.4469 0.063511
47.1862 0.152483
89.9299 0.092996
43.1259 0.21097
65.2541 0.070461
42.535 0.031827
47.9725 0.114652
20.6927 0
114.665 0.129689
16.3555 0.004815
95.6163 0.226666
16.5755 0.12524
113.004 0.02931
67.3018 0.0724
35.3868 0.011237
49.9416 0.250982
35.561 0.015318
40.7089 0.260785
81.3482 0.082205
19.2838 0.013869
26.2951 0.108853
19.7164 0.008541
102.418 0.029706
60.2947 0.011059
19.9439 0
105.999 0.053731
85.2255 0.083891
72.005 0.104476
96.1609 0.062447
67.4269 0.058201
18.0211 0.058147
15.3183 0.033386
108.843 0.071199
20.7697 0.015848
43.3008 0.095796
19.5026 0.042334
36.1451 0.047614
16.7568 0.01371
59.1849 0.12231
248.162 0.120938
80.269 0.08924
35.4606 0.114719
133.097 0.127797
157.029 0.085886
35.6415 0.090532
63.8757 0.016271
49.2217 0.103456
18.3814 0.10722
101.297 0.065763
43.2912 0.123694
41.979 0.308768
139.068 0.020708
29.6469 0.04375
162.246 0.121434
13.5043 0.31431
11.9483 0.132793
21.1747 0.038856
39.2374 0.048727
18.2196 0.161171
181.277 0.075738
59.0154 0.042142
78.1144 0.105515
88.381 0.031206
39.0435 0.174382
52.9611 0.155396
21.2806 0.075332
56.9268 0.058415
46.39 0.032344
138.67 0.072169
42.585 0.04402
34.2101 0.138142
109.384 0.08599
38.2607 0.024731
10.8522 0.329822
30.7473 0.104372
19.4544 0.495161
26.0517 0.032937
92.3266 0.170582
20.3751 0.106756
68.7875 0.128458
38.2048 0.117125
58.9354 0.199335
16.3778 0.021654
52.6505 0.094473
46.0339 0.033027
36.4398 0.043009
49.3643 0.019072
75.9837 0.072691
48.0332 0.137875
75.3904 0.087729
85.0792 0.11547
40.7567 0.045847
26.054 0.085168
72.2874 0.051392
37.6679 0.041002
37.2983 0.002937
23.9082 0.084317
14.0213 0.004436
100.641 0.108437
30.6221 0.034688
80.9968 0.067279
37.7946 0.014537
24.5612 0.055099
44.9125 0.09067
36.7414 0.046688
43.1349 0.042274
25.1615 0.182179
72.6235 0.128772
39.7394 0.097813
28.1105 0.098434
12.1839 0.130181
23.9095 0.075438
39.1126 0.007011
98.4346 0.084338
64.0768 0.049433
56.222 0.058265
48.3068 0.058063
59.1989 0.0464
17.586 0.201362
87.8349 0.095699
81.0378 0.174457
65.296 0.223799
25.3226 0.146955
44.8818 0.01933
74.1632 0.021327
21.5428 0.159788
75.1766 0.279217
45.2892 0.06447
13.7478 0.203413
14.1841 0
41.8857 0.124603
69.8948 0.015097
50.7203 0.1803
9.68981 0.033735
27.2101 0.007363
62.5142 0.144049
125.081 0.059627
20.8693 0.107057
105.965 0.052617
34.579 0.373606
47.9888 0.044262
14.5142 0.007856
33.3657 0.08043
13.5026 0.084703
22.1415 0.067122
29.455 0.270798
26.9842 0.03519
27.8823 0.06145
17.4963 0.056138
30.4492 0.100318
16.0141 0.096168
21.2477 0.119527
28.5888 0.111561
32.8309 0.030656
14.0382 0.368812
15.3527 0.220416
13.0241 0.061994
32.1716 0.056018
21.7621 0.119386
13.0514 0
9.45019 0.038723
15.8876 0.067963
12.6168 0.276386
19.6449 0.343877
21.0993 0.030087
21.566 0.078874
21.0927 0
10.7027 0.085015
28.7059 0.167983
35.0841 0.074529
32.3555 0.284921
12.1415 0
26.6333 0.209849
25.3153 0.33657
25.1924 0.06339
15.9384 0.21466
17.2016 0.151366
22.1597 0.037053
