43.1951 0.009743 236 6761.53 0.5 0.666667
73.1112 0.176834
42.183 0.017233
139.383 0.04254
44.4487 0.01711
134.011 0.133016
299.816 0.080359
28.5847 0.07418
158.707 0.131544
177.27 0.152942
100.449 0.10166
40.5675 0.157735
243.549 0.055544
178.153 0.10996
41.7492 0.100583
56.8477 0.146746
68.4682 0.185235
122.629 0.053096
121.231 0.102704
61.7384 0.024001
106.448 0.065659
36.1686 0.026064
162.828 0.065252
212.661 0.020734
102.173 0.056564
43.1613 0.06428
62.3009 0.019588
32.6919 0.01703
119.303 0.043675
68.1207 0.039081
98.4386 0.060862
21.9027 0
146.505 0.064025
60.3375 0.134068
61.3866 0.018625
54.3104 0.005665
51.1632 0.058244
63.2502 0.113701
27.0326 0.064219
49.7373 0.04439
128.458 0.097463
204.745 0.037413
36.5543 0.316838
69.5575 0.087682
138.07 0.148542
243.288 0.049595
179.453 0.066344
100.919 0.040663
230.606 0.075424
170.764 0.061154
55.2329 0.097676
140.963 0.149651
66.4765 0.038527
12.4054 0.110743
153.824 0.076698
24.1901 0.040667
22.5841 0.020523
14.4796 0.036716
215.327 0.108052
158.334 0.153682
36.907 0.040783
35.5456 0.019495
133.008 0.17191
99.6238 0.014069
54.5677 0.133193
78.6587 0.246376
64.5506 0.084732
28.9108 0.010076
16.9154 0.057329
34.1391 0
15.1827 0.031404
12.3658 0.064561
28.9051 0.4768
