220.191 0.117946 236 8505.99 0.5 0.666667
65.6832 0.012978
132.243 0.021373
164.405 0.085871
30.4543 0.334986
123.038 0.077155
101.461 0.04313
112.118 0.161117
125.814 0.123862
183.747 0.040633
71.9162 0.112339
144.115 0.03367
94.6354 0.091617
405.807 0.078099
54.7217 0.060706
348.877 0.073907
159.469 0.084487
61.2025 0.037704
86.3443 0.045051
63.6275 0.29776
202.541 0.123786
89.8958 0.218696
12.8765 0.09522
46.8598 0.083284
130.096 0.061947
243.006 0.077806
64.796 0.029953
266.653 0.169816
117.004 0.050139
138.029 0.040436
37.0582 0.0528
186.676 0.018808
103.729 0.136377
97.1788 0.021612
236.017 0.132293
211.951 0.108716
334.512 0.071272
128.707 0.074241
177.337 0.149143
130.59 0.153718
27.3234 0.727331
95.9361 0.075025
147.635 0.214683
134.356 0.071427
156.282 0.131273
159.991 0.084346
208.582 0.07738
105.346 0.061162
48.1734 0.028268
175.013 0.092797
104.049 0.066397
117.519 0.036162
109.427 0.048125
68.5544 0.154403
70.93 0.036835
25.9293 0.128791
90.2279 0.060372
50.2628 0.018368
34.4478 0.067286
135.841 0.057403
157.539 0.099739
47.0867 0.02887
52.2372 0.123174
211.376 0.10306
99.6845 0.069481
42.9149 0.087633
52.2456 0.322437
21.5788 0.037602
50.1233 0.161254
