579.902 0.140917 116 18969.2 0.5 0.666667
200.868 0.095738
101.398 0.08996
95.7585 0.107058
75.1103 0.095881
26.1577 0.048343
85.4708 0.01713
54.3903 0.030347
15.0761 0.110562
10.7252 0.050128
51.4609 0.096614
17.5886 0.106256
51.2465 0.225585
249.072 0.051594
12.4287 0.070934
23.9881 0.05626
103.804 0.108048
77.3248 0.109039
32.924 0.15075
19.878 0.008163
19.5822 0.015384
106.659 0.080391
21.3389 0.031231
138.615 0.0613
76.2185 0.040163
47.9635 0.113345
27.748 0.004582
17.206 0.067418
39.6493 0.139924
91.7939 0.085744
141.888 0.068453
12.6262 0.283585
43.4573 0.037658
39.3052 0.060529
175.22 0.057009
27.838 0.26028
31.3807 0.060339
67.1286 0.181236
78.1476 0.053919
16.7321 0.018217
60.6651 0.101506
20.0548 0.025532
58.1153 0.070015
20.3688 0.051393
69.1964 0.132817
27.7803 0.034286
11.1396 0.570557
13.441 0.418342
23.3201 0.186606
26.5186 0.108216
164.076 0.114835
37.0618 0.045502
23.0068 0
23.2143 0.182234
125.526 0.037501
16.8252 0.174035
109.194 0.035417
20.4325 0.051247
23.7991 0.096538
55.8225 0.116551
26.6002 0.043546
111.426 0.149358
17.6946 0.072201
43.9082 0.032592
9.17048 0.01155
20.183 0.02327
178.101 0.083102
17.5715 0.048608
25.5358 0.013023
37.9638 0.052018
15.115 0.008477
29.7525 0.033435
16.5757 0.123675
44.8014 0.055773
50.9641 0.034016
23.0527 0.077892
39.9063 0.080436
31.1957 0.029823
22.588 0.121431
25.3418 0.207885
24.335 0.027737
28.0776 0.032022
89.4933 0.090917
111.027 0.135879
49.7179 0.165642
89.069 0.089048
20.3689 0.123262
60.2764 0.049085
16.9822 0.068156
22.6117 0
37.3284 0.040517
66.5303 0.069985
58.4343 0.071321
42.6167 0.01997
91.3788 0.103724
84.5782 0.131695
32.949 0.022295
29.6457 0.089038
20.9566 0.147504
81.0799 0.167793
14.8697 0.339555
98.3669 0.031865
52.4028 0.088734
59.2046 0.040251
37.6178 0.083782
13.733 0
42.2575 0.02301
15.5148 0.155803
11.9042 0
29.7034 0.154848
43.7207 0.238762
32.0586 0.035599
73.7216 0.045565
15.9308 0.12682
207.85 0.061484
38.1298 0.047126
34.9182 0.087549
63.435 0.050996
51.0339 0.207041
29.1423 0.112874
37.1636 0.067697
99.5731 0.054935
80.1585 0.099432
26.3646 0.054888
15.5332 0.143666
42.3803 0.212474
16.2249 0.062057
67.1107 0.056744
22.5986 0.012949
70.1794 0.124958
25.0084 0.023805
34.7848 0.028724
19.1068 0.042029
53.9693 0.288689
341.268 0.074013
26.099 0
68.9156 0.016688
39.0508 0.222552
51.3905 0.13998
131.244 0.072875
29.6101 0.059264
24.5327 0.076164
25.8715 0.021804
23.9125 0.031507
30.3114 0.024338
41.8321 0.139309
18.4416 0.020815
11.2692 0.023506
15.636 0.057085
97.839 0.038363
35.6276 0.051709
78.9245 0.108096
118.297 0.097562
9.98292 0.091233
155.922 0.066327
25.8432 0.161493
23.0709 0.074238
17.3389 0.016636
29.0621 0.065469
98.6257 0.041833
19.783 0.078785
24.9177 0.063008
52.2125 0.154096
26.0913 0.028705
91.4841 0.084214
18.484 0
45.4801 0.012768
40.9131 0.071059
108.676 0.044718
43.0409 0.123184
22.4301 0.053417
22.2511 0.040457
83.082 0.041901
21.9619 0.302365
28.0141 0.020325
53.601 0.020484
34.1963 0.064711
41.205 0.081345
25.7188 0.078995
84.4921 0.057592
69.2825 0.01103
101.2 0.114005
17.8565 0.110838
183.758 0.078347
98.0581 0.236578
53.2855 0.122516
84.1819 0.165415
40.2644 0.094625
29.1235 0.109961
41.7855 0.037169
47.2843 0.024371
12.3983 0.108343
38.1428 0.03802
47.405 0.033
24.4836 0.19175
138.656 0.073449
38.6635 0.04126
50.2061 0.273305
17.309 0.148992
44.3153 0.10047
106.028 0.096338
19.8057 0.059857
37.1738 0.208748
106.219 0.109769
25.4993 0.068316
33.0374 0.136731
30.148 0.038834
47.0194 0.060347
31.5434 0.093826
33.2018 0.223412
137.86 0.106545
106.42 0.220553
20.9018 0.009327
134.099 0.150553
25.9207 0.149016
85.7734 0.086413
11.5215 0.013004
45.6361 0.093457
12.986 0.173243
31.6146 0.034245
97.1161 0.1122
19.0804 0.054609
40.4646 0.026673
41.0454 0.088162
18.9923 0
118.269 0.146244
24.7153 0.035927
19.939 0.04728
79.6434 0.135901
19.8352 0.180824
40.7232 0.019315
18.4701 0.045076
59.7071 0.067464
18.7475 0.024511
26.6937 0
55.0155 0.058207
21.7449 0.014984
96.7485 0.041033
26.5337 0.178482
64.8428 0.131156
40.1406 0.037837
24.5477 0.19515
14.7542 0.095166
27.7454 0.125597
47.3275 0.062777
16.6839 0.131069
47.2834 0.073711
43.8603 0.034581
72.543 0.061732
46.5038 0.055336
9.24471 0.139358
49.7833 0.229218
45.3205 0.177423
59.5651 0.217189
40.3426 0.064224
57.8842 0.08639
27.0423 0
97.9787 0.117789
13.7188 0.009839
74.9012 0.123224
78.2712 0.01484
17.3644 0.061232
20.7507 0.918079
13.049 0.089062
27.9144 0.099195
54.2092 0.00816
14.2389 0.040139
43.3601 0.085537
19.2182 0.187957
44.0706 0.054986
16.0532 0.214727
112.606 0.073661
14.1445 0.039272
34.1057 0.24197
69.2105 0.129314
43.4111 0.033936
24.2364 0.094826
52.0481 0.059742
108.338 0.111515
12.0805 0.163882
63.6807 0.196272
18.8346 0.133653
18.0557 0.032477
154.254 0.08766
25.8324 0.142168
40.4632 0.056338
19.7629 0.089641
13.1909 0.072865
48.1231 0.062888
51.344 0.086777
17.7685 0.382327
41.8424 0.011908
20.7242 0.071583
50.51 0.036221
44.0069 0.027445
23.2922 0.033326
13.0505 0.018236
36.2705 0.132844
57.1794 0.105612
22.6357 0.026371
12.1439 0.040143
165.71 0.167578
63.3264 0.070084
87.3436 0.055758
38.0324 0.06233
34.6339 0.196223
31.0941 0.024709
17.9694 0.046653
29.829 0.118995
37.5605 0.020331
20.708 0.040289
22.1648 0.021047
21.7959 0.120979
84.6441 0.099434
40.5402 0.276901
24.747 0.06873
59.3898 0.056186
13.4902 0.152602
31.3289 0.027621
117.476 0.088549
64.3556 0.06425
60.2267 0.075264
62.4324 0.01771
26.8561 0.031649
41.9931 0.042994
38.8263 0.011287
30.6045 0.033828
32.5799 0.023793
38.28 0.025778
26.6979 0.013711
31.356 0.135773
99.5219 0.085659
25.4297 0.052456
29.6786 0.110449
99.7508 0.099966
25.2581 0.016673
51.6692 0.016973
15.711 0.006345
13.0316 0.082077
67.454 0.026649
44.3493 0.007956
16.4611 0.021448
24.5072 0.01586
26.1228 0.053902
30.7288 0.109435
30.6278 0.232585
16.5954 0.027199
30.0262 0.17809
23.8403 0.031755
11.5049 0.434679
21.4387 0.026201
27.0803 0.232507
27.2871 0.183382
25.8593 0.076792
26.048 0.334817
12.2584 0.180193
102.668 0.096463
31.9312 0.031039
13.488 0.017529
13.9438 0.220393
22.4136 0.398161
14.2079 0.096855
18.3886 0.018121
10.8525 0.139131
66.4218 0.415744
16.7382 0.051835
26.5094 0.06985
14.5424 0
11.3272 0.117163
28.881 0.335987
14.3489 0
11.4654 0.133711
23.5052 0.13645
15.8509 0.088983
13.9163 0.027507
16.5299 0.015896
14.1483 0.043975
18.4555 0.043044
23.1732 0.077555
31.2198 0.135025
18.6522 0.16662
18.3528 0.074375
21.2835 0
11.9331 0.136589
20.6743 0.176613
13.5472 0.039733
28.7161 0.094909
39.5996 0.114521
21.8988 0.012692
26.5521 0.043854
26.8506 0.095662
19.4098 0.03251
16.4675 0.450576
59.4266 0.129065
21.0706 0.178074
36.2978 0.194827
26.9134 0.063245
41.8262 0.123535
17.3223 0.225828
40.4268 0.145661
19.231 0.062515
11.3622 0.199813
17.3842 0.269891
13.7946 0.127785
12.0592 0.109401
10.6113 0.117029
14.0318 0.42683
