28.5976 0.014556 136 14406.1 0.5 0.5
132.483 0.132047
149.89 0.119371
101.02 0.085511
300.001 0.111778
32.8858 0.038795
57.1959 0.074201
71.4856 0.067353
27.9088 0.33074
126.342 0.164181
198.169 0.135396
74.229 0.116583
104.012 0.054015
46.2951 0.079451
77.4986 0.088374
212.755 0.160254
208.138 0.168726
101.937 0.183032
466.318 0.177771
30.9508 0.373312
203.351 0.081114
92.2564 0.114186
42.779 0.097239
139.149 0.178407
45.0946 0.037295
150.843 0.226039
118.144 0.218874
139.377 0.204561
49.759 0.164743
43.4901 0.18079
49.2659 0.150613
14.6517 0.005823
17.0194 0.021571
56.2228 0.140436
12.8371 0.335137
131.497 0.17994
53.7498 0.027663
23.9542 0.294623
233.222 0.113683
22.0055 0.326185
20.0974 0.260464
11.8783 0.063607
70.9545 0.078311
37.4619 0.056562
129.574 0.102983
176.476 0.158276
30.9339 0.099397
115.666 0.182754
94.1015 0.033325
124.666 0.149138
110.991 0.062891
394.62 0.17033
77.3083 0.206082
21.3606 0.039114
314.088 0.111146
14.8009 0.12991
54.1289 0.075508
163.699 0.24885
84.9992 0.147293
45.4383 0.205469
281.636 0.115893
60.6304 0.020038
21.8348 0.036782
36.7097 0.322022
48.6567 0.025355
205.924 0.10862
283.138 0.079844
168.947 0.148184
91.4349 0.111502
45.9364 0.16048
53.5937 0.169414
23.1605 0.143093
114.587 0.095289
63.506 0.161164
23.8673 0.315631
73.3231 0.321841
217.515 0.16115
105.794 0.151799
68.4586 0.082532
160.811 0.087258
21.2533 0.240531
174.812 0.106041
92.1797 0.194225
53.7187 0.085968
52.8225 0.197998
207.765 0.18969
121.212 0.200267
132.51 0.075924
143.841 0.113981
170.357 0.165598
197.308 0.138579
35.5622 0.073998
18.53 0.296214
41.0966 0.078877
91.0502 0.144956
18.1328 0.089431
123.256 0.080197
97.3649 0.168251
12.2077 0.237321
73.1555 0.219841
17.6962 0.488559
15.3021 0.005529
217.562 0.157939
30.7062 0.047093
33.8343 0.038523
171.103 0.193686
49.6506 0.205307
101.128 0.144304
29.7262 0.129721
139.446 0.140237
43.7908 0.108355
24.2401 0.125058
60.9153 0.063249
23.9758 0.047394
29.9338 0.363242
36.1031 0.145133
66.8571 0.072724
115.945 0.123334
41.9995 0.068324
116.878 0.077415
66.3825 0.176649
113.705 0.180324
102.052 0.144828
20.6069 0.136517
72.3724 0.157957
35.2996 0.113354
50.2574 0.218023
82.4454 0.121201
103.923 0.28125
126.944 0.298035
41.3362 0.252069
115.418 0.168548
69.0581 0.171457
133.871 0.200775
40.9087 0.23084
14.0075 0.447487
105.877 0.051741
109.836 0.162015
90.4347 0.203461
53.3057 0.088015
40.3243 0.052796
164.614 0.107674
13.7597 0.324013
47.5531 0.217457
35.3997 0.123653
82.9088 0.185725
19.5621 0.300748
28.4623 0.034575
19.8321 0.347893
23.9263 0.033374
111.776 0.039171
17.5613 0.237672
43.5573 0.155395
66.3139 0.221999
33.0203 0.056564
70.513 0.085564
25.5416 0.062615
17.4674 0.177033
19.258 0.152876
18.6425 0.183565
13.2929 0.27775
36.4282 0.118755
13.9769 0.018735
43.1984 0.072141
51.7125 0.178262
19.3347 0.2412
42.3435 0.490512
23.4044 0.146524
22.3604 0.028073
17.5715 0.268125
