38.1837 0.064062 116 30164.3 0.5 0.666667
149.159 0.055604
156.501 0.175287
53.9189 0.097465
116.669 0.091986
22.0322 0.0995
40.2808 0.087972
189.772 0.042957
30.0979 0.048477
119.324 0.178467
65.6871 0.167846
119.757 0.08702
20.5919 0.025141
149.168 0.046071
172.74 0.070868
113.885 0.157078
117.796 0.10164
58.8832 0.046493
153.832 0.045885
24.5424 0.039549
144.255 0.073735
331.889 0.067646
234.219 0.078267
15.4678 0.054637
40.0127 0.134709
66.8065 0.114297
94.5574 0.084348
214.076 0.057703
19.8084 0.125744
39.3771 0.014806
15.4204 0.028166
66.4053 0.131899
30.5833 0.080548
16.1447 0.045014
69.9206 0.114296
224.278 0.146991
10.9263 0.01948
59.1437 0.099593
11.0612 0.373712
96.9156 0.084349
23.4368 0.11925
29.0013 0.126074
201.055 0.071074
78.163 0.047589
140.187 0.090138
185.018 0.080873
89.7248 0.051368
233.712 0.138466
33.1692 0.0061
23.4899 0.744501
264.406 0.057091
68.7508 0.038757
29.842 0.039806
26.7609 0.084868
28.4077 0.036245
25.5774 0.05171
107.232 0.050723
46.9342 0.065885
79.2923 0.048034
42.506 0.090982
86.6777 0.071432
140.545 0.105769
12.0521 0.034124
38.435 0.035128
98.7262 0.064386
127.114 0.093211
26.3734 0.049883
37.5967 0.048523
37.573 0.080756
52.8162 0.116208
87.6258 0.092534
19.5821 0.051811
47.026 0.059272
73.9083 0.069214
105.369 0.040158
42.3493 0.233343
25.7215 0.023726
35.6175 0.066246
21.6027 0.033441
18.0586 0.237003
41.5309 0.124633
77.4979 0.051134
53.2594 0.096729
108.793 0.03589
66.3832 0.036026
18.0167 0.068143
72.6188 0.137862
33.9482 0.100126
28.7057 0.096385
43.3406 0.016287
20.281 0.047469
41.4879 0.210819
15.8599 0.094083
79.3745 0.084879
110.088 0.058165
141.985 0.07973
23.5241 0.034347
162.398 0.086264
34.3964 0.014434
28.7175 0.198589
30.4854 0.018477
63.5823 0.157847
73.9808 0.16308
33.1076 0.036367
176.755 0.057085
164.9 0.07226
48.6071 0.036815
79.0256 0.038709
139.992 0.047328
149.897 0.117234
161.872 0.023677
17.3295 0.060151
89.7567 0.133196
119.394 0.128289
137.56 0.101225
37.6042 0.0913
84.3221 0.126918
43.6952 0.10021
47.1321 0.006117
105.163 0.12417
46.7337 0.076604
118.025 0.052173
41.0444 0.021041
232.364 0.112883
62.0197 0.095195
51.6082 0.139008
149.411 0.078428
33.5216 0.071718
34.6177 0.131974
69.3608 0.084794
48.5166 0.068266
123.002 0.091164
25.4828 0.064432
95.8196 0.122907
56.9506 0.118766
59.5749 0.050417
25.7286 0.107386
72.9361 0.041567
37.9559 0.127349
74.7838 0.059903
25.9338 0.079286
93.1299 0.089484
49.4482 0.099864
185.577 0.0829
25.3291 0.045149
15.6344 0.23663
154.999 0.068542
91.8781 0.142273
29.9279 0.244853
26.2115 0.030117
53.5793 0.058677
246.796 0.083767
104.483 0.183067
88.2957 0.241986
37.3967 0.016586
91.6698 0.103783
32.2727 0.014671
83.8446 0.056794
105.372 0.125762
88.5479 0.086493
48.6498 0.053707
221.518 0.057802
103.889 0.161967
137.931 0.030005
30.5665 0.143223
47.4962 0.037301
87.0649 0.09302
39.1807 0.050195
17.5422 0.10571
93.416 0.026299
16.8608 0.10342
52.99 0.043786
181.788 0.196866
37.2176 0.058109
228.305 0.08021
114.001 0.055967
25.5159 0.05132
56.7458 0.119713
62.4452 0.083519
63.8818 0.036155
151.717 0.063007
23.1023 0.097435
53.474 0.058344
56.7234 0.013884
26.0196 0.121132
124.571 0.096761
37.2341 0.081723
152.244 0.044472
82.3043 0.082331
18.0109 0.001411
17.2263 0.096724
66.9767 0.092628
31.6109 0.1991
34.7857 0.032924
43.9994 0.029473
17.8347 0.036721
23.6217 0.028175
409.527 0.09572
17.4128 0
66.0278 0.01841
173.21 0.111537
61.4489 0.037036
153.783 0.122216
133.214 0.04446
32.0301 0.133988
46.1623 0.059819
83.8573 0.133429
81.9048 0.07153
17.2706 0.175277
123.628 0.092254
10.7252 0.071956
75.5741 0.04836
27.2396 0.08785
152.594 0.068441
43.2624 0.078347
16.6764 0.049244
90.9439 0.075345
19.6563 0.057541
221.037 0.112634
22.3373 0.032632
49.7267 0.107512
32.7919 0.050502
33.341 0.142682
60.3477 0.100885
110.105 0.186222
117.183 0.108697
101.106 0.052946
29.8948 0.020367
87.4784 0.039084
38.4598 0.067219
48.8676 0.01371
117.197 0.095011
291.107 0.136722
143.613 0.160862
16.1963 0.010656
97.235 0.197211
62.6152 0.114073
48.6546 0.021559
172.043 0.074609
53.3216 0.112524
37.5471 0.033173
62.0048 0.088997
122.478 0.087047
51.3576 0.020757
147.516 0.064566
56.1805 0.073501
58.1747 0.055726
106.187 0.074258
97.5437 0.041538
35.7387 0.127925
29.4191 0.378839
32.499 0.11992
60.4346 0.062844
195.747 0.088889
63.9987 0.095992
44.2159 0.01004
77.7105 0.08464
125.637 0.115572
567.672 0.07214
60.3442 0.024665
37.4599 0.070408
56.09 0.113398
92.4207 0.075254
45.0577 0.132441
155.623 0.081764
17.871 0.113061
28.5884 0.146156
27.3383 0.128825
117.019 0.100279
40.5043 0.144337
130.492 0.094088
22.1151 0.014537
17.6015 0.11557
39.5655 0.032303
265.565 0.06536
54.1283 0.119072
60.8498 0.013613
35.5676 0.019919
26.3724 0.186072
49.2584 0.106597
39.8856 0.116377
95.451 0.09156
46.9352 0.094313
29.2689 0.197018
117.2 0.090075
25.0875 0.016312
85.7441 0.043581
18.8401 0.077967
20.1781 0
36.9502 0.060944
42.8079 0.149033
66.562 0.056742
95.3473 0.134545
68.6595 0.099544
32.6981 0.054965
64.008 0.045125
49.1192 0.093879
23.4754 0.198989
17.5643 0.009178
35.7482 0.112482
75.4247 0.027791
82.7479 0.111413
50.5085 0.024898
182.413 0.058531
39.4107 0.047615
173.866 0.125438
43.9576 0.027042
102.585 0.070056
35.263 0.126504
150.195 0.109607
23.307 0.096353
123.546 0.079263
54.5762 0.081776
89.3634 0.136792
256.029 0.132097
27.6955 0.285076
185.526 0.0944
129.621 0.128592
98.5451 0.042719
87.3521 0.049001
107.287 0.066361
67.2475 0.05006
57.8736 0.049019
42.0303 0.123959
33.8433 0.096209
14.2188 0.161609
28.4584 0.046642
93.4459 0.104741
28.4878 0.099676
235.961 0.064576
35.7444 0.006786
57.1447 0.059447
64.3999 0.087565
10.1245 0.027696
76.7248 0.037628
83.4946 0.073833
51.8825 0.060596
35.8214 0.100291
15.9281 0.040381
33.2073 0.020922
56.3472 0.013923
93.8445 0.088054
29.7955 0.083379
26.5945 0.261874
34.516 0.067568
91.7532 0.08044
17.1687 0.05943
30.0431 0.098128
195.847 0.066032
24.6007 0.148534
14.6236 0.056026
18.8203 0.034947
45.5075 0.036717
25.7901 0.044921
31.1833 0.002998
13.6559 0.135069
249.239 0.143907
26.0049 0.070683
102.241 0.089302
22.9821 0.213202
42.2323 0.143279
217.458 0.105243
48.6843 0.125396
13.7274 0.009315
64.9387 0.099114
37.7963 0.031763
63.5966 0.045479
94.5121 0.219669
47.2375 0.079149
20.2664 0.042689
24.6146 0.075385
80.3446 0.255722
30.6828 0.094979
23.6388 0.036477
25.13 0.106246
30.269 0.159962
21.3559 0.018724
79.1086 0.082457
32.02 0.271863
73.9627 0.091017
65.6578 0.05569
14.272 0.051746
20.3403 0.08272
52.403 0.03069
25.2432 0.352173
26.181 0.268416
20.0875 0.015085
24.0848 0.038864
43.6075 0.062596
28.6611 0.026929
24.3654 0.110047
12.4401 0.281412
13.3024 0.029312
30.4444 0.340548
37.9865 0.34513
14.5264 0.054952
14.6425 0.034458
18.4932 0.090302
21.3635 0.054347
14.9924 0.189165
25.2953 0.140925
13.4728 0.015559
48.5983 0.299748
27.4768 0.064905
23.9376 0.022365
16.246 0.080628
20.0241 0.038109
14.6239 0.080236
11.0621 0.052317
13.4079 0.22582
27.2245 0.220313
11.7055 0.022613
24.1524 0
32.2595 0.071945
29.3211 0.354671
14.5682 0.260527
20.4734 0.049731
27.7579 0.117563
37.8196 0.062135
24.0875 0.069552
14.6995 0.012051
16.3887 0.042226
17.405 0.051338
17.4025 0.099148
23.5236 0.131948
38.5443 0.123215
20.2281 0.131396
17.7162 0.064396
9.68158 0.129583
13.4543 0.051721
22.2587 0.160566
21.2681 0.157573
27.8115 0.107238
25.5635 0.092876
