171.555 0.226824 216 8189.93 0.5 0.5
731.832 0.16403
262.792 0.205139
63.4853 0.252376
118.943 0.023659
303.382 0.166844
10.7574 0.720953
528.011 0.111584
59.1807 0.2187
21.9154 0.529362
165.403 0.084217
111.845 0.256495
78.1822 0.417696
63.3068 0.106469
119.879 0.359561
80.6327 0.03392
331.313 0.099297
308.16 0.137439
519.552 0.18227
71.1889 0.104334
132.482 0.09959
274.442 0.036472
62.5809 0.623044
83.0263 0.274091
297.209 0.195527
121.539 0.135338
136.313 0.102067
269.783 0.150894
769.411 0.135572
57.6937 0.052403
47.8723 0.294279
39.4727 0.076447
53.5615 0.07554
96.1867 0.052527
366.686 0.091001
50.3913 0.15005
55.6229 0.047812
41.5653 0.121646
55.7345 0.055545
139.999 0.154284
108.389 0.24509
85.4579 0.067527
127.023 0.337572
61.092 0.397603
161.915 0.04364
148.78 0.208799
68.854 0.032183
84.8865 0.362069
48.2959 0.354589
22.35 0.194731
