71.7297 0.409354 236 3697.15 0.5 0.5
162.546 0.028571
328.358 0.168327
21.813 0.524202
112.282 0.023137
36.1843 0.183938
84.6482 0.251206
101.602 0.214132
52.0908 0.309478
172.363 0.071828
19.5409 0.124292
88.6635 0.203322
53.6761 0.308318
51.1555 0.094561
12.7067 0.27188
52.134 0.441046
280.575 0.146283
29.8501 0.420453
82.035 0.043909
152.293 0.162547
117.018 0.163725
127.646 0.349546
68.4682 0.270683
59.1536 0.226397
21.4263 0.107921
36.7942 0.051502
145.646 0.076399
37.5216 0.10965
74.1881 0.136348
102.656 0.097448
47.9722 0.150034
38.7557 0.333762
247.417 0.126187
131.356 0.188009
21.5776 0.449184
49.5605 0.060721
114.654 0.336458
174.625 0.228344
75.7904 0.108359
22.7214 0.071727
15.9558 0.170532
