453.158 0.073263 236 10915.2 0.5 0.666667
72.6278 0.188099
264.48 0.089784
294.479 0.201172
137.654 0.082758
55.5267 0.18259
50.5877 0.012465
81.7034 0.02199
19.2091 0.016031
31.243 0.155415
316.743 0.056616
462.019 0.084154
108.513 0.077934
106.052 0.135246
135.078 0.062675
510.836 0.116764
173.316 0.097654
106.119 0.052622
26.8471 0.098501
150.447 0.188414
255.67 0.087553
99.9255 0.081846
31.72 0.011374
21.9274 0.024262
213.264 0.108049
315.42 0.122956
550.875 0.077176
81.3436 0.121172
98.9492 0.028489
26.5103 0.254375
25.4701 0.007311
68.6941 0.17262
42.3385 0.058599
140.45 0.041969
67.1622 0.015161
77.9431 0.114035
96.2576 0.265738
162.815 0.134847
165.131 0.159768
38.5053 0.068239
66.1107 0.066803
315.229 0.069887
233.208 0.082677
365.063 0.180596
38.1618 0.280895
72.5467 0.070232
183.359 0.088421
104.687 0.072863
241.942 0.122833
44.6483 0.034746
98.1384 0.170693
85.1723 0.051061
184.884 0.130937
150.313 0.127935
46.0479 0.020003
150.367 0.084878
216.178 0.052183
74.5346 0.193899
20.7462 0.364692
129.869 0.05401
94.0689 0.34212
206.871 0.073568
23.7829 0.059102
131.89 0.189267
64.5626 0.179635
328.93 0.098472
119.274 0.094338
96.7697 0.034343
44.4907 0.016688
121.195 0.121548
233.931 0.043104
130.141 0.070762
12.2534 0.184737
32.8379 0.053502
76.1356 0.049257
102.131 0.044211
31.1226 0.022591
70.5281 0.107997
36.0443 0.165359
