155.862 0.144833 136 10595.6 0.5 0.5
32.6077 0.055165
127.78 0.117379
50.9266 0.280214
76.1128 0.183982
115.812 0.121214
30.9316 0.170071
209.644 0.15557
28.1638 0.276418
225.717 0.045091
204.955 0.142017
158.177 0.153261
112.942 0.086872
123.331 0.185175
21.2314 0.113352
42.7951 0.055401
35.8084 0.196617
71.8767 0.093716
35.4132 0.033451
34.1153 0.056518
107.078 0.049249
72.8642 0.228931
98.7041 0.142413
113.003 0.126111
211.237 0.157404
20.4401 0.041203
111.287 0.116316
63.4964 0.094757
94.415 0.092725
25.2171 0.417107
161.554 0.19502
135.696 0.150149
53.5238 0.040818
79.8527 0.119588
58.4846 0.274599
100.032 0.199032
81.9609 0.087324
76.1587 0.057035
53.6893 0.239869
59.2961 0.046328
348.345 0.12681
22.1959 0.315935
76.1101 0.06009
58.9866 0.193954
63.402 0.117209
66.9561 0.221625
45.6896 0.132851
26.7168 0.070254
78.8777 0.236748
58.8411 0.02421
57.4633 0.195781
30.5899 0.246514
45.2124 0.075628
52.7284 0.058309
29.7114 0.08954
103.227 0.201116
209.247 0.13686
256.912 0.122676
94.2616 0.118213
119.389 0.188358
34.2382 0.25191
57.9955 0.116996
134.147 0.213854
26.7462 0.139292
28.4697 0.074024
81.1638 0.125931
16.147 0.11076
33.4985 0.288928
204.116 0.096365
75.792 0.195838
25.721 0.261766
99.9842 0.089209
80.7071 0.184757
28.4063 0.013888
32.2891 0.040194
42.1348 0.139212
68.1119 0.276112
29.9591 0.065162
14.7441 0.234694
88.03 0.097989
40.5909 0.073202
26.9892 0.270419
78.9223 0.21369
48.2578 0.21155
81.7762 0.096082
70.2216 0.135464
76.0533 0.238652
94.499 0.148061
19.2612 0.050412
139.283 0.147802
51.0319 0.057941
130.418 0.058455
59.0144 0.043655
72.7895 0.110465
18.3884 0.454388
69.542 0.294007
95.3508 0.160094
61.4476 0.103371
37.7244 0.049038
27.0173 0.049533
57.0545 0.152902
22.1315 0.218018
73.5495 0.183311
23.2279 0.057441
26.531 0.028566
33.6222 0.267353
80.1078 0.225058
39.2232 0.126094
194.222 0.160662
101.925 0.112293
69.65 0.163632
65.2083 0.160184
22.7301 0.06821
13.4831 0
21.6339 0.307873
80.8346 0.071576
22.2979 0.005345
14.2035 0.276569
91.4662 0.125509
67.636 0.203089
80.5864 0.239981
30.4182 0.103938
85.996 0.097462
77.2639 0.140242
99.373 0.237723
51.2669 0.188772
123.999 0.116848
34.1574 0.047214
213.223 0.142954
15.8444 0.127654
85.8664 0.082544
69.3371 0.23625
21.6036 0.106313
17.5408 0.09355
140.967 0.062412
32.8997 0.15338
20.0485 0.357058
13.9137 0.428575
16.3277 0.021822
20.037 0
9.40961 0.071933
10.614 0.210887
25.0851 0.166532
17.4153 0.083355
15.0902 0.062689
19.6638 0
34.5372 0.073364
11.6295 0.082143
16.7147 0.048084
17.7014 0.524976
28.2952 0.358479
