40.7108 0.130692 216 5595.44 0.5 0.5
428.769 0.051466
57.4301 0.093735
76.9512 0.090089
37.6322 0.171538
28.5159 0.048063
64.8197 0.042995
275.318 0.101938
209.179 0.108402
351.473 0.158528
173.166 0.269356
144.954 0.128782
26.6169 0.297435
165.93 0.154488
40.8725 0.182863
30.7371 0.192939
126.887 0.047094
57.7736 0.168948
81.5685 0.063869
234.804 0.076313
178.401 0.094693
191.184 0.089129
78.521 0.123169
50.9931 0.210262
59.7277 0.264199
80.8373 0.150061
107.094 0.04776
18.9849 0.057635
100.78 0.24009
63.2755 0.048765
49.0702 0.084036
206.148 0.228381
89.7442 0.048167
57.9345 0.199382
50.0016 0.300302
251.301 0.126382
7.50365 0.476452
107.616 0.015778
67.1694 0.017627
17.1474 0
144.29 0.371191
38.988 0.147247
78.6314 0.046073
82.3702 0.068069
43.891 0.018553
147.396 0.123293
82.2943 0.189103
309.668 0.132102
35.5755 0.100561
57.4001 0.181455
49.222 0.240053
14.0657 0.183027
24.1032 0.190562
