239.25 0.218251 96 18269.5 0.5 0.5
28.9129 0
80.5476 0.141386
78.4099 0.115242
85.6466 0.246997
44.5318 0.148203
141.18 0.062093
86.0717 0.202165
41.7131 0.176558
139.759 0.149997
31.9374 0
44.4058 0.095752
46.3506 0.193648
160.397 0.284946
155.942 0.27588
85.7575 0.19206
88.8648 0.059767
46.5837 0.209693
131.975 0.179409
71.1382 0.143631
80.4918 0.156949
95.9723 0.20531
29.4442 0.017336
147.292 0.149739
93.0076 0.237634
36.8515 0.173572
35.7255 0.250819
20.8854 0.050833
29.7972 0
25.3952 0.199558
40.4883 0.167675
53.1663 0.262097
93.0742 0.267625
99.6397 0.09018
56.6293 0.070232
56.6702 0.065887
92.1172 0.034713
73.9299 0.093038
17.0378 0.070721
150.765 0.16142
41.0506 0
43.147 0.165179
14.4492 0.067935
10.1144 0
121.049 0.136802
25.9364 0
25.7368 0.130572
26.37 0.287041
32.6689 0
31.9363 0
34.757 0
35.71 0
116.766 0.17104
56.0616 0.333591
53.962 0
53.7763 0.106101
86.443 0.126352
194.263 0.159665
79.4184 0.121932
77.3712 0.140364
41.6349 0.110509
11.1577 0
28.5037 0
41.7142 0.293329
46.4429 0.381762
15.8941 0.88158
62.9037 0.080864
20.0353 0.14071
60.8077 0.170681
86.1239 0.043384
14.2344 0.830989
11.8608 0
15.3575 0
119.42 0.115144
44.1949 0.151674
82.3014 0.149229
44.7042 0.070637
57.6768 0.198688
84.6104 0.175266
48.7281 0.145386
13.5614 0.581605
52.1447 0.162247
44.1566 0.155279
11.0723 0
15.0368 0
109.083 0.177779
38.0962 0
67.6502 0.262439
82.4203 0.082568
17.6519 0
14.7342 0
12.7822 0.021488
37.7497 0.282113
31.3688 0
89.1843 0.085075
26.0341 0.347153
86.9672 0.189026
65.0395 0.530199
25.7678 0.210111
22.5249 0.015371
26.5396 0.010994
46.907 0.150223
59.3839 0.130943
41.4847 0.240536
28.5176 0
19.4131 0.25891
22.1329 0.594853
63.2241 0.175224
11.8832 0.318759
25.1776 0.246474
72.409 0.116562
132.414 0.226505
11.949 0
29.1632 0.064229
50.7039 0.075769
54.6594 0.104432
13.2342 0.049727
33.1297 0.075408
28.2453 0.123004
117.863 0.247893
46.4329 0.095698
64.1801 0.051537
22.2551 0.388312
51.7346 0.051625
12.5415 0.012385
102.541 0.206363
13.2701 0.181334
25.0175 0
25.3653 0.185056
36.1801 0.055364
96.7537 0.113832
26.8955 0
40.3264 0.171246
148.638 0.190021
24.7471 0.067025
48.9282 0.108631
35.3708 0.077865
40.1257 0.261277
117.079 0.188718
45.2916 0.0802
162.022 0.212412
17.2996 0.477592
54.2205 0.06851
17.9959 0
45.1748 0.033999
107.114 0.253548
71.1682 0.302435
32.1568 0
42.4894 0.096076
45.457 0.195472
53.6738 0.129827
17.3644 0.044483
57.7067 0
99.5584 0.166719
17.7784 0.093215
599.463 0.08977
41.5391 0
41.5313 0.047184
27.9446 0.349151
62.2704 0.449938
70.7361 0.049481
78.8252 0.110633
37.5184 0.125887
22.8791 0.212135
47.9224 0.091813
32.1195 0.127038
53.6422 0.115404
209.474 0.197451
34.4659 0
75.4783 0.278776
54.8456 0.029534
48.9188 0.048315
68.009 0.196763
24.1489 0
57.4086 0.324948
85.2444 0.092725
25.8054 0.233364
36.6194 0.237055
20.5656 0.958267
32.2233 0.701657
35.3046 0.202591
29.5457 0
36.7245 0.060739
74.6308 0.31551
53.1304 0.078068
11.5722 0
19.4596 0
29.3287 0.02791
94.8951 0.088739
20.9295 0.083102
74.9669 0.022374
19.7228 0
42.5748 0.116885
40.8673 0.240998
21.0006 0.565253
26.8883 0.120702
51.8584 0.147531
22.3553 0.146528
27.919 0
75.7792 0.260079
21.4605 0.07505
41.4196 0.047896
23.6955 0.032629
66.7331 0.227055
39.9408 0.127764
18.5892 0
27.1375 0.491557
88.2277 0.282101
67.8092 0.159026
77.3458 0.153689
50.4456 0.228687
38.9627 0
60.59 0.376213
27.5306 0
35.0908 0.133485
17.564 0.698265
43.0918 0.139674
26.05 0.222701
75.7518 0.204357
10.5333 0.430662
46.1406 0.1634
50.1277 0.24211
14.2813 0
25.0243 0.378935
23.845 0.46547
50.5899 0.069135
38.0953 0.05235
35.5938 0.127149
126.241 0.107742
32.9525 0.183422
29.3836 0.131141
75.2847 0.274296
80.9609 0.151661
42.9848 0.030408
48.7781 0.349061
20.5054 0.006009
118.345 0.055523
41.1989 0.16802
105.16 0.130655
14.1686 0
15.3052 0
29.0744 0.862065
22.0284 0.83788
84.5292 0.341886
25.5028 0.148258
22.1823 0.156059
131.396 0.106769
47.9855 0.319029
20.8741 0.147369
66.0368 0.130861
66.1632 0.307398
34.9102 0.56561
45.7937 0.223757
29.5287 0.531534
39.2294 0.25387
57.8863 0.195675
21.5273 0
20.0811 0.168717
61.6276 0
43.5545 0.077206
88.8331 0.070614
17.1806 0.145423
24.0427 0
52.7209 0.225117
27.2107 0.134535
20.1333 0
100.084 0.201283
79.2189 0.056291
49.2578 0
159.307 0.077252
28.9915 0
48.5505 0.084239
85.7668 0.458698
94.3901 0.220849
85.5698 0.214369
34.0955 0.159546
65.6344 0.199631
48.4547 0.166022
26.5585 0.032781
45.2604 0.410465
39.3333 0.073144
19.5118 0.027865
112.233 0.04718
54.9216 0
33.0836 0.125587
31.4078 0.219922
42.8713 0.44861
80.5483 0.109413
16.4889 0.069569
22.3548 0.210348
11.681 0
24.9727 0.041566
65.9361 0.133111
31.4673 0.274614
15.3981 0.104748
18.732 0.361349
33.6891 0.13888
9.1387 0.047538
61.2568 0.110043
13.2744 0
42.1252 0.054015
131.168 0.364898
49.6252 0.105761
19.9395 0.094406
29.2153 0.017679
16.0388 0.027465
25.3672 0
33.3332 0.083254
84.1557 0.080141
45.4168 0.222163
26.054 0.884992
18.8385 0
43.7954 0.082758
23.1351 0.009931
18.0262 0
15.8008 0
15.1463 0.135397
16.2262 0
11.1327 0.385173
44.1556 0.141262
21.922 0.103732
15.4295 0
12.4878 0
32.5942 0.031691
17.1621 0.627875
35.646 0
23.3313 0
9.1058 0
25.7993 0.03886
21.5989 0
27.1782 0
31.8842 0.118081
35.0487 0.246883
55.1016 0.512166
26.3829 0.10176
15.1789 0.604195
9.82455 0
10.5291 0
18.4666 0
22.4846 0
18.5847 0
37.8048 0.075962
16.365 0
23.1585 0.18734
13.2516 0
17.3263 0.080117
37.6847 0.172436
18.1825 0.427915
29.4917 0.095445
66.2906 0.352161
27.3055 0.080339
36.7565 0.129337
18.2431 0.037967
35.1555 0.081459
39.6894 0.236701
13.1951 0
31.4039 0.202388
38.621 0.151863
11.8973 0
22.8127 0
35.6367 0.367485
27.423 0.159612
14.4627 0
30.4646 0.112661
16.3015 0
27.2878 0
14.5022 0.601458
27.1292 0.225409
47.0483 0.132054
23.8725 0.636106
21.4264 0
