179.457 0.233848 216 6844.2 0.5 0.5
66.3321 0.094154
73.3515 0.248009
45.9151 0.287682
250.127 0.115055
189.794 0.128048
28.1569 0.354114
57.5568 0.025857
178.255 0.054042
41.505 0.313054
215.753 0.148573
307.069 0.188831
51.8382 0.111209
21.2505 0.0885
86.4332 0.115014
12.2199 0.317894
72.7599 0.141153
26.6141 0.178116
240.592 0.064223
121.739 0.138631
82.6532 0.22569
107.52 0.153179
162.41 0.100465
99.9827 0.188854
78.039 0.149029
141.054 0.122195
122.091 0.237917
226.294 0.135627
224.43 0.16293
13.6947 0.117141
92.3161 0.267613
55.158 0.226601
62.3703 0.242516
37.6907 0.479171
406.11 0.073568
51.2884 0.038555
60.2105 0.194633
172.552 0.057976
474.21 0.18099
438.712 0.160381
17.5694 0.210751
149.952 0.254032
46.7979 0.0456
222.67 0.158113
49.6921 0.127144
17.1622 0.187881
44.8069 0.171957
85.1867 0.070163
247.96 0.179799
39.3281 0.038198
21.9502 0.074464
44.95 0.049719
232.219 0.141937
119.313 0.105721
117.133 0.164623
12.0035 0.172116
