139.179 0.144824 256 5462.62 0.5 0.5
133.259 0.192833
57.6761 0.132674
108.03 0.098368
611.084 0.119333
295.583 0.118652
136.693 0.119473
86.7788 0.20972
168.776 0.067276
177.867 0.0623
187.198 0.115166
462.648 0.156743
113.14 0.157146
47.9203 0.157486
87.3647 0.153382
618.77 0.130958
165.872 0.196846
41.0189 0.144385
55.8707 0.129158
75.7481 0.064637
397.297 0.117542
39.2608 0.273686
138.985 0.140916
45.5473 0.479668
70.1342 0.203065
183.075 0.253157
186.004 0.176014
40.7107 0.134155
42.7914 0.176191
150.413 0.214776
74.8281 0.186713
211.04 0.10337
46.7725 0.442685
35.9833 0.031321
29.3065 0.093013
