419.213 0.087247 216 9939.02 0.5 0.5
422.869 0.18006
496.373 0.08841
371.25 0.141352
380.017 0.087122
410.978 0.149371
707.235 0.188106
254.235 0.142637
492.576 0.073661
185.979 0.058376
116.432 0.142564
275.05 0.256072
184.386 0.234733
63.0668 0.247626
438.442 0.169148
917.12 0.184195
300.975 0.11071
159.512 0.208089
87.3203 0.118515
207.347 0.131559
198.083 0.073738
59.833 0.095474
178.915 0.168051
179.875 0.198277
239.462 0.144199
321.339 0.160319
257.898 0.14006
136.151 0.36344
13.4464 0.377324
84.5499 0.372709
175.204 0.126547
73.1828 0.028624
363.66 0.054334
124.035 0.043304
420.088 0.101827
147.245 0.190669
21.5299 0.044622
54.1482 0.038195
