70.0591 0.021518 176 10460.2 0.5 0.666667
133.443 0.085171
77.4386 0.035273
52.0028 0.152657
77.6609 0.276313
287.661 0.061986
192.379 0.072537
393.852 0.052237
258.4 0.129892
80.0657 0.034585
49.3725 0.054504
87.4729 0.055829
148.709 0.206227
82.5006 0.02242
19.3537 0.314599
62.5116 0.069952
20.2609 0.041028
71.0588 0.206782
81.988 0.07788
73.1671 0.060757
50.4619 0.148012
65.1389 0.122595
108.943 0.100951
143.075 0.078717
168.11 0.057388
49.6454 0.11245
49.4774 0.154823
27.8392 0.069418
94.4876 0.108157
40.6558 0.085971
22.0824 0.063143
25.0229 0.02628
152.113 0.061367
17.3296 0.025074
69.1757 0.152531
37.1131 0.099161
262.143 0.167654
20.3889 0.144042
29.5867 0.166519
64.6035 0.097532
115.702 0.025845
13.6234 0.257476
71.4553 0.026702
38.4882 0.184675
56.9679 0.023429
220.573 0.03585
100.925 0.031968
23.4709 0.0992
122.314 0.055472
73.8439 0.056975
334.864 0.109346
25.7467 0.088876
118.702 0.124798
56.9935 0.046268
35.9331 0.092769
45.263 0.089852
41.9797 0.133132
53.1343 0.018434
28.1447 0.14155
43.3785 0.262356
33.656 0.010316
152.129 0.127254
51.7556 0.029053
96.4842 0.039774
49.5227 0.133238
70.6794 0.197026
57.3178 0.029801
55.5365 0.065379
39.9105 0.147418
43.3638 0.003126
66.8376 0.149469
111.261 0.132261
45.9982 0.056164
75.4984 0.1598
74.5755 0.092602
90.2638 0.080829
42.5717 0.026834
64.8087 0.084202
332.882 0.090273
44.5872 0.116261
27.0176 0.147985
31.862 0.311323
60.3541 0.131949
29.1167 0.380144
55.8092 0.199898
31.8187 0.241376
135.768 0.100816
35.5274 0.055839
42.7382 0.085561
42.792 0.08439
94.5618 0.244846
37.6703 0.105856
74.8412 0.039976
123.385 0.043745
13.0103 0
27.4224 0.058505
138.585 0.110581
23.8264 0.175033
99.699 0.162304
213.26 0.057778
20.9158 0
65.3997 0.113108
151.003 0.015081
72.8307 0.123797
13.2889 0.069667
77.2625 0.063363
27.0877 0.19838
18.2989 0.140159
27.9732 0.023317
17.9513 0
27.226 0.253806
56.9329 0.107398
134.516 0.024167
31.9263 0.033272
19.0181 0.146499
95.4878 0.023032
283.218 0.078091
15.1485 0.036818
42.3844 0.067973
51.5821 0.164666
35.333 0.306577
74.3353 0.133915
80.2427 0.045303
45.9316 0.039547
58.5398 0.121502
78.8518 0.11186
17.643 0.090928
65.3804 0.189534
23.3204 0.006677
30.98 0.214881
29.3836 0.12084
57.8245 0.016033
26.2394 0.019016
17.8347 0.020462
27.5367 0.226617
18.8556 0.175946
25.6882 0.113329
13.9775 0.213581
62.5344 0.019735
17.0256 0.668181
26.3571 0.061661
