72.1791 0.071348 216 7578.35 0.5 0.666667
122.363 0.076846
60.9444 0.010738
305.524 0.086591
66.2732 0.319373
124.503 0.089193
330.254 0.070459
245.751 0.143232
47.0378 0.11927
98.5136 0.188163
76.1141 0.033805
62.2265 0.125661
67.1793 0.054308
46.5756 0.06077
56.2585 0.044323
43.0679 0.136915
56.0937 0.067661
105.832 0.06927
77.8197 0.096653
212.445 0.101431
91.2526 0.061994
111.719 0.046102
98.2128 0.084081
79.432 0.050606
190.56 0.088016
117.015 0.042727
59.8028 0.053652
36.4571 0.143543
49.9648 0.096193
77.5153 0.186156
31.5456 0.038885
74.9912 0.153102
175.305 0.157512
52.7629 0.00232
98.7396 0.031028
60.5529 0.03313
113.182 0.040715
158.317 0.052545
61.4428 0.032532
509.971 0.117898
76.7139 0.178522
57.9064 0.273088
36.6784 0.128885
30.7781 0.35961
37.1266 0.247335
120.579 0.088242
50.734 0.172604
62.2929 0.029232
41.298 0.022691
58.6436 0.046154
267.266 0.072936
14.7577 0.015689
69.6226 0.047634
46.4559 0.061427
17.5377 0.076344
147.063 0.081475
42.3214 0.121757
16.2168 0.333036
59.3781 0.021465
92.747 0.057791
51.9539 0.057647
50.7021 0.073523
67.4867 0.027428
194.362 0.125473
116.15 0.092776
74.3176 0.225281
37.5014 0.146295
122.438 0.012879
46.4682 0.042605
48.929 0.073964
38.3371 0.07367
104.646 0.01109
217.551 0.068294
118.756 0.128086
88.8144 0.222149
26.5106 0.027718
40.4976 0.078163
50.0388 0.061832
9.92067 0.174626
16.1719 0.017795
18.131 0.002592
23.9767 0.415722
15.1906 0.004723
23.8544 0.196211
31.3919 0.025138
16.6134 0.043192
55.8277 0.299849
