12.6988 0.141322 96 29953 0.5 0.666667
86.5927 0.144438
50.1838 0.058862
107.285 0.051388
86.7049 0.06518
34.5202 0.152465
49.5054 0
90.6936 0.132313
26.5331 0.071822
128.01 0.09089
27.6018 0.026012
26.2994 0.023218
46.3613 0.036113
49.4025 0.222153
39.8533 0.033865
24.2562 0
44.2594 0.099623
62.7871 0.053373
14.3628 0
105.241 0.032915
29.8914 0
57.3407 0.076569
33.7136 0.112217
75.4556 0.048417
38.5272 0.069202
48.8223 0.024334
33.3067 0.111038
21.2028 0
80.8116 0.127196
32.1441 0
58.9498 0.014819
23.0081 0.046359
190.415 0.047922
34.0048 0.062095
34.1387 0.031945
30.1151 0.062376
39.7744 0.052019
223.695 0.095043
27.4214 0
48.8456 0.239771
32.5888 0.058351
39.4274 0.073062
18.8775 0.021899
26.5657 0.055643
27.8021 0
16.5532 0
54.6026 0.142157
17.783 0.879203
23.0109 0.006066
18.3047 0.009898
61.0295 0.164268
14.2185 0.133295
14.8333 0.019604
22.1153 0.301023
72.8206 0.243177
41.3951 0.020323
29.8778 0.983384
19.232 0
203.296 0.098295
75.3662 0.130548
57.9994 0.095256
49.5096 0.021512
72.5054 0.11535
27.7439 0.063806
38.4901 0.228726
38.0838 0.067648
11.1457 0.061357
75.0364 0.078638
87.1166 0.232275
84.1748 0.106891
35.6427 0.174302
61.2012 0.059883
72.6732 0.104013
119.26 0.149339
30.1757 0
30.2154 0.039793
30.4472 0.046864
64.0552 0.205036
58.1484 0.881791
27.8835 0.148336
175.252 0.069588
47.2228 0.039228
117.843 0.075044
50.1376 0.20756
102.208 0.083105
41.1663 0.034317
17.2735 0.025037
25.0876 0.025065
34.2353 0.004683
81.617 0.092801
27.7379 0.990625
98.3324 0.046711
36.6276 0
20.1056 0
64.1707 0.067037
18.3387 0
44.6289 0.30541
13.953 0.028021
20.568 0.071101
65.1489 0.014259
148.017 0.14449
30.0021 0.054544
138.503 0.144596
70.371 0.072755
43.2413 0.056865
40.6933 0.057408
40.3381 0.031177
81.6157 0.143676
85.2339 0.037981
16.5472 0
58.0973 0.072703
28.5971 0.028041
21.6393 0.340169
46.0196 0.047715
32.4759 0
14.6236 0
12.271 0.013632
22.2136 0.078064
13.1293 0.020678
12.1028 0
22.9615 0.031096
21.2783 0.172001
41.8464 0.167703
53.0937 0.054464
32.4471 0.150617
17.3502 0.019037
14.4689 0.390386
16.7782 0.028347
21.8838 0.211802
56.6618 0.236387
21.2968 0
20.1228 0.032854
103.217 0.06538
52.6457 0.190503
17.2794 0
36.2584 0
42.1772 0.297617
42.0438 0.069678
104.419 0.05314
82.8918 0.2041
26.2687 0.068529
29.5109 0.332741
19.7018 0.009063
98.0456 0.099122
19.7292 0.031399
17.3557 0.030523
21.8651 0.106561
15.3381 0.141016
94.6288 0.193227
12.7283 0.747636
30.1159 0
120.095 0.179618
41.5278 0.083247
14.3318 0.131231
26.5068 0.023526
40.1853 0.015754
56.1696 0.044753
25.6049 0
43.8881 0.130981
22.8861 0.017196
29.9191 0.054296
34.8286 0
78.989 0.190574
55.072 0.105703
15.9613 0.046747
48.468 0.38675
21.8209 0.221404
68.9181 0.024182
28.4622 0.071263
14.4626 0.070847
64.9216 0.051968
103.906 0.236595
34.9282 0.09577
50.4955 0.021487
39.3478 0.122557
43.8984 0.150684
48.2551 0.203131
43.4372 0.05749
66.9058 0.145799
23.2219 0
74.6268 0.038733
28.9762 0.053427
29.912 0.072578
175.749 0.155748
25.6475 0.005788
100.793 0.087317
94.1207 0.054583
30.0025 0.027193
16.0177 0.268561
27.1076 0.071642
71.1286 0.216472
75.3466 0.195908
35.1261 0.092137
106.519 0.099451
18.5523 0
24.8291 0.028897
14.0735 0
34.7019 0
42.1875 0.177033
61.5545 0.038063
15.4322 0.44369
20.3566 0.908377
50.5329 0.114774
89.318 0.22185
21.1439 0
42.2783 0.124633
27.5052 0
36.4895 0.061854
195.196 0.038978
87.3301 0.110115
50.8323 0.142986
29.0393 0.071071
23.0953 0.142035
50.2741 0.148395
81.4244 0.087563
15.4737 0
45.1445 0.850835
37.5182 0.047232
13.4632 0
15.0749 0.172035
34.5408 0
41.8739 0.124056
57.7264 0.360785
32.9961 0.100739
61.2843 0.0944
53.9045 0.393581
17.8857 0.058132
39.8744 0.232428
43.6783 0.112563
19.2067 0
28.6735 0
60.9554 0.096973
27.8298 0.109693
60.5904 0.254591
44.4104 0.054448
75.1028 0.14802
64.5577 0
23.1611 0.179473
63.5388 0.124504
81.7894 0.110695
46.5679 0.071982
29.4061 0.046462
28.7531 0.118865
43.4796 0.123213
35.7628 0.352052
96.6093 0.118967
120.134 0.111639
22.1707 0.001786
152.504 0.058658
32.0341 0.014238
30.1957 0.138571
23.4498 0.057094
31.4422 0.147627
12.7579 0
19.8411 0
47.515 0.21862
29.5409 0.118457
36.978 0.15272
14.6327 0.100538
43.1017 0.192634
37.217 0.047723
13.5435 0.041569
26.2043 0.817439
60.7258 0.135436
79.4198 0.340412
37.253 0.175278
63.5207 0.088113
77.6691 0.262272
55.9458 0.030955
42.1982 0.069546
97.9535 0.143857
45.3903 0
12.8748 0.976282
43.9307 0.087189
16.3793 0
27.4393 0.068887
75.5316 0.260383
36.8883 0.152716
33.4408 0.009619
78.9668 0.082245
19.9602 0.332535
39.595 0.015582
16.5943 0
99.488 0.071659
28.9602 0.012906
55.197 0.066224
61.6936 0.263334
49.9877 0.276034
48.6483 0.150731
117.411 0.180954
98.6897 0.1374
23.9366 0
15.3135 0.155265
48.6357 0.071888
100.85 0.173381
35.8637 0.491671
144.58 0.066576
15.1367 0.541726
29.9553 0
34.5433 0.164613
37.434 0.065352
11.5245 0
17.1734 0
31.4557 0
10.7567 0.442141
17.767 0
23.6391 0.046016
36.8832 0.169325
94.0922 0.025768
44.0423 0.042837
91.7994 0.045466
22.9968 0.937103
14.1219 0
120.768 0.060523
16.2482 0.002622
24.8946 0.172203
50.2196 0.067621
26.1267 0.057987
107.128 0.092344
60.5225 0.215297
48.407 0.179748
21.324 0
19.2948 0.091764
31.3532 0.08685
169.947 0.211627
31.4526 0.260487
57.7103 0.097211
22.7828 0.059025
17.3686 0
12.3903 0.833137
28.3835 0
40.7681 0.071009
29.6361 0.063194
36.6903 0.125979
15.0038 0
43.8108 0.052196
27.1069 0.042638
33.4716 0.094716
40.0721 0.031224
19.6896 0.024048
16.0537 0
102.532 0.120759
20.6604 0
75.4022 0.173658
20.307 0.017325
22.2935 0.093894
25.8544 0.053743
26.2725 0.027281
43.0922 0.076294
115.118 0.167032
72.8737 0.206796
14.4585 0
61.7879 0.049262
15.401 0
14.5001 0
52.4358 0.114986
91.6029 0.104792
18.0612 0.374238
94.8291 0.085489
40.2367 0.035001
24.7027 0.071482
37.1777 0.041942
33.917 0.093786
32.6355 0
60.5955 0.125988
24.6575 0
36.1952 0
62.7 0.050135
23.7496 0
40.4247 0
38.654 0.053666
19.555 0.02959
55.3744 0.146369
24.7663 0
21.1198 0.04121
44.762 0.02137
56.0239 0.050651
43.8834 0.119404
30.0072 0.050988
28.6589 0.333691
29.1582 0
13.9224 0.780723
16.8976 0.013276
37.7044 0.114314
45.7012 0.06435
28.4906 0.030665
48.6323 0.049482
11.6907 0.703277
125.311 0.128079
26.0817 0.037106
99.685 0.0987
21.0959 0.047737
17.3245 0.016248
13.2466 0
10.7855 0
71.343 0.154537
41.0582 0.061426
55.9924 0.063296
100.589 0.096582
16.6694 0.155566
25.1836 0
52.7561 0.047469
79.372 0.138162
17.5943 0
58.4265 0.055304
16.1811 0
40.757 0.217139
52.4765 0.039039
36.6809 0
18.8408 0.113868
39.8014 0.041086
12.9543 0
44.8114 0.020507
29.8216 0.117723
70.8068 0.068491
16.3532 0.021307
25.6239 0.056101
30.0604 0.04579
44.4119 0.024858
88.1315 0.10817
21.3905 0.087779
57.7295 0.085062
29.3297 0.034381
29.7754 0
24.2881 0.130906
15.3143 0
23.8747 0.165811
58.4488 0.58135
30.2882 0.050808
16.8841 0.076788
23.6258 0
93.4757 0.216532
31.3087 0.141088
19.1572 0.045066
18.7821 0.06116
26.3301 0.045231
126.826 0.117631
64.6568 0.041752
15.5736 0
129.162 0.090308
53.8176 0.015708
43.0131 0.130378
27.0244 0.972077
19.4773 0.019658
40.5711 0.1775
88.3956 0.181858
43.6893 0.076308
46.6985 0.0347
74.7551 0.056816
109.131 0.017236
13.1208 0
14.3749 0
240.216 0.098336
10.3432 0.036222
208.403 0.120457
65.6233 0.141163
52.0906 0.115818
24.1904 0.012987
112.932 0.148714
34.111 0.043374
30.1255 0.072145
94.3382 0.072224
222.715 0.129259
23.415 0.05639
36.1591 0.197894
17.0227 0.038663
28.785 0
23.17 0.046673
24.027 0.487102
63.073 0.103426
93.0847 0.051675
72.7825 0.030782
16.8816 0
24.8714 0.952512
36.7018 0.016328
39.9496 0.172635
23.0771 0.044622
29.2792 0.666439
45.9466 0.068089
80.3531 0.056939
41.1279 0.215339
63.8915 0.052674
23.1254 0
134.211 0.0764
32.3308 0.141195
67.4173 0.041645
13.0911 0
18.8886 0.068993
38.6316 0.095825
43.5779 0.053493
86.617 0.139275
82.1202 0.074525
28.6711 0.111107
23.6118 0
35.9375 0
16.8293 0
30.1828 0.122585
36.2253 0.028387
143.589 0.023396
15.667 0.983515
57.7587 0.025106
65.404 0.312244
45.9353 0.169598
23.5626 0.151072
19.4569 0.080199
30.9209 0.047179
83.5136 0.118939
37.195 0.023925
40.6299 0.035222
26.6215 0.027332
112.702 0.081107
32.7951 0.034726
117.51 0.120859
23.582 0.850308
104.125 0.105486
33.9745 0.046486
26.4473 0.067267
75.3164 0.023455
74.579 0.042309
57.5889 0.093772
14.8445 0.103926
47.8845 0.113929
27.1816 0.237654
29.7409 0
129.159 0.064231
16.9908 0
38.0732 0.146119
51.9203 0.053053
41.6762 0.287233
82.2361 0.244896
76.6123 0.092883
28.6797 0.061058
122.249 0.071578
22.5609 0.017415
61.3351 0
88.6986 0.078189
46.7786 0.146686
32.6644 0.065139
41.5134 0.041541
54.7438 0.073564
27.4806 0.020307
25.8831 0.566823
112.958 0.083168
39.602 0.09827
48.0851 0.062779
54.0652 0.105545
35.0839 0.037636
11.5886 0
174.624 0.105823
45.2939 0.227004
33.7896 0
44.9767 0.258429
21.692 0.896692
11.9445 0
23.0679 0
17.1948 0.219458
21.7147 0.055413
8.7541 0
33.5775 0.144153
19.7632 0
85.741 0.074598
18.795 0.860067
28.8791 0.01928
60.8789 0.095223
102.936 0.030983
63.4499 0.089946
75.2127 0.03223
34.3844 0.16109
72.7874 0.255681
33.4522 0.063236
26.3673 0.050971
15.3294 0
14.3282 0.100478
73.6853 0.159798
34.965 0
48.1414 0.008308
22.5612 0.028648
114.458 0.176565
18.1856 0.086
17.2689 0.476133
9.2544 0
23.2156 0.116746
27.2945 0.135851
49.4036 0.182357
27.1186 0.1325
27.882 0.116394
41.1119 0.045937
25.8109 0.024605
13.4311 0
58.2043 0.092277
12.8109 0.740791
17.9625 0.98375
24.4587 0
73.3165 0.123898
15.3833 0.112677
21.2139 0.129876
17.6258 0
23.8826 0.876413
27.8633 0.13596
45.4386 0.054222
18.1241 0.184097
19.8619 0.890627
19.3604 0.042748
39.6821 0.026167
41.8321 0
11.4826 0.559786
19.8542 0.703529
13.9157 0.839265
24.6031 0
22.3914 0.039136
16.1127 0
13.5842 0
27.3413 0.27116
32.372 0.411095
13.4664 0.864245
11.0585 0.793338
21.4341 0.634758
18.2457 0.150683
18.691 0.121006
17.735 0.597002
73.0433 0
17.1765 0
16.0042 0.063471
19.7763 0.738817
21.8937 0
16.5415 0.122839
30.8972 0
23.2948 0
16.4141 0
16.1365 0
10.1235 0
10.7883 0
16.3969 0
21.6293 0.154463
15.0311 0
8.22653 0.149976
33.276 0.046701
29.7816 0
12.2352 0.027333
15.9432 0.998125
31.2966 0.816867
31.5007 0
17.5089 0
15.7315 0.512837
26.4756 0
15.6336 0
14.6384 0
23.4711 0
13.3583 0.66731
11.8662 0.021548
31.3036 0.727679
20.9376 0
16.3031 0.321642
11.6532 0
19.6339 0.094001
18.1645 0.386267
12.4706 0.916214
10.8903 0
23.5763 0.049502
13.4875 0.774293
12.0245 0.043929
31.704 0
11.1312 0
13.8781 0
11.3699 0.066892
16.9879 0
14.0639 0
24.0528 0
14.6438 0
28.1009 0
31.4035 0
13.5155 0
21.9163 0.175801
16.8823 0
17.6117 0
28.7237 0.281905
15.1114 0.235654
15.1516 0.095809
17.8419 0.038742
18.8178 0.061569
18.4874 0.397552
13.6579 0.588823
13.3093 0
45.3789 0.830806
