43.4148 0.086378 156 9496.42 0.5 0.5
181.008 0.128367
103.549 0.068081
16.8919 0.081247
40.8721 0.009424
89.0471 0.214036
35.894 0.045959
56.804 0.287912
80.7068 0.176733
69.0957 0.193986
84.9535 0.135918
214.355 0.058465
88.6562 0.02513
104.793 0.106353
112.894 0.147668
263.183 0.101061
177.41 0.129648
22.1225 0.080545
36.1885 0.195285
53.1734 0.022979
70.6016 0.049264
35.62 0.03653
14.8475 0.067354
80.6441 0.070185
54.9853 0.019755
36.6907 0.1537
37.8123 0.173712
18.5557 0.295797
55.0626 0.029923
39.4979 0.054054
69.8045 0.180617
33.4764 0
48.7126 0.231479
38.4739 0.080198
79.8859 0.069845
38.9707 0.205249
105.449 0.161163
77.8657 0.188191
66.1365 0.236822
93.1133 0.139396
103.242 0.127916
102.698 0.210603
40.2626 0.059525
174.539 0.172163
168.806 0.186969
53.8611 0.082166
98.573 0.187474
55.4408 0.177061
18.1674 0.179833
143.431 0.093718
72.8046 0.188727
60.1501 0.131243
58.1895 0.206498
174.949 0.158794
26.506 0.161257
64.5118 0.28682
73.0714 0.046946
55.6497 0.148183
59.191 0.098085
38.4903 0.284927
77.4391 0.198356
722.548 0.089381
11.1693 0.056407
73.5117 0.160767
9.55678 0.01706
34.4791 0.280279
55.9361 0.233765
62.175 0.248098
72.6411 0.052257
60.2526 0.125816
101.104 0.130917
35.8483 0.053047
124.342 0.090386
38.217 0.164367
29.6153 0.167629
124.674 0.172515
71.1152 0.087015
168.579 0.120803
97.9199 0.089273
65.6331 0.267187
185.453 0.137203
18.6896 0.265533
38.2714 0.064173
14.682 0.446698
70.4715 0.070994
113.269 0.143852
202.999 0.176532
81.8609 0.041617
333.096 0.136741
194.82 0.123607
51.2794 0.076669
50.0478 0.124632
45.2467 0.103181
192.85 0.098018
120.637 0.302726
106.528 0.141446
40.1234 0.114856
56.9774 0.17566
102.184 0.076967
50.0106 0.06908
69.6422 0.121326
77.439 0.128837
22.7524 0.118321
22.1741 0.104475
43.8989 0.315389
104.156 0.128378
110.997 0.308559
52.5402 0.118862
53.1928 0.01701
67.4038 0.167531
26.4858 0.411034
19.8904 0.013142
18.1133 0.069538
17.2081 0.033214
23.5641 0.022264
27.7257 0.405287
19.2321 0.447972
