16.8619 0 96 18981 0.5 0.5
24.0612 0.085516
156.179 0.313053
189.346 0.223795
35.1427 0
93.0085 0.256958
182.847 0.102426
40.3875 0.205519
50.2283 0.078886
128.475 0.083442
68.0053 0.119262
22.8142 0.030726
58.9442 0.033508
23.0306 0.097089
16.9403 0.674759
85.5155 0.207445
45.0989 0.107183
69.8009 0.049375
63.9883 0.135618
89.5302 0.26078
28.8273 0.248258
30.4352 0
65.1474 0.0677
75.483 0.121771
31.6418 0.036477
33.7773 0
141.407 0.09054
45.968 0.118875
45.7648 0.050393
33.6371 0.049117
29.7738 0.058086
23.2698 0.199926
41.4523 0.063047
90.7825 0.202176
131.341 0.057282
45.7791 0.310451
89.725 0.10906
56.8162 0.068035
102.731 0.203213
53.6479 0
72.8453 0
16.0134 0.43306
71.7774 0.382247
106.046 0.061198
36.3143 0
24.9344 0.219057
34.404 0.082738
12.3824 0.476471
65.395 0.039999
30.947 0.154833
34.2677 0.071491
35.7337 0.134855
20.4275 0.740201
60.7139 0.145181
34.3487 0.946604
56.7931 0.166311
46.9411 0.183367
37.0577 0.081512
23.3304 0.062964
26.5233 0.730074
16.9571 0.711729
72.2954 0.13874
143.295 0.105773
22.2329 0.039877
48.4658 0
15.6161 0
167.818 0.156055
12.5076 0
33.4686 0.077544
137.706 0.166295
41.6274 0.077764
76.7753 0.110356
18.6489 0
55.8033 0.029744
47.1678 0.131044
46.809 0
60.0993 0.021904
22.8064 0.09982
102.774 0.187617
70.9268 0.101407
28.0095 0.53015
106.975 0.490854
24.782 0.247758
21.4773 0
41.3122 0.15464
66.167 0.130807
28.6455 0
79.9301 0.146072
24.8731 0.080256
50.3909 0.247805
18.5581 0.014258
48.4163 0.170054
17.8928 0.226213
12.3804 0.520632
16.6215 0.351938
137.455 0.069336
20.4055 0.127499
80.0681 0.179779
9.74727 0.074284
86.3415 0.112496
30.4985 0.257056
22.827 0.088525
35.9248 0.109012
42.919 0.161903
23.6344 0
19.2799 0.623018
43.7225 0.352761
30.9268 0.504281
26.2585 0.02895
34.1169 0
12.8417 0.131644
12.1894 0
44.9405 0.33142
38.5648 0.580433
178.347 0.22922
105.195 0.164919
63.0159 0.294231
23.6754 0.160168
41.8572 0.061987
43.8523 0.380105
59.1167 0.14317
15.0091 0.317381
40.0019 0.128019
50.6196 0.079255
65.281 0
37.5232 0.208673
16.9573 0
87.2122 0.146169
15.7858 0.211422
74.6881 0.180913
62.5616 0.073961
36.7056 0.456719
29.3589 0
15.1244 0.912557
539.28 0.095105
80.1278 0.053049
71.1126 0.049854
102.609 0.199109
71.2095 0.078591
22.2372 0.454589
20.8133 0.190316
20.9022 0
34.2538 0.177111
92.344 0.142929
46.9749 0.113548
15.7304 0
56.2122 0.180161
9.62815 0
63.9868 0.191564
100.7 0.141838
12.3968 0.345497
27.4807 0.037664
14.5762 0.074034
36.3564 0.067908
118.669 0.24114
32.6595 0.195815
24.8309 0.958729
16.9565 0
87.7503 0.2181
21.1387 0.11074
27.6655 0.185603
163.938 0.14232
49.5079 0.170422
122.718 0.052514
109.505 0.215711
18.0705 0.103907
81.8692 0.184558
36.281 0.301557
122.861 0.187405
57.951 0.196885
26.5897 0
48.6034 0.062667
45.8886 0.181931
13.2164 0.128102
59.7029 0.021002
14.0291 0
51.0834 0.133568
31.5584 0.18371
117.062 0.178738
25.7605 0
28.813 0
65.9588 0.063825
65.8138 0.063946
66.9894 0.148577
34.0589 0
104.794 0.288129
13.288 0.020328
46.4002 0.147212
20.2279 0
100.434 0.189204
14.7663 0.406899
13.1787 0
15.6179 0
22.5579 0.263601
17.9303 0
65.566 0.113
19.1987 0.290609
47.841 0.044247
23.2346 0.112643
16.277 0.842172
10.3031 0
19.7122 0.148552
32.8047 0
30.663 0.156981
20.2499 0.950581
38.2414 0.018188
65.8819 0.437429
12.8316 0
14.8321 0.359767
15.6529 0
14.4355 0.086102
41.7894 0.046206
28.5504 0
23.9161 0
77.3948 0.299373
56.4728 0.018074
17.1687 0
20.7265 0.226087
31.8999 0.038051
19.5365 0.289456
13.83 0.334053
110 0.137816
23.1483 0.534385
56.4958 0.102454
52.4669 0.081164
22.5177 0
20.658 0
30.2399 0.518623
32.0619 0
34.847 0.100736
21.3836 0
34.2829 0
44.6187 0
34.887 0.074153
48.8129 0.132352
40.9139 0.123687
45.3496 0.141161
30.5907 0.089582
80.8682 0.094147
154.837 0.195756
94.5881 0.174377
22.454 0.280322
80.2471 0.065584
25.5915 0.010194
31.1117 0.157518
12.8182 0.492332
39.6184 0.401785
34.1706 0
24.0933 0.276436
28.736 0.28539
23.5716 0.068343
39.6438 0.022151
10.802 0.115249
65.9855 0.450124
11.881 0.086959
57.0797 0.135204
40.6445 0.236354
24.0156 0
16.821 0.017313
23.4873 0.210946
64.0082 0.125582
19.1106 0.201716
14.6381 0.354795
83.13 0.152414
30.876 0.049464
24.872 0
21.8855 0.030149
22.4833 0
23.8264 0
110.456 0.090976
10.3413 0
87.2629 0.042268
26.4365 0.149528
28.3258 0.085598
41.8161 0.037916
58.984 0.241101
13.0311 0
40.7897 0.148036
39.5108 0.114364
29.7948 0
71.5969 0.127943
136.101 0.083527
47.4562 0.15702
33.1021 0.09597
160.184 0.097042
23.0349 0
73.4592 0.263674
18.6957 0.322515
48.28 0.401996
90.8348 0.207593
14.1416 0
33.0753 0.200013
18.3629 0
33.5752 0.140292
43.0916 0.20721
55.838 0
76.3144 0.089586
221.401 0.176208
31.6174 0.017548
94.6245 0.306004
50.7532 0.055868
37.4324 0.257934
30.2351 0
19.4331 0.091049
80.6967 0.111691
53.7971 0.058608
45.319 0
97.935 0.170808
60.9268 0.19338
22.9569 0.048625
91.3882 0.151464
23.1749 0
78.3847 0.17854
59.6168 0.272135
39.6181 0.125109
43.1453 0
15.0667 0.060973
62.4545 0.201848
29.2862 0.128044
25.3134 0
58.5415 0.03919
23.6833 0.125602
92.7916 0.256778
31.1406 0.077617
38.9612 0.298583
19.5228 0.076736
26.5898 0
37.4816 0.178086
60.9667 0.13428
124.162 0.232349
26.5864 0.32342
96.1343 0.311063
13.1317 0
131.307 0.170449
80.9814 0.134388
134.415 0.21667
45.3313 0.028797
27.2832 0.907622
46.913 0.224453
28.7238 0
18.0346 0
23.4391 0.197322
46.1297 0.343737
37.8421 0.263692
20.2375 0
23.5754 0.126451
71.3552 0.070561
71.9443 0.252049
32.1031 0.092528
15.54 0
26.1594 0
18.1568 0
15.2915 0.199648
40.0822 0.039444
33.1001 0.053397
24.4469 0.169308
25.0951 0.523314
15.66 0
16.8018 0.642084
20.7947 0.607609
15.486 0.029307
24.938 0.161114
17.2913 0
43.8003 0.191403
16.1448 0
14.3613 0.84679
18.705 0.225708
10.838 0
9.50605 0
15.5131 0
52.0968 0.134514
27.3453 0.901469
17.6901 0
19.0386 0.020579
24.1556 0
26.5255 0.327326
21.3543 0
18.0404 0.418584
17.106 0
22.9183 0.090843
18.4007 0
26.4725 0.160877
16.5925 0
13.9038 0.405421
25.0526 0.094867
45.9268 0.111372
38.8451 0.150641
19.5349 0
24.0007 0
28.9558 0.136474
22.7407 0
30.2175 0.906834
22.6999 0
44.3817 0
15.1473 0
29.0503 0.179175
16.3183 0
17.6757 0
22.8318 0
12.6397 0
12.4534 0
14.8285 0
15.9338 0
11.3117 0.167724
32.732 0.153961
25.199 0
