68.7082 0.037882 116 24440.3 0.5 0.666667
31.513 0.054706
45.5737 0.064818
39.696 0.069431
32.0856 0.058223
57.0576 0.073056
80.7745 0.028961
33.8222 0.058652
81.5718 0.165885
145.431 0.139813
81.9305 0.049376
27.2297 0.067188
39.7286 0.027539
207.116 0.099575
52.5714 0.065016
27.6291 0.111857
104.523 0.099661
17.2231 0.013612
144.205 0.050993
57.0152 0.082582
14.6224 0.005876
70.483 0.118127
191.601 0.0593
34.1528 0.122466
45.0889 0.102006
147.477 0.114963
41.2069 0.178155
94.5437 0.125752
10.6517 0.017905
57.0656 0.080217
90.0572 0.068077
53.3886 0.196013
17.4276 0.011082
86.9822 0.206245
61.8353 0.029761
70.8776 0.093952
85.6291 0.102068
174.743 0.060635
24.0247 0.041187
62.8539 0.096417
63.3272 0.139608
15.5531 0.013357
123.302 0.035026
63.5069 0.036411
28.4905 0.025154
92.8303 0.053441
74.0603 0.145118
127.736 0.041235
49.8508 0.035399
104.993 0.060172
40.0167 0.155479
131.741 0.047182
34.9241 0.103927
34.9161 0.085983
27.7246 0.147676
41.6734 0.051902
99.356 0.053172
57.7749 0.032816
23.863 0.20628
122.156 0.09821
21.294 0.03206
112.067 0.089395
50.1062 0.052754
30.0324 0.305868
27.4529 0.19701
144.705 0.117626
33.8862 0.06331
102.308 0.031132
36.783 0.016892
113.208 0.059887
22.4399 0.017909
35.8307 0.11293
62.7332 0.111755
74.1761 0.222925
90.5749 0.07794
35.9491 0.050262
137.852 0.06297
65.9601 0.101321
168.936 0.102719
37.5333 0.09134
19.4849 0.047418
9.44593 0.051792
55.6823 0.096592
22.7065 0.32443
64.6206 0.134967
87.0612 0.065329
13.1765 0.032232
34.0866 0.035062
25.5773 0.058839
35.4276 0.075503
109.82 0.022566
38.5885 0.095197
19.3038 0.063639
70.4556 0.042222
59.2249 0.135908
40.3269 0.019472
270.858 0.03441
32.0865 0.066827
22.8351 0.011735
19.9014 0.022961
25.1715 0.189921
23.6519 0.043225
23.2514 0.057319
43.2339 0.100157
25.2585 0.092337
57.1431 0.044897
37.3358 0.043484
61.2408 0.009437
31.5076 0.027235
66.1217 0.025314
61.8009 0.108269
36.5516 0.080175
56.6993 0.049955
37.9515 0.095665
24.8136 0.02948
77.3893 0.117794
105.581 0.050298
28.578 0.065421
69.0945 0.099326
72.0081 0.058139
20.3764 0.117611
22.4034 0.151917
62.5407 0.104551
92.2009 0.092939
43.6867 0.131669
14.3344 0.084138
59.0866 0.045057
22.812 0.041125
14.5481 0.168215
35.1079 0.047715
58.3631 0.074448
42.6905 0.113728
22.2508 0.025618
60.5379 0.047054
110.415 0.107287
14.8161 0.109603
24.0529 0.055721
36.9566 0.045693
36.5402 0.162256
133.776 0.064975
46.5234 0.069445
101.538 0.165972
52.9351 0.042504
24.2498 0.013699
278.878 0.043815
87.9975 0.075236
26.906 0.119667
26.0797 0.063958
52.9199 0.048672
49.1583 0.070689
36.9989 0.090783
57.5315 0.006978
158.785 0.038681
74.681 0.070805
25.9182 0.026599
96.763 0.114391
18.0894 0
667.763 0.080448
58.5895 0.124809
79.6306 0.101685
46.1951 0.175636
83.618 0.138808
21.8432 0.0381
82.5532 0.048717
51.799 0.161127
39.9989 0.049323
70.6525 0.022481
21.6519 0.895625
36.3255 0.089546
41.4217 0.119726
22.2804 0.226351
69.4984 0.068813
130.066 0.0487
16.8965 0.054363
49.5694 0.076204
98.5271 0.074734
19.2246 0.064259
32.6726 0.011072
73.9889 0.262459
64.2783 0.036462
27.7103 0.262198
28.7467 0.027868
24.1579 0.025336
44.367 0.043688
39.8181 0
41.1842 0.07971
94.1489 0.078952
67.5532 0.103016
135.795 0.057744
71.4855 0.034686
29.3405 0.088952
21.3882 0.02521
106.302 0.076265
68.1129 0.04503
73.3908 0.055762
51.5768 0.069825
187.203 0.06426
67.1752 0.099767
114.115 0.036733
28.473 0.093451
68.5248 0.142649
33.6429 0.048084
56.8975 0.083053
129.44 0.08013
54.8294 0.159231
29.315 0.040728
46.0568 0.128486
39.7176 0.192381
33.8218 0.034308
23.5399 0.015106
55.588 0.222818
17.5224 0.026802
69.7223 0.12336
59.3734 0.130831
38.0456 0.070686
22.4943 0.136307
49.5461 0.125573
144.157 0.046158
21.7367 0.038763
111.746 0.095622
106.723 0.040959
34.6682 0.009528
75.8102 0.106114
39.2616 0.031544
65.2789 0.147063
60.5682 0.118244
68.4909 0.165099
18.5207 0.037217
126.609 0.041459
59.5242 0.03001
28.5161 0.048436
46.9721 0.021225
57.7471 0.128359
59.6642 0.11136
17.6445 0.013667
140.032 0.036165
48.0819 0.096737
29.7492 0.248958
27.8725 0.027773
19.7704 0.031177
14.3214 0.046165
32.1939 0.083447
128.973 0.087136
123.592 0.091087
46.0371 0.012806
115.444 0.095108
36.108 0.06719
50.8875 0.205153
28.4895 0.021291
12.8404 0.045928
65.2702 0.087363
27.6773 0.085801
45.6005 0.116133
80.5563 0.089398
46.4774 0.09719
18.4444 0.349316
63.8471 0.042935
19.0287 0.091975
24.6436 0.070653
52.7952 0.054322
44.0965 0.05668
36.4551 0.122364
32.0254 0.192079
37.4848 0.065233
33.3939 0.077499
27.2921 0.107414
73.8001 0.077581
27.019 0.066291
15.0745 0.583966
85.9291 0.071294
37.1298 0.033657
64.7748 0.056979
32.2205 0.091343
17.8944 0.135671
29.5108 0.152501
35.615 0.089696
39.949 0.129923
15.7184 0.101593
30.9897 0.006454
35.6317 0.036861
14.642 0.078509
56.0454 0.042004
89.7983 0.043408
14.4018 0.070142
55.1575 0.03937
87.7004 0.100958
32.4434 0
68.3977 0.140564
22.2583 0.022518
10.2275 0
15.4045 0
42.6383 0.060095
16.5834 0.078418
80.1118 0.10387
83.6562 0.095832
30.9438 0.033992
52.8845 0.155107
87.64 0.151611
48.7304 0.075708
82.6507 0.053925
22.847 0.054772
59.077 0.050997
53.2606 0.072984
62.4372 0.128565
27.5767 0.200718
88.7422 0.195013
58.4384 0.093867
94.1158 0.154411
269.627 0.108807
45.2032 0.083589
66.6684 0.070781
23.403 0.351982
24.9526 0.012394
58.846 0.051636
62.6953 0.030154
28.4451 0.020821
25.7779 0.089742
87.9203 0.042579
60.9741 0.086641
19.7416 0.053915
57.5666 0.17712
49.719 0.191097
25.4801 0.054311
100.187 0.123864
17.7558 0.054709
50.3443 0.084472
50.4336 0.088578
39.3331 0.078569
44.6387 0.118133
55.8134 0.073693
48.3117 0.064498
35.9336 0.101472
243.268 0.072555
15.6248 0.04683
26.152 0.004816
59.1743 0.122244
72.2777 0.058009
20.6378 0.019355
65.955 0.037453
55.355 0.250725
72.3917 0.039573
31.2239 0.152154
16.3819 0.094291
144.565 0.08331
15.6397 0.001045
120.605 0.051998
17.8655 0.298356
68.3831 0.06368
33.9263 0.201528
16.9774 0.070754
33.5051 0.042396
18.5106 0.053128
50.7741 0.042979
30.3741 0.029956
48.0057 0.146907
19.8188 0.104637
30.7398 0.039538
21.6197 0.187913
83.5724 0.046937
42.9242 0.098391
37.8584 0.11076
40.0548 0.137528
28.6085 0.04551
14.698 0.936875
26.049 0.152206
98.854 0.106877
45.5351 0.072438
19.1292 0.095503
32.11 0.064478
86.7729 0.103069
51.9141 0.017082
9.96214 0.036596
45.6849 0.023819
187.86 0.069402
52.4844 0.013861
24.9023 0.047509
49.3027 0.098273
18.8522 0.032939
10.3867 0.053138
10.2908 0.27763
96.4661 0.069958
51.9536 0.086169
48.7679 0.198916
143.812 0.114721
34.7138 0.025265
73.7939 0.032392
38.5318 0.074248
67.9048 0.071856
26.5782 0.042385
47.3312 0.02856
25.2679 0.132415
45.2372 0.160461
19.1223 0.112485
147.367 0.06363
33.2288 0.146131
121.662 0.071889
40.2123 0.128118
20.9291 0.114976
33.1709 0.086282
13.0197 0.014494
44.554 0.092269
109.381 0.12706
32.1497 0.039585
60.4187 0.093011
24.501 0.033058
92.7884 0.021529
32.4412 0.009553
28.2207 0.011415
19.8569 0.009588
16.0461 0.315764
33.862 0.085179
25.9512 0.10776
17.2616 0.051776
14.9688 0.061722
39.3779 0.057289
16.3175 0.076004
9.08656 0.114866
23.2743 0.032207
13.9936 0.11786
15.9381 0.067107
16.6895 0.149555
32.27 0.102486
19.0274 0.02158
20.2083 0.114664
14.8502 0.143855
45.4962 0.026683
11.3771 0.233323
16.5506 0.044156
17.7741 0.042204
25.921 0.096704
16.3424 0
29.0852 0.1293
18.8716 0.093124
15.0499 0.34583
15.1695 0.055447
34.2158 0.08909
18.2244 0.078484
20.6958 0.034684
18.1645 0.151125
21.791 0.074289
11.5832 0.224997
23.6606 0.194621
12.6248 0.009743
20.2169 0.08561
15.0498 0.087535
