70.3564 0.154957 116 12967.7 0.5 0.5
69.0936 0.151172
60.124 0.082574
121.798 0.122839
42.0951 0.202768
47.5647 0.086725
122.749 0.164181
118.82 0.051967
28.5527 0.025845
20.6437 0.21815
75.0958 0.222729
96.5046 0.085692
65.4169 0.05387
75.09 0.094628
84.7622 0.108359
65.2637 0.135279
60.0806 0.078069
17.6391 0.025264
148.716 0.090682
21.6281 0.02883
13.7989 0
19.2945 0.019872
37.8121 0.431263
51.1485 0.12742
14.721 0.022007
76.1414 0.098203
74.378 0.067108
69.4163 0.205361
19.5444 0.181568
77.6475 0.105382
101.852 0.142371
90.0511 0.093905
31.91 0.028712
17.9977 0.026892
59.6319 0.092953
31.9003 0.077426
44.3319 0.154723
85.7778 0.169208
154.193 0.065397
34.4103 0.198763
18.7058 0.053785
35.0498 0.171403
44.7792 0.367697
37.9483 0.109439
20.6369 0
16.5092 0.189281
11.7767 0.244617
20.5728 0.136756
71.0628 0.099202
25.3779 0.0925
111.541 0.110266
126.706 0.12588
81.8043 0.121751
31.4409 0.012628
20.6173 0.059688
101.58 0.151691
24.3583 0.029649
19.4659 0
37.5864 0.097637
60.4866 0.038084
49.8891 0.107687
12.6576 0.315873
44.5161 0.24916
15.3821 0.011814
53.0572 0.054996
45.3419 0.053529
81.8057 0.038716
105.413 0.067089
19.8172 0.072276
51.5804 0.053644
179.926 0.211928
46.2441 0.07572
46.5473 0.100353
22.7593 0.144246
15.1207 0.071886
53.1176 0.182519
24.5277 0.162267
28.151 0.091291
44.2987 0.174298
74.6585 0.048801
15.5252 0.260867
37.7316 0.165546
18.9365 0.03658
17.2146 0.187152
120.847 0.135415
15.2136 0.014217
33.244 0.027529
53.72 0.108207
29.178 0.104947
37.2818 0.125868
12.114 0.239716
27.5767 0.267175
11.1814 0.085141
13.3225 0.159784
81.2493 0.044472
46.366 0.121949
121.519 0.154765
64.9442 0.175914
19.1053 0.096483
11.173 0.044451
97.1204 0.215139
54.1901 0.096338
17.6795 0.0441
52.294 0.118718
51.7936 0.219459
34.0149 0.012147
25.033 0.112493
44.6752 0.233147
63.8583 0.140661
42.1242 0.11293
43.3328 0.19103
68.7254 0.281055
56.8114 0.219213
70.6663 0.137923
48.9682 0.045362
141.126 0.21598
37.2816 0.179513
16.8764 0.048598
83.5059 0.125799
45.9744 0.318154
31.2408 0.108619
46.6261 0.059571
32.7863 0.109699
45.7193 0.155419
44.422 0.190431
77.677 0.035998
53.9951 0.043331
40.5603 0
142.54 0.117767
20.5926 0.042157
8.25674 0.044244
90.7385 0.297099
43.0017 0.279039
112.824 0.055808
8.37739 0.150667
48.924 0.164601
83.1023 0.166212
83.6353 0.149588
26.4693 0.162202
25.7271 0.04455
99.0242 0.177906
55.44 0.13004
51.8864 0.126414
137.184 0.079401
42.507 0.122829
38.8649 0.020483
94.7379 0.134199
53.1825 0.118496
12.1331 0.045258
13.0016 0
197.667 0.114508
29.4718 0.201176
24.6069 0.041786
31.5587 0.141996
20.1973 0
62.1676 0.380419
35.792 0.18252
39.437 0.418567
51.6571 0.00538
21.2849 0.275243
15.5101 0.148094
8.42768 0
78.8748 0.189831
35.2954 0.193543
32.875 0.115944
25.355 0.057052
68.233 0.25874
13.8692 0.141093
80.3329 0.146718
17.8352 0.332287
36.3904 0.051605
25.3788 0.034027
43.4375 0.021304
15.188 0.03567
115.618 0.179314
13.0528 0
23.4997 0.208782
96.1984 0.143539
48.0157 0.057542
97.3684 0.087248
18.4421 0.072863
22.8445 0.364715
173.54 0.151517
80.6058 0.198451
17.8534 0
38.5313 0.139692
29.4572 0.154322
35.8822 0.062541
50.6226 0.136886
110.854 0.201743
48.09 0.063329
76.1166 0.089049
18.8951 0.083134
14.7727 0.039817
65.4851 0.112444
28.102 0.041083
44.0095 0.196001
33.3988 0.191405
43.7965 0.067879
23.4529 0.247897
72.5555 0.193974
37.843 0.020182
14.1154 0
109.162 0.169501
31.6069 0.055911
227.931 0.165028
70.7067 0.116349
83.829 0.231691
53.3569 0.038127
47.021 0.22935
29.4477 0.198715
31.7705 0.057319
29.3436 0.037318
38.9029 0.060236
46.5019 0.136807
140.228 0.131891
61.3258 0.143344
121.277 0.147059
117.422 0.088377
51.2505 0.031139
42.856 0.116538
65.6257 0.064293
27.6253 0.099813
30.1098 0.055538
50.87 0.127645
27.6114 0.006802
89.5672 0.095154
19.715 0.168665
16.346 0.06849
67.7086 0.17986
15.1328 0
13.1438 0.037594
14.7835 0.032517
42.7042 0.049768
23.4888 0.029524
42.3449 0.369731
50.7796 0.053498
39.7523 0.221011
18.0302 0.012588
11.778 0.624837
10.2573 0.006797
22.7235 0.272015
23.4966 0.412916
12.4133 0.453806
12.9268 0
16.399 0.101543
68.3297 0.066705
23.3181 0.181337
13.0158 0.076313
18.7667 0.401968
22.5999 0.069394
18.8131 0.222971
38.5949 0.043431
13.0386 0.199162
15.3986 0.081154
21.0486 0.193435
38.6612 0.127237
31.6735 0.033634
24.5938 0.081999
17.2953 0.006808
