97.7763 0.243979 236 3770.71 0.5 0.5
137.266 0.102191
269.893 0.175213
68.5354 0.353918
28.7627 0.148305
46.7699 0.08544
38.8403 0.04117
56.8522 0.168081
356.677 0.235461
178.407 0.216451
217.363 0.093195
49.4409 0.042834
299.118 0.174645
127.108 0.029335
82.8883 0.016854
71.9301 0.413757
54.9663 0.301332
87.1041 0.354818
31.0618 0.598317
320.535 0.158281
146.776 0.23756
152.98 0.123494
20.1032 0.534842
25.1858 0.187694
33.6623 0.06652
42.2005 0.24552
104.964 0.076155
54.5541 0.195404
86.1126 0.04447
200.503 0.134166
140.757 0.175658
32.9268 0.398231
61.1765 0.124143
21.1799 0.033706
26.3362 0.119609
