156.444 0.084624 176 10162.9 0.5 0.666667
46.1568 0.205983
55.0193 0.252012
32.1585 0.012739
100.231 0.09527
302.195 0.112331
115.567 0.079576
345.995 0.121283
33.2266 0.258966
266.403 0.081879
100.633 0.029976
201.389 0.035438
52.6574 0.149114
334.785 0.079
59.8118 0.192007
13.163 0.006169
24.0456 0.193753
33.1964 0.045171
151.69 0.037396
162.626 0.070849
81.3251 0.163029
30.8088 0.161768
26.4146 0.049969
86.0964 0.085305
44.6618 0.013249
44.3704 0.14703
86.7586 0.044957
114.823 0.102023
51.9371 0.012889
42.8756 0.06116
32.2071 0.08174
25.8249 0.230745
114.179 0.040804
13.0456 0.094297
45.4661 0.214478
71.5142 0.215784
55.1943 0.026872
122.8 0.036727
249.888 0.059409
176.299 0.058441
57.3701 0.036893
64.8966 0.12198
100.659 0.006121
64.7211 0.147266
132.683 0.090918
157.813 0.081067
16.0069 0.133419
21.433 0.082937
21.3977 0.031174
92.1487 0.08795
109.838 0.125412
66.757 0.035969
20.9411 0.08493
72.6188 0.053703
21.6009 0.014974
33.1437 0.046554
166.782 0.032059
53.6499 0.068111
49.5659 0.021753
23.7744 0.063038
125.388 0.070245
82.8049 0.016208
16.3762 0.055174
34.8056 0.076987
78.818 0.307834
162.902 0.039421
57.1579 0.071401
66.1235 0.135836
30.1044 0.036311
103.307 0.0205
26.2509 0.004635
63.2489 0.095863
15.1548 0.082856
128.577 0.083383
35.3218 0.069632
37.4389 0.040202
57.0005 0.105007
17.7463 0.136749
57.4101 0.09341
92.9378 0.031365
54.6727 0.173047
85.3627 0.05036
100.323 0.103821
66.8607 0.117417
24.8727 0.087153
65.1023 0.009799
37.745 0.050515
31.1699 0.065801
50.7384 0.034498
252.35 0.0408
227.139 0.109712
76.3433 0.1863
59.3795 0.103488
85.3802 0.057842
27.331 0.08703
50.1482 0.026562
476.039 0.064861
50.075 0.093673
10.4136 0.052616
58.4356 0.044162
12.496 0.022688
56.6164 0.066142
90.05 0.094588
65.001 0.072981
113.167 0.119855
9.02348 0.237838
41.2052 0.144537
154.295 0.12185
54.6169 0.0762
38.1413 0.377215
97.3987 0.217546
65.6318 0.08777
31.9432 0.107394
71.4898 0.034783
41.8665 0.025649
11.1462 0.035223
32.5309 0.060325
76.2852 0.096764
31.1333 0.240648
13.0332 0.010362
18.0866 0.280625
17.2792 0.026048
19.6939 0.205391
31.1857 0.04002
24.8017 0.044696
56.49 0.192461
20.4234 0.088604
17.9239 0.023488
18.637 0
13.8115 0.016178
17.6859 0.07955
40.5332 0.01736
23.0716 0.031631
20.8868 0.05644
32.1215 0.173929
18.9137 0.077899
16.0044 0.065164
17.8565 0.07554
