440.996 0.09645 236 6094.51 0.5 0.666667
143.928 0.167848
265.611 0.042705
178.717 0.092523
54.9264 0.049185
340.863 0.085209
254.808 0.1016
239.186 0.045058
269.078 0.046016
182.695 0.147651
189.802 0.129355
100.701 0.046878
321.594 0.107137
258.908 0.127026
79.0021 0.084272
52.8851 0.071387
116.481 0.139592
32.1195 0.087006
53.1346 0.269871
17.4636 0.01382
44.665 0.058456
152.268 0.040368
40.6187 0.158072
47.8759 0.004898
48.5764 0.008948
71.6971 0.126097
106.964 0.26789
148.003 0.024012
38.017 0.031113
43.324 0.013115
48.1985 0.021262
108.715 0.053034
104.822 0.254451
32.4349 0.212117
38.9889 0.141367
52.028 0.02258
33.1329 0.128079
191.046 0.098866
114.578 0.184398
71.3426 0.012904
88.3388 0.035025
66.3497 0.082214
61.5008 0.056478
14.0348 0.02008
103.457 0.152832
147.132 0.043349
14.8868 0.113774
42.0786 0.20801
142.035 0.123488
33.1414 0.026646
56.5041 0.009066
73.6009 0.103018
33.1002 0.056716
43.8261 0.30421
27.8436 0.12969
16.4853 0
