63.3489 0.017189 156 10669.4 0.5 0.666667
88.6036 0.108967
73.4065 0.116436
40.9097 0.020517
39.7422 0.111499
90.9406 0.231072
294.973 0.068051
35.352 0.229515
188.877 0.081462
93.7102 0.039928
95.4386 0.197215
47.2718 0.016787
39.9214 0.065848
90.2125 0.054899
176.012 0.129158
151.467 0.11276
128.455 0.06967
44.9654 0.171094
20.9969 0.1023
91.2131 0.175157
31.1019 0.05734
86.814 0.070253
68.3397 0.100131
81.6135 0.021568
47.897 0.206649
16.0183 0.027999
87.2887 0.156765
64.047 0.156438
46.1072 0.030737
174.673 0.106413
76.694 0.078306
53.5582 0.138149
14.9006 0.112944
24.5811 0.141844
32.1103 0.045738
79.8372 0.086547
41.9558 0.074535
80.4062 0.060949
28.5165 0.050246
40.0445 0.046692
31.1922 0.028918
14.7666 0.042396
99.5375 0.073101
31.0039 0.171884
28.2853 0.175918
15.0935 0.126751
24.0223 0.125236
43.1167 0.355615
70.6203 0.036668
22.6562 0.011699
81.2935 0.163177
31.287 0.103062
170.147 0.087886
15.2143 0.033441
104.141 0.0854
37.4104 0.347367
13.2552 0
395.976 0.06524
51.3653 0.104813
29.3204 0.267365
26.9287 0.177955
41.5373 0.219116
33.9026 0.071198
65.279 0.14891
62.8435 0.099421
231.062 0.037409
74.331 0.009525
68.9708 0.094999
27.2112 0.085988
45.277 0.073508
22.9504 0.259495
136.996 0.116043
41.0171 0.140936
49.6009 0.04265
118.748 0.094968
53.9455 0.133804
33.1577 0.037585
189.605 0.128079
178.858 0.078559
38.9457 0.284852
37.6338 0.061194
18.1281 0.1053
88.2147 0.117113
19.798 0.254456
13.7036 0.065754
49.0209 0.07144
11.2903 0.14241
23.8182 0.115698
69.5284 0.040686
92.6762 0.044178
56.5577 0.193469
63.034 0.14264
14.5346 0.058113
61.3807 0.077418
48.6116 0.184818
10.5388 0.111528
33.8889 0.004905
64.5617 0.072479
16.2976 0.005668
83.4371 0.042358
28.9398 0.213661
20.5363 0.054416
32.5198 0.028568
78.9809 0.059849
27.0306 0.049324
22.0213 0.370301
51.7777 0.096671
90.7078 0.223872
14.5487 0
27.4909 0.066988
27.8799 0.109312
16.4039 0.131567
79.8084 0.113917
78.8403 0.121398
42.8188 0.079256
40.404 0.198672
83.9857 0.105087
36.6986 0.074826
18.5601 0.068354
70.1706 0.055354
261.299 0.102374
26.1582 0.074913
41.8554 0.055318
129.51 0.076897
110.099 0.134448
54.6851 0.101462
145.827 0.011228
126.442 0.094827
20.2944 0.094738
39.0845 0.011851
40.5878 0.189791
36.7384 0.16521
21.37 0.124338
160.427 0.127013
36.7595 0.021745
43.0852 0.192657
43.9128 0.024209
25.2725 0.034147
23.6711 0.180315
51.003 0.112061
154.885 0.047897
34.4079 0.149029
76.4624 0.174576
18.6586 0.013633
86.0587 0.210873
40.8499 0.037682
56.0469 0.037982
90.5655 0.095553
85.3453 0.088214
118.845 0.129015
24.6204 0.038047
84.9068 0.062267
33.7715 0.080601
30.0834 0.019856
73.1245 0.076726
27.6282 0.061288
11.4768 0.047133
38.1248 0.092338
109.199 0.14204
26.4581 0.044763
20.2881 0.006819
30.4373 0.07683
12.5847 0.16792
15.0954 0.09311
11.296 0
47.7322 0.214961
28.5615 0.164637
11.0554 0.16191
16.4512 0.186147
45.0754 0.077882
23.2786 0.109189
25.3405 0.213913
32.6744 0.063793
