60.7811 0.085932 236 5154.28 0.5 0.666667
79.298 0.060824
273.802 0.075918
88.3907 0.122964
157.964 0.092665
196.565 0.1414
66.468 0.035139
36.3668 0.036522
53.2864 0.071939
289.545 0.058447
51.1007 0.042116
64.8147 0.109692
92.3668 0.0344
153.633 0.179859
72.6397 0.179663
77.3503 0.019255
63.2395 0.065008
94.3577 0.103941
60.3566 0.077438
75.5157 0.124298
25.8239 0.121424
10.3871 0.184499
29.2078 0.491516
71.6096 0.045469
55.4052 0.037123
88.7606 0.075001
117.753 0.199441
159.51 0.0565
44.6948 0.101461
38.5502 0.011627
132.655 0.062979
33.2998 0.233112
82.3474 0.147416
14.3742 0.321859
50.7035 0.022555
26.5309 0.120007
244.006 0.083747
238.114 0.042988
77.1102 0.228523
46.0364 0.139075
85.2063 0.048247
119.833 0.153991
37.9091 0.06072
18.5434 0.076141
50.5961 0.125664
32.569 0.118891
29.5099 0.020545
29.9625 0.077676
42.1475 0.025879
33.9942 0.144014
145.368 0.121753
105.958 0.029986
161.659 0.144567
46.3481 0.31326
344.544 0.092067
53.0983 0.059398
45.5336 0.008669
20.0152 0.037211
17.7238 0.104045
14.3854 0.020429
24.6544 0.567157
