205.903 0.102183 236 3940.5 0.5 0.666667
15.8305 0.037906
106.709 0.049059
87.5379 0.110602
31.3794 0.085092
28.0373 0.209847
47.9385 0.242316
36.6859 0.177427
161.283 0.118667
105.023 0.087154
40.8333 0.016108
102.951 0.111168
65.8872 0.050139
170.266 0.11849
240.647 0.017612
41.6098 0.043074
86.9262 0.088687
79.1442 0.009405
22.7055 0.010315
28.1098 0
108.494 0.084284
168.611 0.052828
21.2416 0.046718
52.7592 0.125166
22.1003 0.035821
254.737 0.062933
66.6892 0.136853
223.552 0.116665
85.4643 0.027311
148.254 0.074504
41.6076 0.27556
24.5894 0.041277
58.5879 0.110194
47.8738 0.057542
24.8864 0.023794
132.134 0.062449
64.9671 0.086846
36.0105 0.084095
70.0415 0.059663
41.7336 0.015805
97.7588 0.130121
92.2058 0.104741
133.664 0.138309
14.4664 0.121021
27.7204 0.021986
20.5179 0
33.7217 0.14482
27.697 0.394069
35.88 0.02081
57.1219 0.291598
