68.9262 0.20877 136 6474.27 0.5 0.5
9.52485 0.217809
70.8153 0.318434
17.3107 0.35124
155.722 0.14774
65.9936 0.144119
19.2426 0
72.6033 0.108847
54.2283 0.065691
35.4507 0.170354
56.0311 0.258194
14.8517 0.214086
86.8025 0.155745
13.2953 0.220883
111.994 0.167111
44.2337 0.086654
88.6054 0.135048
18.4457 0.052347
26.9632 0.080829
148.75 0.148537
24.3241 0.01204
51.9539 0.210797
59.1068 0.260006
62.6777 0.18572
210.674 0.119224
34.9191 0.122221
38.0784 0.223859
15.7952 0.105369
20.2054 0.516488
48.0074 0.184297
57.6966 0.370727
37.363 0.164916
40.2317 0.30479
125.766 0.057132
99.9476 0.178273
41.1688 0.068017
100.592 0.080441
40.2985 0.202407
47.9607 0.13779
18.4815 0.313599
82.0289 0.047055
43.9332 0.068428
31.3203 0.274757
12.2949 0.398159
21.5017 0.227587
33.8208 0.224629
24.1102 0.059382
46.2795 0.185156
26.9458 0.054282
21.3692 0.219222
73.6929 0.07419
46.5903 0.106078
35.4262 0.092681
39.7179 0.008472
96.8672 0.182386
10.992 0.042873
80.9991 0.087153
53.2141 0.011694
62.4444 0.124331
36.6107 0.185966
77.5896 0.049489
37.8061 0.16006
46.1366 0.137401
126.603 0.092776
38.4186 0.217068
53.0097 0.247398
78.9719 0.19067
27.7011 0.054335
21.7372 0.123601
51.6505 0.3535
47.8926 0.221074
12.9579 0.613776
46.2397 0.082152
26.8801 0.220746
44.6718 0.191271
24.4024 0.355259
113.16 0.129496
28.8969 0.300749
76.1698 0.372836
62.7236 0.284693
43.8323 0.168638
34.8753 0.293669
60.4858 0.256037
40.3974 0.139583
28.0547 0.182535
23.1263 0.139523
42.4328 0.142358
30.8378 0.124785
27.2401 0.023178
108.401 0.216602
58.7091 0.054466
85.7663 0.084698
39.6155 0.148799
108.671 0.130477
22.7534 0.136568
34.0638 0.115389
32.7533 0.092636
66.8982 0.163446
123.792 0.220276
51.4759 0.178856
65.4266 0.14113
15.6296 0.498568
25.1303 0.196546
29.6178 0.010763
50.7887 0.123035
38.5573 0.334789
19.3153 0.297942
53.6058 0.094963
29.9476 0.13427
102.465 0.222302
29.7068 0.33717
31.5092 0.207088
73.8514 0.28362
26.5037 0.318994
19.3855 0.045871
18.2955 0.152555
34.585 0.495913
25.9599 0.315834
12.9338 0.133588
30.5879 0.106895
29.8187 0.009595
23.3127 0.126594
60.0135 0.337546
40.5748 0.030474
53.349 0.181619
15.1272 0.15727
27.6658 0.065929
40.9063 0.087865
13.5004 0.011107
21.5155 0
16.3773 0.368689
24.488 0.557847
19.2778 0.237835
11.5428 0.868857
