52.7178 0.224786 176 3789.24 0.5 0.5
151.232 0.144733
47.7005 0.242691
54.3136 0.036245
10.3429 0.166518
144.133 0.071579
54.6778 0.229917
20.2181 0.246808
106.591 0.155343
123.027 0.194375
71.943 0.026164
28.9793 0.115785
20.9367 0.040059
191.822 0.124587
180.77 0.127686
78.6217 0.209109
52.8433 0.066765
23.9195 0.126592
67.7393 0.188612
144.571 0.198766
22.0644 0.501455
60.918 0.046919
72.3815 0.197902
43.0629 0.111389
23.128 0.093832
17.3286 0.053946
22.4737 0.018141
55.19 0.101613
34.1017 0.030144
64.3119 0.170506
58.0623 0.112142
30.4017 0.095962
29.2681 0.298727
36.4438 0.065259
69.5546 0.173885
26.7261 0.077391
57.3027 0.030996
30.522 0.191316
116.244 0.057623
39.5534 0.077167
65.9781 0.134668
44.1992 0.288328
34.599 0.290772
34.1547 0.15946
18.3081 0.184844
24.2186 0.136351
38.7283 0.141086
17.175 0.314979
219.625 0.192724
81.4096 0.043856
40.4979 0
56.5247 0.110138
55.3874 0.363653
86.1018 0.022118
29.0516 0.058972
14.9949 0.083906
16.8039 0.134332
51.7261 0.098427
87.6986 0.091054
18.9141 0
40.5995 0.011862
41.4112 0.302929
53.9955 0.236388
59.5735 0.242514
21.427 0.053217
