20.9884 0 96 13527.4 0.5 0.5
18.5909 0.300574
35.4886 0
312.479 0.216472
39.1457 0.383981
19.7168 0
30.6787 0
47.9205 0.303474
20.3114 0.122246
23.4135 0
18.5001 0.80368
23.7697 0
31.4709 0.995
31.5806 0.067164
100.047 0.149708
13.2101 0
9.7218 0.130758
119.648 0.370469
65.2386 0.118657
25.0374 0.063048
62.5347 0.126456
19.1778 0
35.9638 0.084502
46.7248 0
78.8816 0.207141
26.7961 0
13.4173 0
51.7031 0.049462
29.9317 0
53.3257 0.093488
16.1472 0
28.9628 0.168901
38.4899 0.190985
82.703 0.124572
45.3065 0.311178
33.8172 0.497921
21.6025 0.292219
38.8089 0.260751
12.868 0
75.8346 0.054284
13.7634 0
18.4435 0
32.612 0.156865
59.0934 0.10449
58.9479 0.077233
20.1026 0.010339
100.882 0.304141
35.7996 0.354799
10.4548 0
68.0877 0.262151
11.5111 0
23.1096 0
77.6404 0.201535
68.9188 0.124903
50.6029 0.051654
26.1928 0.142172
25.4251 0.827822
61.2625 0.074919
13.448 0
24.6719 0.08349
139.461 0.117145
58.4968 0.228524
51.5813 0.210359
37.7243 0.072876
61.4012 0.284192
49.8703 0.354023
25.7641 0.062248
38.7514 0.121783
50.7395 0.278484
36.4185 0.090433
70.3658 0.293739
22.3018 0.084077
150.352 0.109939
69.8559 0.250159
63.8699 0.150693
30.3738 0.130976
72.0014 0.283505
18.8355 0.6764
13.0684 0.01453
19.6017 0.228732
13.9884 0.065893
39.092 0.2358
62.653 0.205533
34.1041 0.08089
14.1311 0.194105
16.9512 0
9.51073 0.314515
143.785 0.044394
17.7839 0
7.83631 0
95.3317 0.136847
73.5474 0.259319
69.937 0.122919
102.829 0.219258
36.9226 0.094356
25.2846 0.325867
22.7018 0.206014
25.071 0.02712
18.3854 0.157993
38.0443 0.326087
42.5684 0.137773
59.471 0.011657
14.7707 0.023621
59.6336 0.219701
54.0001 0.0839
16.1816 0.013656
61.4921 0.102243
12.9471 0.204807
31.191 0
56.7927 0.175215
53.4162 0.288748
34.5567 0
14.4283 0
213.526 0.228699
16.0293 0.144
70.6663 0.079891
29.4731 0.154991
12.6734 0
30.9313 0
13.5909 0
35.7636 0.112877
43.1794 0.328956
38.5024 0.851986
44.4045 0.055825
36.6766 0
47.4915 0.148141
21.1705 0
44.3467 0.167499
32.1027 0.125861
21.6852 0
19.3629 0.172298
23.4956 0
44.2287 0.137837
48.2147 0.28636
15.6356 0
30.3547 0.111347
30.2497 0.058541
98.6887 0.07803
13.75 0
19.6794 0.217317
58.3321 0.123245
37.6694 0.168575
41.7159 0.105511
38.7343 0.145471
51.7207 0.132672
62.1613 0.620799
57.1676 0.237518
46.2483 0.174684
45.6437 0.073958
36.8818 0.088101
26.2738 0
64.6841 0.031427
14.0645 0.249769
31.642 0
54.2136 0.375254
8.42575 0
65.287 0.114715
16.9136 0.03798
13.6172 0.179042
30.5189 0.066938
51.8822 0.083994
34.9725 0.111209
21.6041 0.073177
45.4552 0.205187
14.5637 0
17.1014 0.08663
36.4678 0
11.3982 0
29.2937 0
30.6933 0
32.9 0.032931
23.5012 0.200566
39.9619 0.171591
15.4196 0
19.2018 0.09965
76.7556 0.123988
17.0042 0
17.649 0
25.1035 0
143.488 0.110536
109.736 0.094051
21.7807 0.373475
13.9775 0
18.812 0.045604
18.359 0.532406
22.915 0
21.0725 0.195483
70.7487 0.073411
16.1575 0.125102
18.7921 0
66.377 0.068579
25.2999 0
73.8349 0.215667
73.1563 0.200446
86.1924 0.279819
47.732 0.193224
50.7123 0.179931
32.7721 0.164767
14.2644 0.093534
13.7533 0.064464
83.5262 0.191156
24.2566 0.044554
26.0905 0.279986
37.4132 0
36.0726 0.125864
17.144 0.095927
29.3106 0.216138
24.0185 0
52.2606 0.117261
98.6622 0.178586
51.8111 0.093627
32.7792 0.037819
124.429 0.097982
60.1876 0.251308
22.7404 0.286866
36.1256 0.191465
32.8769 0
27.8831 0.121857
24.3956 0.030169
81.5795 0.168837
47.3986 0.119022
21.9035 0
22.9588 0.179948
54.257 0.103819
30.6327 0.288547
37.1379 0.358233
43.7541 0.12055
22.521 0
24.9591 0
54.4271 0.128973
24.5363 0.762151
16.1273 0
53.9531 0.101012
25.2525 0.27981
21.3345 0.439223
9.29619 0
15.2397 0
59.3358 0
32.0453 0.17602
156.47 0.19522
25.9635 0
37.6889 0.151097
51.4747 0.154795
11.758 0.264392
15.2494 0
12.5755 0.025474
18.6749 0.154797
33.2832 0.170644
71.4292 0.237932
21.7286 0.40127
41.5132 0.158345
22.8058 0
20.0289 0.663724
22.9717 0.055312
23.8295 0.066557
39.7049 0.19857
15.8703 0
76.8766 0.736753
13.0953 0
19.4385 0.098386
89.6208 0.264794
10.965 0.065977
33.7252 0.067873
41.8388 0.364839
25.7784 0.409818
24.5023 0
66.197 0.236569
35.5472 0.064667
30.9885 0
57.4413 0.173082
17.9716 0.106071
61.6073 0.186303
56.6197 0.153003
20.4047 0.030664
13.3467 0.239448
22.4874 0.092676
32.0886 0.068989
29.0059 0
70.227 0.160949
35.4854 0.202666
23.5243 0.118457
47.2923 0
21.7476 0
49.9842 0.126332
60.0496 0.202048
34.4322 0.656033
40.5623 0.225196
19.1802 0.06251
26.2213 0
14.8717 0.052639
18.0471 0.219135
26.057 0
20.6269 0.176344
21.3884 0.177098
18.7308 0
14.993 0.242247
12.7296 0
21.7841 0
17.2049 0
9.69421 0
11.9221 0
14.1881 0
28.7051 0.014559
18.2955 0
14.9691 0.020021
17.1263 0
16.7404 0.093705
36.8498 0.083573
15.0688 0.489819
32.5827 0.043385
27.2404 0.087369
42.7047 0
23.3663 0.157557
23.3125 0.05917
67.9611 0.099835
73.2347 0.317174
70.7399 0.349935
19.2181 0.536014
37.9844 0.496067
9.21581 0
26.8943 0.024428
39.3313 0
16.8529 0.017338
17.8987 0
16.8215 0
17.4682 0.051511
15.779 0
63.9616 0.054285
12.8363 0
12.6397 0.059818
18.2396 0.195726
18.1904 0.106196
14.8558 0
13.7611 0
10.6146 0.133
13.1156 0.067792
12.9797 0.188681
32.8764 0
18.6932 0.676579
38.3825 0.083526
14.4419 0
15.0337 0
15.3974 0
14.8935 0.286796
34.1254 0.047244
23.7091 0
16.4667 0.22084
22.754 0.365064
28.1155 0
19.4099 0
14.0508 0.829868
23.1612 0.687779
18.4091 0
31.7601 0.078933
22.6416 0.39656
9.61607 0
20.0384 0
14.2672 0.152221
16.6039 0
31.1065 0
