50.0149 0.064946 116 16133.9 0.5 0.5
74.1915 0.164713
22.6846 0.004726
48.187 0.015076
81.7371 0.048906
44.9612 0.236008
14.5734 0
97.7235 0.085859
33.2964 0.004511
34.5313 0.018926
51.7129 0.111573
197.946 0.194644
67.6373 0.140055
90.382 0.191211
66.1173 0.080635
146.813 0.118124
112.208 0.080609
22.426 0
16.5269 0.113914
129.61 0.079924
49.2279 0.186869
161.027 0.121414
17.4068 0.304655
13.6337 0.021879
140.155 0.057075
70.6517 0.127953
77.8077 0.253102
66.9928 0.026716
86.7505 0.152881
15.2943 0.137495
31.8041 0.40905
35.8738 0.104916
187.094 0.139785
24.2269 0.163889
43.9745 0.023546
69.3952 0.133455
22.2855 0.023697
144.646 0.182218
179.925 0.115729
127.437 0.153372
96.921 0.118383
76.1612 0.531499
12.3782 0.06119
205.12 0.128228
71.2333 0.126614
63.5247 0.180314
80.8432 0.103345
49.0716 0.088231
22.5639 0.029761
30.2906 0.387681
27.1532 0.075404
154.92 0.097646
179.292 0.1413
28.541 0.17352
47.2692 0.136753
91.2313 0.11564
20.8983 0.312677
10.423 0.219194
101.183 0.153561
12.0118 0.511579
77.2426 0.024888
33.7497 0.202071
87.9765 0.113972
74.3367 0.095943
91.4674 0.072744
28.701 0.177834
29.5409 0.109521
20.288 0.202966
65.155 0.156486
140.829 0.120306
32.3268 0.023153
129.783 0.120905
124.296 0.058569
13.0465 0.105589
136.374 0.101363
249.522 0.090964
59.8359 0.138527
49.0523 0.06239
21.7644 0
70.2013 0.175802
43.2062 0.193825
16.0849 0.223187
58.3141 0.217926
48.7974 0.18846
194.647 0.134846
15.0583 0.105911
281.775 0.143069
191.641 0.08242
78.37 0.145331
38.2784 0.042727
45.9406 0.062681
39.9381 0.090399
126.161 0.12206
98.5197 0.086276
117.87 0.216238
58.5377 0.03959
116.896 0.157738
39.2393 0.189298
26.083 0.075289
22.8946 0.166946
34.3037 0.065314
212.759 0.107111
42.3196 0.156073
9.92984 0.009274
55.8342 0.071762
31.5587 0.039196
39.6052 0.168538
74.9381 0.199905
46.1363 0.061071
32.1612 0.170306
33.057 0.010751
71.3363 0.121439
75.3214 0.183499
38.6711 0.287076
123.8 0.115676
74.3868 0.203976
120.207 0.210429
47.6282 0.182166
10.9821 0.018922
37.1759 0.039998
115.145 0.146673
72.2757 0.290582
63.3353 0.124426
30.1645 0
224.637 0.123655
55.215 0.093368
86.3621 0.07676
30.216 0.05123
63.1136 0.179825
23.5962 0.130859
25.3379 0.067423
43.3086 0.064825
38.1375 0.032398
24.2414 0.357511
41.5778 0.121357
23.0866 0.03559
306.649 0.101628
64.8077 0.192929
83.9873 0.167234
26.1376 0.319328
115.414 0.184362
52.4397 0.0078
29.7405 0.081051
11.216 0.082998
51.5957 0.192539
45.0844 0.121356
22.4065 0.207074
107.576 0.117858
59.6262 0.156361
19.2836 0.044758
62.3006 0.251134
43.0806 0.169863
41.6524 0.144328
53.2019 0.231262
60.8865 0.14439
117.767 0.087148
102.208 0.134053
56.8737 0.092256
51.8248 0.171789
66.8102 0.078214
90.6847 0.217297
48.1912 0.10833
111.967 0.10148
89.1997 0.059048
28.0274 0.057103
77.691 0.165691
7.96599 0.217793
38.7334 0.084449
71.0072 0.098646
49.4074 0.074561
21.8172 0.046814
38.8538 0.194284
254.961 0.134047
73.8914 0.206774
41.5227 0.260498
119.02 0.187101
75.9021 0.129313
115.718 0.157226
61.4943 0.101471
38.5558 0.169708
23.2634 0.239044
50.8351 0.246082
51.0927 0.073031
100.873 0.161327
151.387 0.23179
165.974 0.06421
26.4901 0.135621
74.8564 0.12964
37.1152 0.122698
16.7969 0.182737
27.3681 0.109974
24.8988 0.094281
30.1934 0.092918
228.865 0.133306
131.671 0.07885
58.435 0.130812
55.4792 0.18602
66.5762 0.008793
45.9597 0.042687
35.8472 0.134512
31.1539 0.007802
17.078 0.100782
77.493 0.080351
42.5711 0.0264
67.8219 0.131994
23.3288 0.337567
23.0568 0.039537
22.0793 0.130269
22.1467 0.020039
84.7658 0.269271
47.4335 0.137941
35.4721 0.109839
32.4105 0.051764
53.4928 0.179093
17.6416 0.242162
24.0841 0.193525
52.4508 0.210606
28.1198 0.152514
136.695 0.20731
57.5712 0.229899
55.4692 0.021555
47.0164 0.254372
77.5453 0.069751
26.5834 0.445302
20.5496 0.168476
24.8865 0.130464
34.8984 0.038366
67.5156 0.140113
21.8784 0.045065
14.3192 0.021675
20.4978 0.024493
43.9768 0.31932
18.952 0.007351
28.2142 0.05872
59.4029 0.383631
35.5047 0.031927
19.3402 0.354657
32.9954 0.309624
20.8486 0.101499
18.6752 0.090481
23.2951 0.057373
43.8865 0.128358
40.5576 0.244806
10.8737 0.020914
14.814 0.555369
35.7106 0.101243
30.3777 0.087471
15.8304 0.184113
24.356 0.185418
20.62 0.276119
13.5197 0.101823
22.4806 0.113222
16.8371 0.18708
8.16647 0.195198
